502,501
502,501
502,501
502,501
502,501
502,501
503,501
503,501
503,501
503,501
503,501
503,501
503,501
503,501
503,501
503,501
503,501
504,501
504,501
504,501
504,501
504,501
504,501
504,501
504,501
504,501
504,501
504,501
504,501
504,501
504,501
504,501
504,502
504,502
504,502
504,502
504,502
504,502
504,502
504,502
505,502
505,502
505,502
505,502
505,502
505,502
505,503
505,503
505,503
505,503
505,503
505,503
505,503
505,503
505,503
505,503
505,503
505,504
505,504
505,504
505,504
505,504
505,504
505,504
505,504
505,505
505,505
505,505
505,505
505,505
505,505
505,505
505,505
505,506
505,506
505,506
505,506
505,506
505,506
505,506
505,506
505,506
505,506
505,506
505,506
505,506
505,506
505,506
505,506
505,506
505,507
505,507
505,507
505,507
505,507
505,507
506,508
506,508
506,508
506,508
506,508
506,508
506,508
506,508
506,508
506,508
506,508
506,508
506,508
507,508
507,508
507,508
507,509
507,509
507,509
507,509
507,509
507,509
507,509
507,509
507,510
508,510
508,510
508,510
508,510
508,510
508,510
509,510
509,510
509,510
509,510
509,510
509,511
509,511
509,511
509,511
510,511
510,511
510,511
510,511
510,511
510,511
510,511
510,511
510,511
510,512
510,512
510,512
510,512
510,512
510,512
510,512
510,512
510,512
510,512
510,513
510,513
510,513
510,513
510,513
510,513
510,513
510,514
510,514
510,514
510,514
511,514
511,514
511,514
511,514
511,514
511,515
511,515
511,515
511,515
511,515
511,515
511,515
511,515
511,515
511,515
511,516
511,516
511,516
511,516
510,516
510,516
510,516
510,516
510,516
510,516
510,516
510,516
509,516
509,516
509,516
509,516
508,516
508,516
508,516
508,516
508,516
508,516
507,516
507,516
507,516
507,516
507,516
507,516
506,516
506,516
506,516
506,516
506,516
505,516
505,516
505,516
505,517
505,517
504,517
504,517
504,517
504,517
504,517
504,517
505,516
505,516
505,516
505,516
505,516
504,516
504,517
504,517
504,517
504,517
504,517
504,517
504,517
504,517
503,517
503,517
503,517
503,517
503,517
503,518
502,518
502,518
502,518
502,518
502,518
502,518
501,518
501,518
501,518
501,518
501,518
501,518
500,519
500,519
500,519
500,519
500,519
500,519
500,519
500,520
500,520
500,520
499,520
499,520
499,520
499,520
499,521
499,521
499,521
499,521
499,521
499,521
499,521
499,521
498,521
498,521
498,522
498,522
498,522
498,522
498,522
498,522
498,522
498,522
498,522
499,523
499,523
499,523
499,523
499,523
499,523
499,523
499,523
499,523
499,524
499,524
499,524
500,524
500,524
500,524
500,524
500,524
500,524
500,525
500,525
500,525
500,525
500,525
500,525
500,525
500,526
500,526
500,526
500,526
500,526
500,526
500,527
500,527
500,527
500,527
500,527
500,527
500,528
500,528
500,528
500,528
500,528
500,528
500,528
500,528
500,528
500,528
500,528
500,528
500,528
500,528
500,528
501,529
501,529
501,529
501,529
501,529
501,529
501,529
501,529
501,529
501,529
501,529
501,529
501,529
501,529
501,529
501,529
501,529
501,529
501,529
502,529
502,529
502,530
502,530
502,530
502,530
502,530
503,530
503,530
503,530
503,530
503,530
503,530
503,530
503,530
504,530
504,530
504,530
504,530
504,530
504,530
504,530
504,530
504,530
504,530
505,530
505,530
505,530
505,530
505,530
505,530
506,530
506,530
506,530
506,531
507,531
507,531
507,531
507,531
508,531
508,531
508,531
508,530
509,530
509,530
509,530
509,530
509,530
510,530
510,530
510,530
510,530
510,529
510,529
510,529
510,529
510,529
510,529
510,529
511,529
511,529
511,529
511,529
511,529
511,529
511,529
511,529
511,529
511,529
511,529
511,529
511,530
511,530
511,530
511,530
511,530
511,530
511,530
512,530
512,530
512,530
512,530
511,530
511,530
511,530
511,530
511,530
511,530
511,530
512,530
512,530
512,530
512,530
512,530
512,530
513,530
513,530
513,530
513,530
513,530
513,530
513,530
513,530
513,530
513,530
513,530
513,530
513,530
513,530
513,530
513,530
513,530
513,530
513,530
513,530
513,530
513,530
513,530
514,530
514,531
514,531
514,531
514,531
514,532
514,532
514,532
514,532
514,533
514,533
514,533
514,533
514,534
514,534
514,534
513,534
513,534
513,535
513,535
513,535
513,535
513,535
513,535
513,535
513,535
513,535
513,535
513,536
513,536
513,536
513,536
513,536
513,536
513,536
513,536
513,536
513,536
513,536
513,536
513,536
513,536
513,536
513,536
513,536
513,536
513,536
513,536
513,537
513,537
513,537
513,537
513,537
513,537
513,537
513,537
513,537
513,538
513,538
513,538
512,538
512,538
512,538
512,538
512,538
512,538
512,538
513,539
513,539
513,539
513,539
513,539
513,539
513,539
513,539
513,539
513,539
513,539
513,540
513,540
513,540
513,540
513,540
513,541
513,541
513,541
513,541
512,542
512,542
512,542
512,543
512,543
512,543
512,543
512,543
512,543
512,543
512,543
512,543
512,543
512,543
512,543
512,543
512,543
512,543
512,543
512,543
512,543
512,543
511,543
511,543
511,544
511,544
511,544
511,544
511,544
510,544
510,544
510,544
510,544
510,544
510,544
509,544
509,545
509,545
509,545
509,545
509,545
509,545
509,545
508,545
508,545
508,545
508,545
508,545
508,545
508,545
507,545
507,545
507,545
507,545
507,545
507,545
507,545
506,545
506,545
506,545
506,544
506,544
506,544
505,544
505,545
505,545
505,545
505,545
505,545
505,545
505,546
505,546
505,546
505,546
505,546
505,547
506,547
506,547
506,547
506,547
506,548
506,548
506,548
506,548
506,548
507,548
507,548
507,548
507,548
507,548
507,548
507,548
507,548
507,548
507,548
507,548
507,548
507,548
507,548
507,548
507,548
507,548
507,548
507,548
507,549
508,549
508,549
508,549
508,549
508,549
508,549
509,549
509,549
509,549
509,549
509,549
509,549
509,549
509,549
509,550
509,550
509,550
509,550
509,550
509,550
509,550
509,550
509,550
509,550
509,550
509,550
509,550
509,550
509,550
508,550
508,550
508,550
508,551
508,551
508,551
508,551
507,551
507,551
507,551
507,551
507,551
507,551
507,551
507,551
507,552
506,552
506,552
506,552
506,552
506,552
506,552
506,553
506,553
506,553
506,553
506,553
506,553
507,553
507,553
507,553
507,553
507,553
507,553
507,554
507,554
507,554
507,554
507,554
507,554
507,554
507,554
507,554
507,554
507,554
507,554
507,554
508,554
508,555
508,555
508,555
507,555
507,555
507,555
507,555
507,555
507,556
507,556
507,556
507,556
507,556
507,556
507,556
507,556
507,556
507,556
507,557
507,557
507,557
507,557
507,557
507,557
507,557
507,557
507,557
507,557
507,557
507,557
507,557
507,557
507,557
507,557
507,557
507,557
507,557
507,557
507,557
507,557
507,557
507,557
507,557
507,557
508,557
508,557
508,557
508,557
508,557
508,557
508,557
508,557
508,557
508,557
508,558
508,558
509,558
509,558
509,558
509,558
509,558
509,558
509,558
509,558
509,558
509,558
510,558
510,558
510,558
510,558
510,558
510,558
510,559
510,559
511,559
511,559
511,559
511,559
511,559
511,560
511,560
511,560
511,560
512,560
512,560
512,560
512,560
512,560
512,560
512,560
512,560
512,560
512,560
512,561
512,561
512,561
512,561
512,561
512,561
512,561
512,561
513,561
513,561
513,561
513,561
513,562
513,562
513,562
513,562
513,562
513,562
513,562
513,562
513,562
513,562
513,562
513,562
513,562
513,562
513,562
513,562
513,563
513,563
513,563
513,563
513,563
513,563
513,563
513,563
514,563
514,563
514,563
514,563
514,564
514,564
514,564
514,564
515,564
515,564
515,564
515,564
515,564
515,564
515,564
515,565
515,565
515,565
515,565
515,565
515,565
515,565
515,565
515,565
515,565
515,565
515,565
514,565
514,565
514,566
514,566
514,566
514,566
514,566
514,566
514,566
514,566
514,566
514,566
514,566
514,567
514,567
514,567
514,567
514,567
514,567
514,567
514,567
514,567
514,567
514,567
514,567
514,567
514,568
514,568
514,568
514,568
515,568
515,568
515,568
515,568
515,569
515,569
515,569
515,569
515,569
515,569
515,570
516,570
516,570
516,570
516,570
516,571
516,571
516,571
516,571
516,571
516,571
516,571
516,571
516,571
516,571
516,571
516,571
516,571
516,571
516,571
516,571
516,572
516,572
516,572
515,572
515,572
515,572
515,572
515,572
515,573
515,573
515,573
515,573
515,573
515,573
515,574
515,574
515,574
514,574
514,574
514,574
514,574
514,574
514,574
514,574
514,575
514,575
514,575
514,575
514,575
514,575
514,576
513,576
513,576
513,576
513,576
513,576
513,577
513,577
513,577
513,577
513,577
512,577
512,577
512,577
512,577
512,577
512,578
512,578
512,578
512,578
512,578
512,578
512,579
512,579
512,579
512,579
512,579
512,579
512,580
512,580
512,580
512,580
512,580
513,580
513,581
513,581
512,581
512,581
512,581
512,581
512,581
512,582
512,582
512,582
512,582
512,582
513,582
513,583
513,583
513,583
513,583
513,583
513,583
513,584
513,584
513,584
513,584
514,584
514,584
514,584
514,584
514,584
514,584
515,584
515,584
515,584
515,584
515,585
515,585
515,585
515,585
515,585
515,586
515,586
515,586
515,586
515,586
515,586
515,587
515,587
515,587
515,587
515,587
515,587
514,588
514,588
514,588
514,588
514,588
514,588
514,588
514,588
514,588
514,588
514,588
514,588
514,588
514,588
514,588
514,588
514,588
513,588
513,588
513,588
513,589
513,589
513,589
513,589
513,589
513,589
513,590
513,590
513,590
513,590
513,590
513,590
513,591
513,591
514,591
514,591
514,591
514,591
514,592
514,592
514,592
514,592
514,592
514,592
514,592
514,592
515,592
515,592
515,592
515,592
515,592
515,592
515,592
515,592
515,592
515,592
516,592
516,592
516,592
516,592
516,592
516,592
516,592
516,592
516,592
516,592
516,592
516,592
516,592
516,592
516,592
516,592
516,592
516,592
516,592
516,592
517,592
517,592
517,592
517,592
517,592
517,592
517,592
517,592
517,593
518,593
518,593
518,593
518,593
518,593
518,593
518,594
518,594
518,594
518,594
518,594
519,594
519,594
519,595
519,595
519,595
519,595
519,595
519,595
519,595
519,595
519,595
519,596
519,596
519,596
519,596
519,596
519,596
519,596
519,596
519,596
519,596
519,596
519,596
519,596
519,597
519,597
519,597
519,597
519,597
519,597
519,597
519,597
519,597
519,597
519,597
519,598
519,598
519,598
518,598
518,598
518,598
518,598
518,598
518,598
518,598
518,598
518,598
518,598
518,598
518,598
518,598
517,598
517,598
517,598
517,598
517,599
517,599
517,599
517,599
517,599
517,600
517,600
517,600
517,600
516,601
517,601
517,601
517,601
517,601
517,601
517,601
517,602
517,602
517,602
517,602
517,602
517,602
517,603
517,603
517,603
517,603
517,603
517,604
517,604
517,604
517,604
517,604
517,605
517,605
517,605
517,605
517,605
516,605
516,606
516,606
516,606
516,606
516,606
516,606
516,606
516,606
516,606
516,607
516,607
516,607
516,607
516,607
516,607
515,607
515,607
515,607
515,608
515,608
515,608
515,608
515,608
515,608
515,608
515,608
515,609
515,609
514,609
514,609
514,609
514,609
514,609
514,610
514,610
514,610
514,610
514,610
514,610
514,611
514,611
514,611
514,611
514,611
514,611
514,611
514,611
514,612
514,612
514,612
514,612
514,612
514,612
514,612
514,612
514,613
514,613
514,613
514,613
514,613
514,614
515,614
515,614
515,614
515,614
515,614
515,614
515,614
515,614
515,614
515,614
515,614
515,614
515,614
515,615
515,615
515,615
515,615
515,615
515,615
515,615
515,615
515,615
515,616
515,616
515,616
515,617
515,617
515,617
515,617
515,618
515,618
515,618
515,618
515,618
515,619
515,619
515,619
516,619
516,619
516,619
516,620
516,620
516,620
516,620
516,620
516,621
516,621
516,621
516,621
516,622
515,622
515,622
515,622
515,622
515,622
515,622
515,623
515,623
515,623
515,623
515,623
515,623
515,623
515,624
515,624
515,624
516,624
516,624
516,624
516,624
516,625
516,625
516,625
516,625
516,625
516,625
516,625
516,625
516,625
516,625
516,625
516,625
516,625
516,625
517,625
517,625
517,625
517,625
517,626
518,626
518,626
518,626
518,626
518,626
518,626
519,626
519,626
519,626
519,626
519,627
519,627
519,627
519,627
519,627
519,627
519,627
520,627
520,627
520,627
520,627
520,627
520,627
520,627
520,627
520,627
520,627
520,627
520,627
520,627
520,627
520,627
520,627
521,627
521,627
521,627
521,626
521,626
522,626
522,626
522,626
522,626
522,626
523,626
523,626
523,626
523,627
523,627
524,627
524,627
524,627
524,627
524,627
525,627
525,628
525,628
525,628
525,628
526,628
526,629
526,629
526,629
526,629
526,629
526,629
526,630
526,630
526,630
526,630
526,630
526,630
526,630
526,631
527,631
527,631
527,631
527,631
527,631
527,631
527,632
527,632
527,632
527,632
527,632
527,632
527,633
526,633
526,633
526,633
526,633
526,633
526,634
526,634
526,634
526,634
525,634
525,634
525,634
525,634
525,634
525,635
525,635
525,635
525,635
525,635
525,635
524,635
524,635
524,636
524,636
524,636
524,636
524,636
524,636
524,636
524,636
524,636
524,636
524,636
524,636
524,636
524,636
524,636
524,636
524,636
524,636
524,637
524,637
524,637
524,637
524,637
524,637
524,637
524,637
524,637
524,637
524,637
524,637
524,637
524,638
524,638
524,638
524,638
524,638
524,638
524,638
524,639
524,639
524,639
524,639
524,639
523,639
524,639
524,639
524,640
524,640
524,640
525,640
525,640
525,640
525,640
525,640
525,640
525,640
526,640
526,641
526,641
526,641
526,641
526,641
526,641
526,641
526,641
526,641
526,641
526,641
526,641
526,641
526,642
526,642
526,642
526,642
526,642
526,642
526,642
526,642
526,643
526,643
526,643
525,643
525,644
525,644
525,644
525,644
525,644
525,644
525,644
525,644
525,644
525,644
525,644
525,644
525,644
525,644
525,644
525,644
525,644
525,644
525,644
525,644
525,644
525,644
525,644
525,644
525,644
525,644
525,644
525,644
525,644
525,644
525,644
525,644
525,644
525,644
525,644
525,644
525,644
525,644
525,644
525,644
524,644
524,644
524,644
524,644
524,644
524,644
524,643
523,643
523,643
523,643
523,643
523,643
522,643
522,643
522,643
522,643
522,643
521,643
521,643
521,643
521,643
520,643
520,643
520,643
520,643
520,643
520,643
520,643
520,643
520,644
520,644
520,644
520,644
520,644
520,644
520,644
520,644
520,645
520,645
520,645
520,645
520,645
520,645
520,645
520,645
520,646
520,646
520,646
520,646
520,646
520,646
520,646
521,646
521,647
521,647
521,647
521,647
521,648
521,648
521,648
522,648
522,648
522,649
522,649
522,649
522,649
523,649
523,649
523,649
523,649
523,649
523,649
524,649
524,649
524,649
524,649
524,649
524,649
524,649
525,648
525,648
525,648
525,648
525,648
525,648
526,648
526,648
526,649
526,649
526,649
526,649
527,649
527,649
527,649
527,649
528,649
528,649
528,649
528,649
529,649
529,649
529,649
530,649
530,649
530,649
530,649
531,649
531,648
531,648
531,648
532,648
532,648
532,648
532,648
532,648
533,648
533,648
533,648
533,648
533,648
533,648
534,648
534,648
534,648
534,648
534,648
534,649
534,649
534,649
535,649
535,650
535,650
535,650
535,650
535,650
535,650
536,650
536,650
536,651
536,651
536,651
536,651
536,651
536,651
536,652
536,652
536,652
536,652
536,652
536,653
537,653
537,653
537,653
537,653
537,654
537,654
537,654
538,654
538,654
538,655
538,655
538,655
538,655
538,655
538,655
538,655
539,655
539,654
539,654
539,654
539,654
539,654
539,654
539,654
540,654
540,654
540,654
540,654
541,654
541,654
541,654
542,654
542,654
542,654
542,654
542,654
542,654
542,654
542,654
542,654
542,654
542,654
542,655
542,655
542,655
542,655
542,655
542,656
542,656
542,656
542,656
542,656
543,656
543,657
543,657
543,657
543,657
543,657
543,657
543,657
543,657
543,657
544,657
544,657
544,658
544,658
544,658
544,658
544,658
545,659
545,659
545,659
545,659
545,659
545,660
545,660
545,660
545,660
545,660
545,660
545,661
545,661
545,661
545,661
545,661
545,661
545,662
545,662
545,662
545,662
545,662
545,662
545,662
545,663
545,663
545,663
545,663
545,663
545,664
545,664
545,664
545,664
545,664
545,664
544,664
544,664
544,664
544,664
544,664
544,664
544,664
544,664
544,664
544,664
544,664
544,664
543,664
543,664
543,664
543,664
543,664
543,664
543,664
543,664
542,664
542,664
542,664
542,664
542,664
542,664
542,664
542,665
541,665
541,665
541,665
541,665
541,665
541,666
541,666
541,666
541,666
541,666
541,666
540,666
540,666
540,666
540,666
540,666
540,666
540,666
540,666
540,666
540,666
539,666
539,666
539,667
539,667
539,667
538,667
538,667
538,667
538,667
538,667
538,667
537,667
537,667
537,667
537,667
537,667
537,667
537,667
536,667
536,667
536,667
536,667
536,667
536,667
535,667
535,667
535,667
535,667
535,667
535,667
534,667
534,667
534,667
534,667
534,668
534,668
534,668
534,668
534,668
534,668
534,668
534,668
533,668
533,668
533,668
533,669
533,669
533,669
533,669
533,669
533,669
533,669
533,669
533,669
534,669
534,669
534,670
534,670
534,670
534,670
534,670
534,670
534,670
534,670
534,670
534,670
534,670
534,670
534,670
534,670
534,670
534,671
534,671
534,671
534,671
534,671
534,671
534,671
534,672
534,672
534,672
534,672
533,672
533,672
533,672
533,672
533,672
533,672
533,672
533,672
533,672
533,672
532,672
532,672
532,672
532,672
532,672
532,672
532,673
532,673
532,673
532,673
532,673
532,673
532,673
532,673
532,673
532,673
532,673
532,673
532,673
532,673
532,673
532,673
532,673
531,673
531,673
531,673
531,673
531,673
531,673
531,674
531,674
531,674
531,674
531,674
531,675
531,675
531,675
531,675
530,675
530,675
530,675
530,675
530,675
529,675
529,675
529,676
529,676
529,676
529,676
529,676
529,676
529,676
528,676
528,676
528,676
528,677
528,677
528,677
528,677
528,676
528,676
529,676
529,676
529,676
529,676
529,676
529,676
529,676
529,676
529,676
529,676
529,677
529,677
528,677
528,677
528,677
528,677
528,677
528,677
528,678
528,678
528,678
528,678
528,678
528,678
528,678
528,678
528,678
528,678
528,678
528,678
528,678
528,678
528,678
528,678
528,678
528,678
528,678
528,678
528,679
528,679
528,679
528,679
528,679
528,679
528,679
528,679
528,679
528,679
528,680
528,680
528,680
528,680
528,680
528,680
528,680
528,680
528,680
528,680
528,680
528,681
528,681
529,681
529,681
529,681
529,681
529,682
529,682
529,682
529,682
529,682
529,682
529,682
529,682
529,682
530,682
530,682
530,682
530,683
530,683
530,683
530,683
531,683
531,683
531,683
531,683
531,683
531,683
532,683
532,683
532,683
532,683
532,683
533,683
533,683
533,683
533,683
533,683
533,683
533,683
533,683
533,683
533,683
533,683
533,683
533,683
533,683
533,683
534,683
534,683
534,683
534,683
534,683
534,683
534,683
534,683
534,683
535,683
535,684
535,684
535,684
535,684
535,684
536,684
536,684
536,684
536,685
536,685
536,685
536,685
536,685
536,685
536,685
536,686
536,686
536,686
536,686
536,686
536,686
536,686
536,686
536,686
536,686
536,686
536,686
536,686
536,686
536,686
536,686
536,686
536,686
536,687
536,687
536,687
536,687
536,687
536,687
536,687
535,687
535,687
535,687
535,687
535,687
535,687
535,687
534,687
534,687
534,687
534,687
534,687
534,687
534,687
534,687
534,687
534,687
533,688
533,688
533,688
533,688
533,688
532,688
532,688
532,688
531,688
531,688
531,688
531,688
531,688
530,688
530,688
530,688
530,688
530,688
530,688
530,688
530,688
530,688
530,689
530,689
530,689
530,689
530,689
530,689
530,689
530,689
529,689
529,690
529,690
529,690
529,690
529,690
529,690
529,690
529,690
529,690
529,690
529,690
529,691
529,691
529,691
529,691
529,691
529,691
529,692
529,692
529,692
529,692
529,692
528,692
528,692
528,693
528,693
528,693
528,693
528,693
528,693
528,693
529,694
529,694
529,694
530,694
530,695
530,695
530,695
531,695
531,695
531,696
531,696
531,696
531,696
531,696
531,696
532,696
532,697
532,697
532,697
532,697
532,697
532,697
532,697
532,697
532,697
532,697
533,698
533,698
533,698
533,698
533,698
533,698
533,698
533,698
534,698
534,698
534,698
534,698
534,698
534,698
534,698
534,699
534,699
534,699
534,699
534,699
534,699
534,699
534,699
534,699
535,699
535,699
535,699
536,699
536,699
536,699
536,699
537,699
537,699
537,699
537,699
537,699
538,699
538,699
538,699
538,699
538,699
538,699
538,699
538,699
538,699
538,699
538,699
538,699
539,699
539,699
539,699
539,699
539,699
539,699
539,700
539,700
539,700
539,700
539,700
539,700
539,700
539,700
538,700
538,700
539,700
539,701
539,701
539,701
539,701
539,701
539,701
539,701
539,702
539,702
539,702
539,702
539,702
539,702
539,702
539,702
539,702
539,702
539,702
539,702
539,702
539,702
538,702
538,703
538,703
538,703
538,703
538,703
538,703
538,703
538,703
537,703
537,703
537,703
537,703
537,703
536,703
536,703
536,704
536,704
536,704
535,703
535,703
535,703
535,703
535,703
534,703
534,703
534,703
534,703
534,703
534,703
534,703
534,703
534,703
534,703
534,703
534,703
534,703
534,703
534,703
534,703
534,703
534,703
534,703
534,703
534,703
534,703
534,703
533,703
533,703
533,703
533,703
533,703
533,703
533,703
533,703
533,703
533,703
533,703
533,703
533,703
533,703
533,703
533,703
533,704
533,704
533,704
533,704
533,704
533,704
533,704
533,704
533,704
533,704
533,704
533,704
533,704
533,704
533,704
532,704
532,705
532,705
532,705
531,705
531,705
531,705
531,705
530,705
530,705
530,705
530,705
530,705
530,705
530,705
530,706
530,706
530,706
530,706
530,706
530,706
530,706
530,706
530,706
529,706
529,706
529,706
529,706
529,706
529,706
529,706
529,706
529,706
528,706
528,706
528,706
528,706
528,706
528,706
528,707
528,707
527,707
527,707
527,707
527,707
527,707
527,707
527,708
527,708
527,708
527,708
527,708
527,708
527,708
527,708
527,708
527,708
527,708
527,708
527,708
527,708
527,708
527,709
527,709
527,709
527,709
527,709
527,710
527,710
527,710
526,710
526,710
526,711
526,711
526,711
526,711
526,711
526,711
526,712
525,712
525,712
525,712
525,712
525,712
525,712
525,712
525,712
525,712
525,712
525,712
525,712
525,712
525,712
525,712
525,712
525,712
525,713
525,713
525,713
525,713
525,713
525,713
525,713
525,713
525,713
524,713
524,713
524,713
524,713
524,713
524,713
524,713
524,713
524,713
524,714
524,714
524,714
524,714
524,714
524,714
524,714
524,714
524,714
524,715
524,715
524,715
524,715
524,715
524,715
524,715
525,716
525,716
525,716
525,716
525,716
525,716
525,716
525,716
526,716
526,716
526,716
526,716
526,716
526,716
526,716
526,716
525,716
525,716
525,716
525,716
525,716
525,716
525,717
524,717
524,717
524,717
524,717
523,717
523,717
523,717
523,717
523,717
523,718
522,718
522,718
522,718
522,718
522,719
522,719
522,719
522,719
522,719
522,719
522,719
522,720
522,720
522,720
522,720
522,720
522,720
522,720
522,720
522,720
522,720
522,720
522,720
522,720
522,720
522,720
522,720
522,721
522,721
522,721
522,721
522,721
523,721
523,721
523,722
523,722
523,722
523,722
523,722
523,722
523,722
523,722
523,722
523,722
523,723
523,723
523,723
523,723
523,723
523,723
523,723
522,723
522,723
522,723
522,724
522,724
522,724
522,724
522,724
522,724
522,724
522,724
522,724
522,725
522,725
522,725
521,725
522,725
522,725
522,726
522,726
522,726
522,726
522,726
523,727
523,727
523,727
523,727
523,727
523,727
523,727
523,727
523,727
523,727
523,727
523,727
523,727
523,728
523,728
523,728
524,728
524,728
524,728
524,728
524,729
524,729
524,729
524,729
524,729
524,730
524,730
524,730
524,730
523,730
523,730
523,731
523,731
523,731
523,731
523,731
523,731
523,731
523,731
523,731
523,731
523,731
523,731
523,731
523,731
523,731
523,731
523,731
523,731
523,731
523,731
523,731
523,731
523,732
523,732
523,732
523,732
523,732
524,732
524,732
524,732
524,732
524,732
524,732
524,732
524,732
524,732
524,732
524,732
524,732
524,732
524,732
524,732
524,732
524,732
524,732
524,732
524,733
524,733
524,733
524,733
524,733
524,733
524,733
524,733
524,733
524,733
524,733
524,733
525,733
525,733
525,733
525,734
524,734
524,734
524,733
524,733
524,733
523,733
523,733
523,733
523,733
523,733
523,734
522,734
522,734
522,734
522,734
522,734
522,734
522,734
521,735
521,735
521,735
521,735
521,735
521,735
520,735
520,735
520,735
520,735
520,736
520,736
520,736
520,736
520,736
520,736
519,736
519,736
519,736
519,736
519,736
519,736
519,736
519,736
519,736
519,736
518,737
518,737
518,737
518,737
518,737
517,737
517,737
517,737
517,737
517,737
517,737
517,737
517,737
516,737
516,737
516,737
516,738
516,738
516,738
516,738
516,738
516,739
516,739
516,739
516,739
516,739
516,739
516,740
516,740
517,740
517,740
517,740
517,740
517,740
517,741
517,741
517,741
517,741
517,741
517,742
517,742
517,742
517,742
517,742
517,743
517,743
517,743
517,743
517,743
517,743
517,743
517,743
517,744
517,744
517,744
517,744
517,744
517,744
517,744
517,744
517,745
517,745
517,745
517,745
517,745
517,745
517,745
517,745
517,745
517,745
517,745
517,745
517,746
517,746
517,746
517,746
517,746
517,746
517,746
517,746
516,746
516,746
516,746
516,746
516,746
516,746
516,746
516,746
515,746
515,746
515,746
515,746
515,746
515,746
515,746
515,746
515,746
514,746
514,746
514,746
514,746
514,746
514,746
514,746
514,746
514,746
514,746
514,746
514,746
514,746
514,746
513,746
513,746
513,746
513,747
513,747
513,747
513,747
513,747
513,747
513,747
513,747
513,747
513,747
513,747
513,747
513,747
513,747
513,747
513,747
513,748
513,748
513,748
513,748
513,748
513,748
513,748
513,749
513,749
513,749
513,749
513,749
513,750
513,750
513,750
513,750
513,750
513,751
513,751
513,751
513,751
513,751
513,752
513,752
513,752
513,752
513,752
513,752
513,753
513,753
513,753
513,753
513,753
513,753
513,754
513,754
513,754
513,754
513,754
513,754
513,754
513,754
513,755
513,755
513,755
513,755
513,755
513,755
513,755
513,755
513,756
513,756
513,756
513,756
513,756
513,756
513,756
513,757
513,757
513,757
514,757
514,758
514,758
514,758
514,758
514,758
514,759
514,759
514,759
514,759
514,759
514,759
514,759
515,759
515,759
515,760
515,760
515,760
515,760
515,760
515,760
515,760
515,760
515,760
515,760
515,760
515,760
515,760
515,760
515,760
515,761
515,761
515,761
515,761
515,761
515,761
515,761
515,761
515,762
515,762
515,762
514,762
514,762
514,763
514,763
514,763
514,763
514,763
514,763
514,763
514,763
514,764
514,764
514,764
513,764
513,764
513,764
513,764
513,764
513,765
513,765
513,765
513,765
513,765
513,765
513,766
513,766
513,766
513,766
513,766
513,766
513,766
513,766
513,766
512,766
512,766
512,766
512,766
512,766
512,766
512,766
512,766
511,766
511,766
511,766
511,766
511,765
511,765
511,765
511,765
511,765
511,765
511,765
511,765
511,765
511,765
511,765
511,765
511,765
511,765
511,765
511,765
511,765
511,765
511,765
511,765
511,765
510,765
510,765
510,765
510,765
510,765
510,766
510,766
510,766
510,766
510,766
510,766
509,766
509,766
509,767
509,767
509,767
509,767
509,768
509,768
509,768
509,768
509,769
509,769
509,769
509,770
509,770
509,770
510,771
510,771
510,771
510,771
510,772
510,772
510,772
510,772
510,772
510,772
510,773
510,773
510,773
510,773
510,773
510,773
510,773
510,773
510,773
509,774
509,774
509,774
509,774
509,774
509,774
509,774
509,774
509,774
509,774
509,774
509,774
509,775
509,775
509,775
509,775
509,776
509,776
509,776
509,776
509,777
509,777
509,777
509,777
509,778
509,778
509,778
509,778
509,778
509,779
509,779
509,779
509,779
508,779
508,779
508,779
508,780
508,780
508,780
508,780
508,780
508,780
507,780
507,780
507,780
507,781
507,781
507,781
507,781
507,782
507,782
507,782
507,783
507,783
507,783
507,783
506,783
506,783
506,783
506,783
506,783
506,783
505,783
505,783
505,783
505,784
505,784
505,784
505,784
505,784
505,784
505,784
504,784
504,784
504,784
504,784
504,784
504,784
504,784
504,784
504,784
504,784
504,785
504,785
504,785
504,785
504,785
504,785
504,785
504,785
503,785
503,785
503,785
503,785
503,785
503,785
503,785
503,785
503,785
503,786
503,786
503,786
503,786
503,786
503,786
503,786
503,786
503,786
503,786
503,786
503,786
503,786
503,786
503,786
503,786
503,786
503,786
503,786
503,786
503,786
502,786
502,786
502,786
502,786
502,786
502,786
502,786
502,786
502,786
502,786
502,786
502,786
502,786
502,786
502,786
502,786
502,786
501,786
501,786
501,786
501,786
501,786
501,786
501,786
500,786
500,786
500,786
500,786
500,786
499,786
499,786
499,786
499,786
499,786
499,786
499,787
499,787
498,787
498,787
498,787
498,787
498,787
498,787
498,787
498,787
497,787
497,787
497,787
497,787
497,787
497,786
496,786
496,786
496,786
496,786
496,786
495,786
495,786
495,786
495,786
495,786
494,786
494,786
494,786
494,786
494,786
494,786
494,785
494,785
494,785
494,785
494,785
494,785
493,785
493,785
493,785
493,785
493,784
493,784
493,784
493,784
493,784
493,784
493,784
493,784
493,784
493,784
493,784
493,784
493,784
493,784
493,784
492,784
492,784
492,784
492,784
492,784
492,784
492,784
492,784
492,784
492,784
492,784
491,784
491,784
491,784
491,784
491,784
490,784
490,784
490,784
490,784
490,784
489,784
489,784
489,785
489,785
489,785
489,785
489,785
489,785
489,785
489,785
488,785
488,785
488,785
488,785
488,785
488,785
488,785
488,785
488,785
487,785
487,785
487,785
487,785
487,785
487,785
486,785
486,785
486,786
486,786
486,786
486,785
486,785
485,785
485,785
485,785
485,784
485,784
485,784
485,784
484,784
484,784
484,784
484,784
484,784
484,784
484,784
484,784
484,784
484,784
483,784
483,784
483,784
483,784
483,784
483,784
483,784
483,784
483,784
483,784
483,784
483,784
483,784
483,784
483,784
483,784
483,784
483,785
483,785
483,785
483,785
483,785
483,785
483,785
483,785
483,786
483,786
483,786
483,786
483,786
483,786
484,786
484,786
484,786
484,786
484,786
484,786
484,786
484,786
484,786
484,786
484,787
484,787
484,787
484,787
484,787
484,787
484,787
485,788
485,788
485,788
485,788
485,788
484,788
484,789
484,789
484,789
484,789
484,789
484,790
484,790
483,790
483,790
483,790
483,790
483,790
483,790
483,790
482,790
482,790
482,790
482,790
482,790
482,790
482,790
481,790
481,790
481,790
481,791
481,791
481,791
481,791
481,791
480,791
480,791
480,791
480,791
480,792
480,792
480,792
480,792
480,792
480,792
479,792
479,792
479,793
479,793
479,793
479,793
479,793
479,793
479,793
479,793
478,793
478,793
478,793
478,793
478,793
478,793
478,793
478,793
478,793
478,793
478,793
478,793
477,793
477,793
477,793
477,793
477,793
477,793
477,793
477,793
477,793
476,793
476,793
476,793
476,793
476,793
476,793
476,793
476,793
476,793
476,793
476,794
476,794
476,794
476,794
476,794
476,794
476,794
475,794
475,794
475,794
475,795
475,795
474,795
474,795
474,795
474,795
474,796
474,796
474,796
474,796
474,796
473,796
473,796
473,796
473,796
473,796
473,796
473,796
473,796
473,796
473,796
472,796
472,796
472,796
472,796
472,796
472,796
471,796
471,796
471,796
471,796
471,796
471,796
470,796
470,796
470,796
470,796
470,795
469,795
469,795
469,795
469,795
469,795
468,795
468,795
468,794
468,794
468,794
467,794
467,794
467,794
467,795
467,795
467,795
466,795
466,795
466,795
466,795
466,795
466,795
465,795
465,795
465,795
465,795
465,795
465,795
464,796
464,796
464,796
464,796
464,796
464,796
464,796
464,797
464,797
463,797
463,797
463,797
463,797
463,798
463,798
463,798
463,798
463,798
463,798
463,799
463,799
463,799
463,799
464,799
464,799
464,800
464,800
464,800
464,800
464,800
464,800
464,800
464,800
465,800
465,800
465,800
465,800
465,800
465,800
466,800
466,800
466,800
466,800
466,800
467,800
467,800
467,800
467,800
467,801
467,801
468,801
468,801
468,801
468,801
468,801
469,801
469,801
469,801
469,801
469,801
469,801
469,801
469,802
469,802
469,802
469,802
469,802
469,803
469,803
469,803
469,803
469,803
469,803
469,803
469,803
469,803
469,803
469,803
469,803
469,803
469,803
469,803
469,803
469,803
469,804
469,804
469,804
469,804
469,804
469,804
469,804
469,804
469,804
469,804
469,804
469,804
469,804
469,804
469,804
469,804
469,804
469,804
469,804
469,805
469,805
469,805
469,805
469,805
469,805
469,805
469,805
470,805
470,805
470,805
470,805
471,805
471,806
471,806
471,806
472,806
472,806
472,806
472,806
472,806
472,807
473,807
473,807
473,807
473,808
473,808
473,808
474,808
474,808
474,808
474,809
474,809
474,809
474,809
474,809
474,809
474,809
474,809
474,810
474,810
474,810
474,810
474,810
474,810
474,810
474,810
474,811
474,811
474,811
474,811
474,811
474,811
474,811
474,811
474,811
474,811
474,811
474,811
474,811
474,811
475,811
475,811
475,812
475,812
475,812
475,812
475,812
475,812
475,812
475,812
475,812
475,812
475,813
475,813
475,813
476,813
476,813
476,813
476,813
476,813
476,814
476,814
476,814
476,814
476,814
476,814
476,814
476,815
476,815
476,815
476,815
476,815
476,815
476,815
476,815
476,815
476,816
476,816
476,816
476,816
477,816
477,816
477,816
477,816
477,817
477,817
477,817
477,817
477,817
477,817
477,817
477,817
477,817
477,817
477,817
477,817
477,817
477,817
477,817
477,817
477,817
477,817
477,817
477,817
477,817
477,817
477,817
477,817
477,817
477,817
477,817
477,817
477,817
478,817
478,818
478,818
478,818
478,818
478,818
478,818
479,818
479,818
479,818
479,819
479,819
480,819
480,819
480,819
480,819
480,819
480,819
480,820
480,820
481,820
481,820
481,820
481,820
481,820
481,820
481,820
481,820
481,821
481,821
481,821
482,821
482,821
482,821
482,821
482,821
482,821
482,821
482,821
482,822
482,822
481,822
481,822
481,822
482,822
482,822
482,822
482,822
482,823
482,823
482,823
482,823
482,823
482,823
482,823
483,823
483,824
483,824
483,824
483,824
483,824
483,825
483,825
483,825
483,825
483,825
483,825
483,825
483,825
483,826
482,826
482,826
482,826
482,826
482,826
482,826
482,826
482,827
482,827
482,827
482,827
482,827
482,827
482,827
482,828
482,828
482,828
482,828
482,828
482,828
482,828
481,828
481,828
481,828
481,829
481,829
481,829
482,829
482,829
482,829
482,829
482,829
482,829
482,829
482,829
482,829
482,829
482,829
483,829
483,829
483,829
483,829
483,829
483,829
484,829
484,829
484,829
484,829
484,830
484,830
484,830
485,830
485,830
485,830
485,830
485,830
485,830
486,830
486,830
486,830
486,830
486,830
486,830
487,830
487,830
487,830
487,830
487,830
487,830
487,830
487,830
487,830
487,831
487,831
487,831
487,831
487,831
488,831
488,831
488,831
488,831
488,831
488,831
488,831
488,831
488,831
488,831
488,832
488,832
489,832
489,832
489,832
489,832
489,833
489,833
489,833
489,833
489,833
489,833
490,833
490,833
490,833
490,833
490,833
490,833
491,833
491,833
491,833
491,833
491,833
492,833
492,833
492,833
492,833
492,833
493,833
493,833
493,833
493,833
493,833
494,833
494,832
494,832
494,832
494,832
494,832
494,832
494,832
495,832
495,832
495,832
495,832
495,832
495,832
495,833
495,833
495,833
495,833
495,833
495,833
495,833
495,833
495,833
495,833
495,833
495,833
495,833
495,833
495,833
495,833
495,833
495,833
495,833
495,833
495,833
495,833
495,833
495,833
495,833
495,833
495,833
495,833
495,833
495,833
496,833
496,834
496,834
496,834
496,834
496,834
496,834
496,834
496,834
496,834
496,834
496,834
497,834
497,834
497,834
497,834
497,834
497,834
497,834
497,834
497,834
498,834
498,834
498,834
498,834
498,834
498,834
498,834
498,834
498,834
498,834
498,834
498,834
498,834
498,834
498,834
498,834
499,834
499,834
499,834
499,834
499,834
499,834
499,834
499,834
499,834
499,834
499,834
499,834
499,834
499,834
499,834
499,834
499,834
499,835
499,835
499,835
499,835
499,835
499,835
499,835
499,835
499,835
500,835
500,835
500,836
500,836
500,836
500,836
500,836
499,836
499,836
499,836
499,836
499,836
499,836
499,836
499,836
499,836
499,836
499,836
499,836
498,836
498,837
498,837
498,837
498,837
498,837
498,837
498,837
498,838
498,838
498,838
497,838
497,838
497,839
497,839
497,839
497,839
497,840
497,840
497,840
497,840
497,840
497,840
497,840
497,840
497,841
497,841
497,841
497,841
497,841
497,841
497,841
497,841
497,841
497,841
497,842
496,842
496,842
496,842
496,842
496,842
496,842
496,842
496,842
496,842
496,842
496,842
496,842
496,843
496,843
496,843
496,843
496,844
496,844
496,844
496,844
496,845
496,845
497,845
497,845
497,845
497,845
497,845
497,846
497,846
498,846
498,846
498,846
498,846
498,846
498,846
498,846
498,846
498,846
498,846
498,846
499,846
499,846
499,846
499,846
498,846
498,847
498,847
498,847
498,847
498,847
498,847
498,847
498,847
498,847
498,847
498,847
498,847
498,847
498,848
498,848
498,848
498,848
498,848
498,848
499,848
499,848
499,848
499,848
499,848
499,848
500,848
500,848
500,848
500,848
500,848
500,848
501,847
501,847
501,847
501,847
501,847
501,847
502,847
502,847
502,847
502,848
502,848
502,848
502,848
502,848
502,848
502,848
503,848
503,848
503,849
503,849
503,849
503,849
503,849
503,849
503,849
503,850
503,850
503,850
503,850
504,850
504,850
504,850
504,850
504,850
504,850
504,850
504,851
504,851
504,851
504,851
505,851
505,852
505,852
505,852
505,852
506,853
506,853
506,853
506,853
506,853
506,853
506,853
506,853
506,853
506,853
506,854
506,854
506,854
506,854
506,854
507,854
507,854
507,854
507,854
507,854
507,855
507,855
507,855
507,855
507,855
507,855
507,855
507,855
507,856
507,856
507,856
507,856
507,856
507,856
507,856
507,856
507,856
507,856
507,856
507,856
507,856
507,856
507,857
507,857
507,857
507,857
506,858
506,858
506,858
506,858
506,858
506,859
506,859
506,859
506,859
506,859
506,859
507,859
507,859
507,859
507,859
507,860
507,860
507,860
507,860
507,860
507,861
507,861
507,861
507,861
507,861
507,862
507,862
507,862
507,862
507,862
507,862
507,863
507,863
506,863
506,863
506,863
506,863
506,863
506,863
506,863
506,863
506,863
506,863
506,863
506,863
506,863
506,864
506,864
506,864
506,864
506,864
506,865
506,865
506,865
506,865
506,865
506,865
506,865
506,866
506,866
506,866
506,866
506,866
506,866
506,866
506,866
506,866
506,866
506,866
505,866
505,866
505,866
505,866
505,866
505,866
505,866
505,866
505,866
505,866
505,866
505,866
505,866
505,866
505,866
505,866
505,866
505,866
505,866
505,867
505,867
505,867
505,867
505,867
505,867
505,867
505,867
505,867
506,867
506,867
506,867
506,868
507,868
507,868
507,868
507,868
507,868
507,868
507,868
507,868
508,868
508,868
508,868
508,868
508,868
508,868
508,868
508,868
508,868
509,868
509,868
509,868
509,868
509,868
509,868
509,868
509,868
510,868
510,868
510,869
510,869
510,869
510,869
510,869
510,869
510,870
510,870
510,870
510,870
510,870
510,870
510,870
510,870
510,870
511,870
511,871
511,871
511,871
511,871
511,871
511,871
512,871
512,871
512,871
512,871
512,871
512,871
512,871
513,871
513,872
513,872
513,872
513,872
513,872
513,872
513,872
513,872
513,872
513,872
513,872
513,872
514,872
514,872
514,872
514,872
514,872
514,873
514,873
514,873
514,873
514,873
514,873
514,873
514,873
514,874
514,874
514,874
514,874
514,874
514,874
514,875
514,875
514,875
514,875
514,875
514,875
514,875
514,876
514,876
514,876
514,876
514,876
514,876
514,876
514,876
515,876
514,876
514,877
514,877
514,877
514,877
514,877
514,877
514,878
514,878
514,878
514,878
514,878
514,878
514,879
514,879
514,879
514,879
514,879
514,879
514,879
514,879
514,879
514,879
514,879
514,879
514,879
514,879
514,879
514,879
514,879
514,880
514,880
513,880
513,880
513,880
513,880
513,880
513,880
512,880
512,881
512,881
512,881
512,881
512,881
512,881
512,881
512,881
512,881
512,882
512,882
512,882
512,882
512,882
512,882
512,882
512,882
512,882
512,882
512,882
512,882
512,882
512,882
513,882
513,882
513,883
513,883
513,883
513,883
513,883
513,884
513,884
513,884
513,884
513,884
513,884
513,884
513,884
513,884
513,885
513,885
513,885
513,885
513,885
513,885
513,885
513,885
513,885
513,885
513,886
513,886
513,886
513,886
513,886
513,886
513,886
513,886
513,886
513,886
513,886
513,886
513,886
513,886
513,886
513,886
513,886
513,886
513,886
513,886
513,886
513,886
512,886
512,886
512,887
512,887
512,887
512,887
512,887
512,887
512,887
512,887
512,887
512,887
512,887
512,887
512,887
512,887
512,887
512,887
512,887
512,887
512,887
512,887
512,887
512,887
512,887
512,887
512,887
512,887
512,887
512,887
512,887
512,887
512,888
512,888
512,888
512,888
512,888
512,888
512,888
512,888
512,888
512,888
512,888
512,889
512,889
512,889
512,889
512,889
512,889
512,890
512,890
512,890
512,890
512,890
512,890
512,890
512,890
512,890
512,890
512,890
512,890
512,890
512,890
512,890
512,890
513,890
513,890
513,890
513,890
513,890
513,890
513,890
513,890
514,890
514,890
514,890
514,890
514,890
514,890
514,890
514,890
514,890
515,890
515,890
515,890
515,891
515,891
515,891
515,891
516,891
516,891
516,891
516,891
517,892
517,892
517,892
517,892
517,892
518,892
518,892
518,892
518,893
518,893
518,893
518,893
518,893
518,893
518,893
518,893
518,893
518,893
518,893
518,893
518,893
518,893
518,893
518,893
518,893
518,893
518,893
518,893
518,893
518,893
518,893
518,894
518,894
518,894
518,894
518,894
518,894
518,894
517,894
517,894
517,894
517,894
517,894
517,894
517,894
517,894
517,894
516,894
516,894
516,893
516,893
516,893
516,893
515,893
515,893
515,893
515,893
515,892
515,892
515,892
514,892
514,892
514,892
514,892
514,892
514,892
514,892
514,892
514,892
514,892
513,892
513,892
513,892
513,892
513,891
513,891
513,891
513,891
513,891
512,891
512,891
512,890
512,890
512,890
512,890
512,890
511,890
511,890
511,890
511,889
510,889
510,889
510,889
510,889
509,889
509,889
509,889
509,889
509,889
509,889
509,889
509,889
509,889
508,889
508,889
508,889
508,889
508,889
508,889
508,889
508,890
508,890
508,890
508,890
508,890
508,890
508,890
508,890
508,890
508,890
508,890
508,890
507,890
507,890
507,890
507,890
507,890
507,890
507,890
507,890
507,890
507,890
507,890
507,890
507,890
507,890
507,890
507,890
507,890
506,890
506,890
506,890
506,890
506,890
506,890
506,890
506,890
506,890
505,890
505,890
505,890
505,890
505,890
504,890
504,890
504,890
504,890
504,890
504,890
504,890
504,891
504,891
504,891
504,891
504,891
504,891
504,891
504,891
504,891
504,892
504,892
504,892
504,892
504,892
505,892
505,892
505,892
505,892
505,892
505,893
505,893
505,893
506,893
506,893
506,893
506,893
506,893
506,893
506,893
506,893
506,893
506,893
506,893
506,893
506,893
506,894
506,894
507,894
507,894
507,894
507,894
507,894
507,895
508,895
508,895
508,895
508,895
508,895
508,896
508,896
508,896
508,896
508,896
508,896
508,896
508,896
508,897
509,897
509,897
509,897
509,897
509,897
509,897
509,897
509,897
509,897
509,897
509,897
509,897
509,897
509,897
509,897
509,897
509,897
509,897
509,897
509,897
509,897
509,898
509,898
509,898
509,898
509,898
509,898
509,898
509,898
509,898
509,898
509,898
509,898
509,898
509,898
509,898
509,898
509,898
509,898
509,898
509,898
509,898
509,898
509,898
509,898
509,898
509,898
509,898
509,898
509,898
509,899
509,899
509,899
509,899
509,899
509,900
509,900
509,900
509,900
509,900
510,900
510,901
510,901
510,901
510,901
510,901
510,901
510,901
510,901
510,901
510,901
510,901
510,901
510,901
510,901
510,901
510,901
510,901
510,901
510,901
510,901
511,901
511,901
511,902
511,902
511,902
511,902
511,902
511,902
511,902
511,902
511,902
512,902
512,902
512,902
512,902
512,902
512,902
512,902
512,902
512,902
512,902
512,902
512,902
513,902
513,902
513,902
513,903
513,903
513,903
513,903
514,903
514,903
514,903
514,903
514,903
514,903
515,903
515,903
515,903
515,903
515,903
515,903
515,903
515,903
515,903
516,903
516,903
516,904
516,904
516,904
516,904
516,904
517,904
517,904
517,904
517,904
517,904
518,904
518,904
518,904
518,904
518,904
518,904
518,904
518,905
518,905
518,905
518,905
518,905
518,905
518,905
518,905
518,905
518,905
518,905
518,905
518,905
518,905
518,906
518,906
518,906
518,906
518,907
518,907
518,907
518,907
518,908
518,908
518,908
518,908
518,908
518,908
518,909
518,909
518,909
518,909
518,909
518,909
518,909
518,909
518,909
518,909
518,909
517,909
517,909
517,909
517,909
517,909
517,909
517,909
517,909
517,909
517,909
517,909
517,909
517,909
517,909
517,909
517,909
517,909
517,909
517,909
517,910
517,910
517,910
517,910
517,910
517,910
517,910
517,910
517,910
517,910
517,910
517,910
517,910
517,910
517,910
517,910
517,910
517,910
517,910
517,909
517,909
518,909
518,909
518,909
518,909
518,909
518,909
518,909
519,909
519,909
519,909
519,909
519,908
519,908
519,908
519,908
520,908
520,908
520,908
520,908
520,907
520,907
521,907
521,907
521,907
521,907
521,906
522,906
522,906
522,906
522,906
522,906
522,906
523,906
523,906
523,906
523,906
523,906
523,906
523,906
523,906
523,906
523,906
523,906
523,906
523,906
524,906
524,906
524,906
524,906
524,906
524,906
524,906
524,906
524,906
524,906
524,906
524,906
524,907
524,907
524,907
524,907
524,907
524,907
524,907
524,907
524,907
524,907
524,907
524,907
524,907
525,907
525,907
525,907
525,907
525,907
525,907
525,907
525,907
525,907
526,907
526,907
526,907
526,907
526,907
526,907
526,907
527,907
527,907
527,907
527,907
527,908
527,908
527,908
527,908
527,908
527,908
527,908
527,908
527,908
527,908
527,908
528,908
528,908
528,907
528,907
528,907
528,907
528,907
529,907
529,907
529,907
529,907
529,907
529,907
530,907
530,907
530,907
530,906
530,906
530,906
530,906
530,906
530,906
530,905
531,905
531,905
531,905
531,905
531,905
531,905
531,905
531,905
531,905
532,905
532,905
532,905
532,905
532,905
532,905
532,905
532,905
532,905
532,905
532,905
532,905
532,905
532,905
532,905
532,905
533,905
533,905
533,905
533,905
533,905
533,905
533,905
533,905
533,905
534,905
534,905
534,904
534,904
534,904
534,904
534,904
534,904
534,904
535,903
535,903
535,903
535,903
535,902
535,902
535,902
535,902
535,902
535,902
535,902
536,902
536,902
536,902
536,902
536,903
536,903
537,903
537,903
537,903
537,903
537,903
537,903
537,904
538,904
538,904
538,904
538,904
538,904
538,904
538,904
538,904
538,904
538,904
538,904
538,905
538,905
538,905
538,905
538,905
538,905
538,905
538,906
538,906
538,906
538,906
538,906
538,907
538,907
538,907
538,907
538,907
538,907
538,907
538,907
538,907
538,907
538,907
538,908
537,908
537,908
537,908
537,908
537,908
537,908
536,908
536,908
536,908
536,908
536,908
536,908
536,908
536,908
536,908
536,908
536,908
536,908
536,908
536,908
536,909
536,909
535,909
535,909
535,909
535,910
535,910
535,910
535,910
535,910
535,911
535,911
535,911
534,911
534,911
534,911
534,911
534,912
534,912
534,912
534,912
534,912
534,912
534,912
533,913
533,913
533,913
533,913
533,913
533,913
533,914
533,914
533,914
533,914
533,914
533,915
533,915
533,915
533,915
533,915
533,916
533,916
533,916
533,916
533,916
533,916
532,916
532,917
532,917
532,917
532,917
532,917
532,917
532,918
532,918
532,918
532,918
532,918
532,918
532,919
532,919
532,919
532,919
532,919
532,919
532,919
532,919
532,919
532,919
532,919
532,919
532,919
532,919
532,919
532,919
532,919
533,919
533,919
533,919
533,919
533,919
533,919
533,919
533,919
533,919
533,919
533,920
533,920
533,920
533,920
533,920
533,920
533,920
533,920
533,920
533,920
533,920
533,920
533,920
533,920
533,920
533,920
533,920
533,920
533,920
533,920
533,920
533,920
533,920
533,920
533,920
533,920
533,920
533,921
533,921
533,921
533,921
533,921
533,921
533,921
533,921
533,921
533,921
533,921
533,922
534,922
534,922
534,922
534,922
534,923
534,923
534,923
534,923
534,923
534,923
535,923
535,923
535,923
535,923
535,923
535,923
535,923
535,923
535,923
535,923
535,923
535,923
535,924
535,924
535,924
535,924
535,924
535,924
535,924
535,924
535,924
536,924
536,925
536,925
536,925
536,925
536,925
536,925
536,925
536,925
536,925
536,925
536,925
536,926
536,926
536,926
536,926
536,926
536,926
536,926
536,926
536,926
536,926
536,926
536,926
536,927
536,927
536,927
536,927
536,928
536,928
536,928
536,928
536,929
536,929
536,929
536,929
536,929
536,929
536,929
536,929
536,929
536,929
536,929
536,929
536,929
536,930
536,930
536,930
536,930
535,930
535,930
535,930
535,930
535,931
535,931
535,931
535,931
534,931
534,931
534,931
534,931
534,932
534,932
533,932
533,932
533,932
533,932
533,933
533,933
533,933
533,933
533,933
532,933
532,934
532,934
532,934
532,934
532,934
532,934
532,934
532,934
532,934
532,934
532,934
532,934
531,934
531,934
531,934
531,934
531,934
530,934
530,934
530,934
530,934
530,934
530,934
530,934
529,934
529,934
529,934
529,935
529,935
529,935
529,935
529,935
528,935
528,935
528,935
528,935
528,935
528,935
528,935
528,935
528,935
528,935
528,935
528,935
527,935
527,935
527,935
527,935
527,935
527,935
527,935
527,935
526,936
526,936
526,936
526,936
526,936
526,936
526,936
526,936
526,936
526,936
526,936
526,936
526,936
526,937
526,937
526,937
526,937
526,937
525,937
525,937
525,937
525,937
525,937
525,937
525,937
525,938
525,938
525,938
525,938
525,938
525,938
525,938
525,939
525,939
525,939
525,939
525,939
525,939
525,940
525,940
525,940
525,940
525,940
525,940
525,940
526,940
526,940
526,940
526,940
526,940
526,940
526,940
526,940
526,940
526,940
527,940
527,940
527,940
527,940
527,940
527,940
527,940
527,940
528,940
528,940
528,940
528,940
528,940
528,940
528,940
528,941
528,941
528,941
528,941
528,941
528,941
529,941
529,941
529,941
529,941
529,941
528,941
528,941
528,942
528,942
528,942
528,942
528,942
528,942
528,942
528,942
528,942
528,942
528,942
528,942
528,942
528,942
528,942
528,942
528,942
528,942
528,942
528,942
528,942
528,943
527,943
527,943
527,943
527,943
527,943
527,943
527,943
527,943
527,943
527,943
527,943
527,943
527,943
527,943
527,944
527,944
527,944
527,944
527,944
527,944
527,944
527,945
527,945
527,945
527,945
527,945
527,945
527,946
527,946
527,946
527,946
527,946
527,946
527,947
527,947
527,947
527,947
527,948
527,948
527,948
527,948
527,948
527,949
527,949
527,949
526,949
526,949
526,949
526,949
526,950
526,950
526,950
526,950
526,950
526,950
526,949
525,949
525,949
525,949
525,949
525,949
524,949
524,949
524,949
524,949
524,949
523,949
523,949
523,949
523,949
523,949
522,949
522,950
522,950
522,949
522,949
522,949
522,949
522,948
522,948
522,948
522,948
522,947
522,947
522,947
522,947
522,947
522,946
522,946
522,946
522,946
522,946
522,945
522,945
522,945
522,945
522,945
522,945
522,945
522,945
522,945
522,945
522,945
522,945
521,945
521,945
521,945
521,945
521,944
521,944
521,944
521,944
521,944
521,943
521,943
521,943
521,943
521,942
521,942
521,942
521,942
521,942
521,941
521,941
521,941
521,941
521,941
520,941
520,940
520,940
520,940
520,940
520,940
520,940
520,940
520,939
520,939
520,939
521,939
521,939
521,939
521,939
521,939
521,939
521,938
521,938
521,938
521,938
521,938
521,938
521,938
521,938
522,938
522,938
522,937
522,937
522,937
522,937
522,937
522,937
522,937
522,937
522,937
522,937
522,936
522,936
522,936
522,936
522,936
522,936
522,936
522,936
523,936
523,936
523,936
523,936
523,936
523,935
523,935
523,935
523,935
523,935
523,935
523,935
523,935
524,935
524,934
524,934
524,934
524,934
524,934
524,934
524,934
524,933
524,933
524,933
524,933
525,933
525,933
525,933
525,933
525,933
525,933
525,932
525,932
525,932
525,932
525,932
525,932
525,932
525,932
525,932
525,932
526,932
526,932
526,932
526,932
526,932
526,932
526,932
526,931
526,931
526,931
526,931
527,931
527,931
527,931
527,931
527,931
527,930
527,930
527,930
527,930
528,930
528,930
528,930
528,929
528,929
528,929
528,929
528,929
528,929
529,929
529,929
529,929
529,929
529,929
529,929
529,929
529,929
529,928
529,928
529,928
529,928
529,928
529,928
528,928
528,928
528,927
528,927
528,927
527,927
527,927
527,927
527,927
527,927
527,927
527,926
527,926
527,926
527,926
527,926
527,926
527,926
527,926
527,926
526,926
526,926
526,926
526,926
526,926
526,926
526,926
526,926
526,926
526,926
526,926
526,926
526,925
526,925
526,925
526,925
526,925
525,925
526,925
526,925
526,924
526,924
526,924
526,924
526,924
526,924
527,923
527,923
527,923
527,923
527,923
527,923
527,923
527,923
527,923
527,923
527,923
527,923
527,923
528,923
528,923
528,923
528,923
528,923
528,922
529,922
529,922
529,922
529,922
529,922
529,922
529,922
529,922
529,922
529,922
529,922
530,922
530,922
530,922
530,922
530,922
530,922
530,922
530,922
530,921
530,921
530,921
530,921
530,921
530,921
531,921
531,921
531,920
531,920
531,920
532,920
532,920
532,920
532,920
532,919
532,919
532,919
532,919
532,919
533,919
533,919
533,919
533,919
533,918
533,918
533,918
533,918
533,918
533,918
533,918
533,918
533,917
533,917
533,917
533,917
533,917
533,917
533,917
534,917
534,917
534,916
534,916
534,916
534,916
534,916
534,916
534,915
534,915
534,915
534,915
534,915
534,915
535,914
535,914
535,914
535,914
535,914
535,914
535,914
535,914
535,914
535,914
535,915
535,914
535,914
534,914
534,914
534,914
534,913
534,913
534,913
534,913
534,913
534,913
534,913
535,912
535,912
535,912
535,912
535,912
535,912
535,912
535,912
535,912
535,912
536,912
536,912
536,912
536,912
536,911
536,911
536,911
537,911
537,911
537,911
537,911
537,911
537,911
537,911
537,910
537,910
537,910
537,910
538,910
538,910
538,910
538,910
538,910
538,910
538,910
538,910
538,910
538,910
538,910
538,910
539,911
539,911
539,911
539,911
539,911
539,911
540,911
540,911
540,911
540,911
540,911
540,911
540,911
541,911
541,911
541,911
541,911
541,911
541,911
541,911
541,911
541,911
541,911
541,911
541,911
541,911
542,911
542,911
542,911
542,911
542,911
542,911
542,911
542,911
542,911
542,911
543,911
543,911
543,911
543,911
543,911
543,911
543,911
543,911
543,911
543,911
543,911
543,911
543,911
543,911
543,911
543,911
543,911
543,911
543,911
543,911
543,911
543,911
543,911
543,910
543,910
544,910
544,910
544,910
544,909
544,909
544,909
544,909
544,909
544,909
544,909
544,909
544,908
544,908
544,908
544,908
543,908
543,908
543,908
543,908
543,908
543,908
543,908
543,908
543,908
543,908
543,908
543,908
544,908
544,908
544,907
544,907
544,907
544,907
544,907
544,907
544,907
544,907
544,907
544,907
544,907
544,907
544,907
544,907
545,907
545,907
545,907
545,907
545,907
545,907
545,907
545,907
545,907
545,906
545,906
545,906
545,906
545,906
545,906
546,906
546,906
546,906
546,906
546,906
546,906
546,906
546,906
546,906
546,905
546,905
546,905
547,905
547,905
547,905
547,905
547,905
547,905
547,904
547,904
548,904
548,904
548,904
548,904
548,904
548,904
548,904
549,904
549,904
549,903
549,903
549,903
549,903
549,903
549,902
549,902
549,902
549,902
549,901
549,901
549,901
549,901
548,901
548,901
548,901
548,900
548,900
548,900
548,900
548,900
548,900
548,899
548,899
548,899
548,899
547,899
547,898
547,898
547,898
547,898
547,898
547,898
547,898
547,898
547,898
547,898
547,898
547,898
547,898
547,898
547,898
547,898
547,898
547,898
547,898
547,898
547,898
547,898
547,898
547,898
547,898
547,898
547,898
547,898
547,898
546,898
546,898
546,898
546,898
546,898
546,898
546,898
546,897
546,897
546,897
546,897
545,897
545,897
545,897
545,897
545,897
545,897
545,897
545,897
545,897
544,897
544,897
544,897
544,897
544,897
544,897
544,897
544,897
543,897
543,897
543,897
543,897
543,897
543,897
543,897
542,897
542,897
542,896
542,896
542,896
542,896
541,896
541,896
541,896
541,896
541,895
541,895
541,895
541,895
541,895
541,895
541,895
540,894
540,894
540,894
540,894
540,894
540,894
540,894
540,894
540,894
540,894
540,894
540,894
540,894
540,894
540,894
540,894
540,894
540,894
540,894
540,894
540,893
540,893
540,893
540,893
540,893
539,893
539,893
539,893
539,892
539,892
539,892
539,892
539,892
539,892
539,892
539,892
539,892
539,892
538,892
538,892
538,892
538,892
538,892
538,892
538,892
538,892
538,892
538,892
538,892
538,892
538,892
538,892
539,891
539,891
539,891
539,891
539,891
539,891
539,891
539,891
539,891
539,891
539,891
539,890
539,890
539,890
539,890
539,890
539,890
539,890
539,890
539,890
539,890
539,890
539,890
539,890
539,889
539,889
539,889
539,889
539,889
539,889
539,889
539,889
539,888
538,888
538,888
538,888
538,888
538,888
538,887
538,887
537,887
537,887
537,887
537,887
537,887
537,887
537,887
537,887
537,887
537,887
537,887
537,886
537,886
537,886
537,886
537,886
536,886
536,886
536,885
536,885
536,885
536,885
536,885
536,885
536,885
536,885
536,885
537,885
537,885
537,885
537,885
537,884
537,884
537,884
537,884
537,884
537,884
537,884
537,884
537,884
537,884
537,884
537,884
537,883
538,883
538,883
538,883
538,883
538,883
538,883
538,883
538,883
538,883
539,883
539,883
539,883
539,883
539,883
539,883
539,883
539,882
539,882
540,882
540,882
540,882
540,882
541,882
541,882
541,882
542,882
542,882
542,881
542,881
542,881
542,881
542,881
542,880
542,880
542,880
542,880
542,880
542,880
542,880
542,879
542,879
542,879
542,879
542,879
542,879
542,879
542,879
542,879
542,879
542,879
542,879
542,879
542,879
542,879
542,879
542,878
542,878
542,878
542,878
542,878
542,878
542,877
542,877
542,877
542,877
542,877
542,877
542,877
542,876
542,876
542,876
543,876
543,876
543,876
543,876
543,876
543,875
543,875
543,875
544,875
544,875
544,875
544,874
544,874
544,874
545,874
544,874
544,874
544,874
544,873
544,873
544,873
544,873
544,873
544,873
544,873
544,873
543,873
543,872
543,872
543,872
543,872
543,872
543,872
543,872
543,872
543,872
543,872
543,872
543,872
543,872
543,872
543,872
543,872
543,872
543,872
542,872
542,872
542,871
542,871
542,871
542,871
542,871
542,871
542,871
542,871
542,870
542,870
542,870
542,870
541,870
541,870
541,870
541,870
541,870
541,869
541,869
541,869
541,869
541,869
541,869
541,869
540,869
540,869
540,869
540,869
540,869
540,869
540,869
540,869
540,869
540,869
540,868
540,868
540,868
540,868
540,868
540,868
540,868
540,868
540,868
540,868
540,868
540,868
540,867
540,867
540,867
540,867
540,867
540,867
540,867
540,867
540,867
540,867
540,867
540,867
540,867
540,867
540,867
540,867
540,867
540,867
540,867
540,867
540,867
540,867
540,866
540,866
540,866
540,866
540,866
540,865
540,865
540,865
540,865
540,865
540,865
540,865
540,864
540,864
540,864
540,864
540,864
540,864
539,864
539,864
540,864
540,863
540,863
540,863
540,863
540,863
540,862
540,862
540,862
540,862
540,862
540,862
540,862
540,861
540,861
540,861
540,861
540,861
540,861
540,861
540,861
540,861
540,861
540,861
540,861
540,860
540,860
540,860
540,860
540,860
540,860
541,860
541,860
541,860
541,860
541,860
541,860
542,860
542,860
542,860
542,860
542,859
542,859
543,859
543,859
543,859
543,859
543,859
544,859
544,859
544,859
544,859
544,859
544,859
544,858
544,858
544,858
544,858
544,858
545,858
545,858
545,857
545,857
545,857
545,857
545,857
545,857
545,857
546,857
546,857
546,857
546,857
546,856
546,856
546,856
546,856
545,856
545,856
545,856
545,856
545,856
545,856
545,856
545,856
545,856
545,856
545,856
545,856
545,856
545,856
545,856
545,856
545,855
545,855
545,855
545,855
545,855
545,855
545,855
545,855
545,855
545,855
545,855
545,855
545,855
545,855
545,855
545,854
546,854
546,854
546,854
546,854
546,854
546,854
546,854
546,854
546,854
546,854
546,853
546,853
546,853
546,853
546,853
546,853
546,853
546,853
546,853
546,853
546,853
546,852
546,852
546,852
547,852
547,852
547,852
547,852
547,852
547,852
547,852
548,852
548,852
548,852
548,852
548,852
548,852
548,852
548,851
549,851
549,851
549,851
549,851
549,851
549,851
549,851
550,851
550,851
550,851
550,851
550,851
550,850
550,850
550,850
550,850
551,850
551,850
551,850
551,850
551,850
551,850
551,850
551,850
551,850
551,849
551,849
551,849
551,849
551,849
551,849
551,848
551,848
552,848
552,848
552,848
552,848
552,847
552,847
552,847
552,847
552,847
552,847
553,847
553,846
553,846
553,846
553,846
553,846
553,846
553,846
553,845
553,845
553,845
553,845
553,845
553,845
553,845
553,845
553,844
553,844
553,844
553,844
553,844
553,844
553,844
554,844
554,844
554,844
554,844
554,844
554,843
554,843
554,843
554,843
554,843
554,843
554,843
554,843
554,843
554,843
554,843
554,843
554,843
554,843
555,843
555,843
555,843
555,843
555,843
555,843
555,844
555,844
556,844
556,844
556,844
556,844
556,844
556,844
556,844
556,844
556,844
557,844
557,844
557,844
557,844
557,844
557,844
557,844
557,844
557,844
557,844
557,844
557,844
557,844
557,844
557,844
557,844
557,843
557,843
557,843
557,843
557,843
557,843
557,843
557,843
557,843
557,843
557,842
557,842
557,842
557,842
557,842
557,842
557,842
557,842
557,842
557,842
557,842
557,842
557,842
557,842
557,842
558,842
558,842
558,841
558,841
558,841
558,841
558,841
558,841
558,841
558,840
558,840
559,840
559,841
559,841
559,841
559,841
560,841
560,841
560,841
560,841
561,841
561,841
561,841
561,841
561,841
561,841
562,841
562,842
562,842
562,842
562,842
562,842
562,842
562,842
562,842
563,842
563,842
563,842
563,842
563,842
563,841
563,841
563,841
563,841
563,841
563,841
563,841
563,841
563,841
563,841
563,841
564,841
564,841
564,841
564,840
565,840
565,840
565,840
565,840
566,840
566,840
566,840
566,840
566,840
566,840
567,840
567,840
567,840
567,840
567,840
567,840
567,840
567,840
567,840
567,840
567,840
567,840
567,840
567,840
567,840
567,840
568,839
568,839
568,839
568,839
568,839
568,839
568,839
568,839
568,838
568,838
568,838
568,838
568,838
568,838
568,838
568,837
568,837
568,837
568,837
568,837
568,837
568,837
568,837
568,836
568,836
568,836
568,836
568,836
568,836
568,836
568,836
568,836
568,836
568,835
568,835
568,835
568,835
568,835
568,835
568,835
568,835
568,835
568,835
568,835
568,835
568,834
568,834
568,834
568,834
568,834
568,834
568,834
568,834
569,833
569,833
569,833
569,833
569,833
569,832
569,832
569,832
570,832
570,832
570,832
570,832
570,832
570,832
571,832
571,832
571,832
571,832
571,832
571,832
571,832
571,832
571,832
571,831
571,831
571,831
571,831
571,831
572,831
572,831
572,831
572,831
572,831
572,831
572,831
572,831
572,831
573,831
573,831
573,831
573,831
573,831
573,831
573,831
574,831
574,830
574,830
574,830
574,830
574,830
574,830
574,830
574,830
574,830
574,829
574,829
574,829
574,829
574,829
575,829
575,829
575,829
575,829
575,829
575,828
575,828
575,828
575,828
575,828
575,828
575,828
575,828
575,828
575,827
575,827
575,827
575,827
575,827
574,827
574,827
574,827
574,827
574,827
574,827
574,827
574,827
574,827
574,827
574,826
573,826
573,826
573,826
573,826
573,826
573,826
573,826
573,826
572,826
572,826
572,826
572,826
572,826
572,826
572,826
572,825
571,825
571,825
571,825
571,825
571,825
571,825
571,825
571,825
571,826
571,826
571,826
571,825
571,825
570,825
570,825
570,825
570,825
570,825
570,825
570,825
570,825
570,825
570,825
570,824
570,824
570,824
570,824
570,824
570,823
569,823
569,823
569,823
569,823
569,822
570,822
570,822
570,822
570,821
570,821
570,821
570,821
570,821
570,821
569,820
569,820
569,820
569,820
569,820
569,820
569,820
569,820
569,819
569,819
569,819
569,819
569,819
569,819
569,819
569,819
569,819
569,819
569,819
569,818
570,818
570,818
570,818
570,818
570,818
570,818
570,817
570,817
570,817
570,817
570,817
570,817
570,817
570,817
570,817
570,817
571,817
571,816
571,816
571,816
571,816
571,816
571,816
572,816
572,815
572,815
572,815
572,815
572,815
572,815
572,815
572,815
572,815
572,815
572,815
572,815
572,815
572,815
572,815
573,814
573,814
573,814
573,814
573,814
573,814
573,814
574,814
574,813
574,813
574,813
574,813
575,813
575,814
575,814
575,814
575,814
575,814
576,814
576,814
576,814
576,814
576,814
576,814
576,814
576,813
577,813
577,813
577,813
577,813
577,813
577,813
577,813
577,813
577,813
577,813
577,813
577,813
577,812
577,812
577,812
577,812
577,812
577,811
577,811
577,811
577,811
577,810
577,810
577,810
577,810
577,810
578,810
578,810
578,810
578,810
578,810
578,810
578,810
578,810
578,810
578,810
578,810
579,810
579,810
579,811
579,811
579,811
579,811
579,811
579,811
579,810
579,810
579,810
579,810
580,810
580,810
580,810
580,810
580,810
580,810
580,809
580,809
580,809
580,809
580,809
580,808
580,808
580,808
580,808
580,808
580,808
580,808
580,808
580,807
580,807
580,807
581,807
581,807
580,807
580,807
580,807
580,807
580,807
580,807
580,807
580,807
580,807
580,807
580,806
580,806
580,806
580,806
580,806
581,806
581,806
581,806
581,806
581,806
581,806
581,805
581,805
581,805
581,805
581,805
580,805
580,805
580,804
580,804
580,804
580,804
580,804
580,804
580,804
580,804
580,804
580,804
580,804
580,804
580,804
580,803
580,803
580,803
581,803
581,803
581,803
581,803
581,803
581,803
581,802
581,802
581,802
581,802
582,802
582,801
582,801
582,801
582,801
582,801
582,801
582,801
582,801
582,801
582,801
582,801
582,801
582,801
582,801
582,801
582,801
582,801
582,800
581,800
581,800
581,800
581,800
581,800
581,800
581,799
581,799
581,799
581,799
581,799
580,799
580,799
580,799
580,799
580,799
580,798
580,798
580,798
580,798
580,798
580,797
580,797
580,797
581,797
581,796
581,796
581,796
581,796
581,796
581,795
581,795
581,795
581,795
581,794
581,794
580,794
581,794
581,794
581,793
581,793
581,793
581,793
581,793
581,792
581,792
581,792
581,792
581,792
581,792
581,791
580,791
580,791
580,791
580,791
580,790
580,790
580,790
580,790
580,790
580,790
580,790
580,790
580,790
580,790
580,790
580,790
579,790
579,790
579,790
579,790
579,790
579,790
579,790
578,790
578,789
578,789
578,789
578,789
578,789
578,789
578,789
578,789
578,789
577,789
577,789
577,789
577,789
577,789
577,789
577,789
577,789
577,789
577,789
577,788
576,788
576,788
576,788
576,788
576,788
576,788
576,788
576,788
576,788
576,788
576,788
576,788
576,788
576,788
575,788
575,788
575,788
575,788
575,788
575,788
575,788
575,789
574,788
574,788
574,788
574,788
574,788
574,788
573,788
573,788
573,788
573,788
573,788
573,788
572,788
572,788
572,788
572,788
572,788
572,788
572,788
572,788
572,788
571,787
571,787
571,787
571,787
571,787
571,787
571,787
571,786
571,786
571,786
571,786
571,786
571,786
571,786
571,786
571,786
571,786
571,786
571,786
571,786
571,786
571,786
571,786
571,786
571,786
571,786
571,786
571,786
571,786
571,786
572,785
572,785
572,785
572,785
572,785
573,785
573,785
573,785
573,785
573,785
573,785
573,785
573,785
573,785
574,785
574,785
574,785
574,785
574,785
574,785
574,785
574,785
574,785
574,785
574,785
574,785
574,785
574,785
574,785
574,785
574,785
574,785
574,785
574,785
574,785
574,785
575,785
575,785
575,785
575,785
575,785
575,785
575,785
575,785
575,785
575,785
575,785
575,785
575,785
575,784
575,784
575,784
575,784
575,784
575,784
575,784
575,783
575,783
575,783
575,783
575,783
575,783
575,783
575,783
575,783
575,783
575,783
575,783
575,783
575,783
575,783
575,783
575,783
575,783
575,783
575,783
575,783
575,783
575,782
575,782
575,783
575,783
575,783
575,783
575,783
575,783
575,783
575,783
575,783
575,782
575,782
575,782
576,782
576,782
576,781
576,781
576,781
576,781
576,781
577,781
577,781
577,780
577,780
577,780
577,780
577,780
577,780
577,780
577,780
578,780
578,780
578,780
578,780
578,780
578,780
578,780
578,780
578,780
579,780
579,780
579,780
579,779
579,779
579,779
579,779
579,779
579,778
579,778
579,778
579,778
579,778
580,778
580,777
580,777
580,777
580,777
580,777
580,777
580,776
580,776
580,776
580,776
581,776
581,776
581,776
581,776
581,776
581,776
581,776
581,776
581,776
581,776
581,776
581,776
582,775
582,775
582,775
582,775
582,775
582,775
582,775
582,775
582,774
582,774
582,774
582,774
582,774
582,774
582,774
582,774
582,774
582,773
582,773
582,773
582,773
582,773
582,773
582,773
582,773
582,773
582,773
582,773
581,773
581,773
581,773
581,773
581,773
581,773
581,773
581,773
581,773
581,772
581,772
581,772
581,772
581,772
581,772
581,772
581,772
581,772
581,772
582,771
582,771
582,771
582,771
582,771
582,771
582,771
582,771
583,770
583,770
583,770
583,770
583,770
583,769
583,769
583,769
584,769
584,769
584,768
584,768
584,768
584,768
584,768
584,768
584,767
584,767
584,767
584,767
584,767
584,767
584,766
584,766
584,766
584,766
584,766
584,766
584,765
584,765
584,765
584,765
584,765
584,765
584,765
584,765
584,765
584,765
583,765
583,764
583,764
583,764
583,764
583,764
583,764
583,764
583,764
583,764
583,764
583,764
583,764
583,763
582,763
582,763
582,763
582,763
582,762
581,762
581,762
581,762
581,762
581,761
581,761
581,761
580,761
580,761
580,761
580,761
580,760
580,760
580,760
580,760
580,760
580,760
580,759
580,759
580,759
580,759
580,759
580,759
580,759
580,759
580,759
580,759
580,759
580,759
580,759
580,759
580,759
580,759
580,759
580,759
580,759
580,759
580,759
580,759
580,758
580,758
580,758
580,758
580,758
580,758
580,758
580,758
580,758
580,758
580,758
580,758
580,758
580,758
580,758
580,758
579,758
579,758
579,758
579,758
579,758
579,758
579,758
578,758
578,758
578,758
578,758
578,758
578,758
577,758
577,758
577,758
577,758
577,758
577,758
577,758
577,758
577,758
577,758
577,758
577,758
577,758
577,758
577,758
577,758
577,758
577,758
577,758
577,758
576,758
576,758
576,758
576,757
576,757
576,757
576,757
576,757
576,757
576,758
576,758
576,758
576,758
576,758
576,758
576,758
576,757
576,757
576,757
576,757
576,757
576,757
576,757
576,757
576,757
576,757
576,757
576,756
576,756
576,756
576,756
576,756
576,756
576,756
576,756
577,756
577,756
577,756
577,756
578,756
578,756
578,755
579,755
579,755
579,755
579,755
579,755
579,755
579,755
579,755
579,755
579,755
579,755
579,755
579,755
579,754
579,754
579,754
579,754
579,754
579,754
579,754
579,754
579,754
579,754
579,754
579,754
579,753
579,753
579,753
579,753
579,753
579,753
579,753
579,753
579,752
579,752
579,752
579,752
579,752
579,752
579,752
578,752
578,751
578,751
578,751
578,751
578,751
578,751
578,751
578,751
578,751
578,751
578,751
578,751
578,751
578,751
578,751
578,751
578,751
578,751
578,751
578,751
578,751
578,751
578,751
578,751
578,751
578,751
578,751
578,751
578,751
578,751
578,751
578,751
578,751
577,750
577,750
577,750
577,750
577,750
577,750
576,750
576,750
576,750
576,750
576,750
576,750
576,750
576,750
576,750
576,750
575,750
575,750
575,750
575,750
575,750
575,750
575,750
575,750
575,750
575,750
575,749
575,749
575,749
575,749
574,749
574,749
574,749
574,749
574,748
574,748
574,748
574,748
573,748
573,748
573,748
573,748
573,748
572,748
572,748
572,748
572,748
571,748
571,748
571,748
571,748
571,747
571,747
571,747
570,747
570,747
570,747
570,747
570,747
570,746
570,746
570,746
570,746
570,746
570,746
570,746
570,745
570,745
570,745
570,745
570,745
571,745
571,745
571,745
571,744
571,744
571,744
572,744
572,744
572,744
572,744
572,744
571,744
571,744
571,743
571,743
571,743
571,743
571,743
571,743
571,743
571,743
570,743
570,743
570,743
570,742
570,742
569,742
569,742
569,742
569,742
569,742
569,742
569,742
569,742
569,742
569,742
569,742
569,742
570,742
570,742
570,742
570,742
570,742
570,742
570,742
570,742
570,742
570,742
570,742
570,741
570,741
570,741
570,741
571,741
571,741
571,741
571,741
571,741
571,741
571,741
572,741
572,741
572,741
572,741
572,741
572,741
573,741
573,741
573,741
573,741
573,741
573,741
573,741
573,741
573,741
573,741
573,741
573,741
573,741
573,741
573,741
573,741
574,741
574,741
574,741
574,741
574,741
574,741
574,740
574,740
575,740
575,740
575,740
575,740
575,740
575,740
575,740
575,740
575,740
576,740
576,740
576,740
576,740
576,740
577,739
577,739
577,739
577,739
578,739
578,739
578,739
578,739
578,740
579,740
579,740
579,740
579,740
580,740
580,740
580,740
580,740
580,740
580,740
580,740
580,740
581,740
581,740
581,740
581,740
581,740
581,740
582,740
582,740
582,740
582,740
582,740
582,740
583,740
583,740
583,740
583,740
583,740
583,740
583,740
583,739
583,739
583,739
583,739
583,739
583,739
584,739
584,739
584,739
584,739
584,739
584,739
584,739
584,739
584,739
584,739
584,739
585,738
585,738
585,738
585,738
585,738
585,738
586,738
586,738
586,738
586,738
586,738
586,738
586,738
586,738
586,738
586,738
586,738
586,737
587,737
587,737
587,737
587,737
587,737
587,736
587,736
587,736
587,736
587,736
587,736
587,736
587,735
587,735
587,735
587,735
587,735
587,735
587,734
587,734
587,734
587,734
587,734
587,734
587,734
587,734
587,733
587,733
587,733
587,733
587,733
587,733
587,733
587,733
586,733
586,732
586,732
586,732
586,732
587,732
587,732
587,732
587,731
587,731
587,731
587,731
587,731
587,730
587,730
587,730
587,730
587,730
587,730
587,730
587,730
587,730
587,730
587,730
587,730
587,730
587,730
586,730
586,730
586,730
586,730
586,730
585,730
585,730
585,730
585,730
585,730
585,730
584,730
584,730
584,730
584,730
584,730
584,729
584,729
584,729
583,729
583,729
583,729
583,728
583,728
583,728
583,728
583,728
583,727
583,727
583,727
583,727
583,727
583,727
583,727
583,727
582,727
582,726
582,726
582,726
582,726
582,726
582,726
582,726
582,726
582,726
582,726
582,726
582,726
582,726
582,726
581,726
581,726
581,726
581,726
581,726
581,726
581,726
581,726
581,726
580,726
580,726
580,726
580,726
580,726
580,725
580,725
579,725
579,725
579,725
579,725
579,725
578,725
578,725
578,725
578,725
578,725
577,725
577,725
577,725
577,725
577,725
576,724
576,724
576,724
576,724
576,724
576,724
575,724
575,724
575,724
575,724
575,724
575,724
575,724
574,724
574,724
574,724
574,724
574,724
574,724
574,724
573,725
573,725
573,725
573,725
573,725
573,725
573,725
573,725
573,726
573,726
573,726
573,726
573,726
573,726
573,727
573,727
573,727
573,727
573,727
573,727
573,728
573,728
573,728
573,728
573,728
573,728
573,728
573,729
573,729
573,729
572,729
572,729
572,729
572,729
572,729
572,730
572,730
572,730
572,730
571,730
571,730
571,730
571,729
571,729
571,729
570,729
570,729
570,729
570,729
570,729
570,729
569,729
569,729
569,729
569,729
569,729
569,729
569,729
568,729
568,729
568,729
568,729
568,728
568,728
568,728
568,728
567,728
567,728
567,728
567,728
567,728
567,728
566,728
566,728
566,728
566,728
566,728
565,727
565,727
565,727
565,727
565,727
565,727
564,727
564,726
564,726
564,726
564,726
564,726
564,726
564,726
564,726
564,726
564,726
564,726
564,726
563,726
563,725
563,725
563,725
563,725
563,725
563,725
563,725
563,725
562,725
562,725
562,725
562,725
562,725
562,726
561,726
561,726
561,726
561,726
560,726
560,727
560,726
560,726
560,726
560,726
560,726
559,726
559,726
559,726
559,725
559,725
559,725
559,725
559,725
559,725
558,725
558,724
558,724
558,724
558,724
558,724
558,724
558,724
558,724
558,724
558,724
558,724
558,724
558,724
558,724
558,724
558,723
558,723
558,723
558,723
558,723
558,723
558,723
558,722
557,722
557,722
557,722
557,722
557,722
557,722
557,722
557,722
557,722
557,722
557,722
556,722
556,722
556,722
556,722
556,721
556,721
556,721
556,721
556,721
556,721
555,721
555,720
555,720
555,720
555,720
555,720
555,719
554,719
554,719
554,719
554,719
554,718
554,718
554,718
554,718
554,718
554,718
554,718
554,718
554,718
554,718
554,717
554,717
554,717
554,717
554,717
553,717
553,717
553,717
553,717
553,717
553,717
553,717
553,716
553,716
554,716
554,716
554,716
554,716
554,716
554,716
554,716
554,716
554,716
554,715
554,715
555,715
555,715
555,715
555,715
555,715
555,715
555,715
555,714
555,714
556,714
556,714
556,714
556,714
556,714
556,714
556,714
556,714
556,714
556,713
556,713
556,713
556,713
556,713
557,713
557,713
557,713
557,713
557,712
557,712
557,712
557,712
557,712
557,712
557,712
558,711
558,711
558,711
558,711
558,711
558,710
558,710
558,710
558,710
558,709
558,709
558,709
558,709
558,709
558,708
558,708
558,708
558,708
558,708
558,708
558,707
558,707
558,707
558,707
558,707
558,707
558,707
558,707
558,706
558,706
558,706
558,706
558,706
558,706
558,706
558,706
558,706
558,705
558,705
558,705
558,705
558,705
558,705
558,705
558,705
558,704
558,704
558,704
558,704
558,704
558,704
558,704
558,704
558,704
558,704
558,704
558,704
558,704
558,704
558,704
558,704
558,704
558,704
558,704
558,703
558,703
558,703
558,703
558,703
558,703
558,703
558,703
558,703
558,703
558,703
558,702
558,702
558,702
558,702
558,701
558,701
558,701
558,701
558,701
558,701
558,701
558,701
558,701
558,701
558,701
558,701
558,700
558,700
558,700
558,700
558,700
559,700
559,700
559,700
559,700
559,700
559,700
559,700
559,700
559,700
559,699
559,699
559,699
559,699
560,699
560,699
560,699
560,699
560,699
560,699
560,699
560,699
560,699
560,699
560,699
560,699
560,699
560,699
560,699
560,699
560,699
560,699
560,699
560,699
560,699
560,699
560,699
560,698
560,698
560,698
560,698
560,698
560,697
560,697
560,697
560,697
560,697
560,697
560,697
560,697
560,697
560,697
560,697
560,698
560,698
560,698
561,698
561,697
561,697
561,697
561,697
561,697
561,697
561,697
562,696
562,696
562,696
562,696
562,696
562,696
562,696
562,696
562,696
562,695
562,695
562,695
563,695
563,695
563,695
563,695
563,695
563,695
563,695
563,695
563,695
563,695
564,695
564,695
564,694
564,694
564,694
564,694
565,694
565,694
565,693
565,693
565,693
566,693
566,693
566,694
566,694
567,694
567,694
567,694
568,694
568,694
568,694
568,694
568,694
568,694
568,694
568,694
569,694
569,694
569,694
569,694
569,694
569,693
569,693
568,693
568,693
568,693
568,693
568,693
568,693
568,692
568,692
568,692
568,692
568,692
567,692
567,692
567,692
567,692
567,692
567,692
567,691
567,691
567,691
567,691
567,691
567,691
567,691
567,690
567,690
567,690
567,690
567,690
567,690
568,690
568,690
568,690
568,689
568,689
568,689
568,689
568,689
568,689
568,689
568,689
568,688
568,688
568,688
568,688
568,688
568,688
568,688
568,688
568,688
568,688
568,688
569,687
569,687
569,687
569,687
569,687
569,687
569,687
569,687
570,687
570,687
570,687
570,687
570,687
570,687
570,687
570,687
570,687
570,687
570,686
570,686
570,686
570,686
570,686
570,686
570,686
571,686
571,685
571,685
571,685
571,685
571,685
572,685
572,685
572,685
572,685
572,684
572,684
572,684
573,684
573,684
573,684
573,684
573,683
573,683
573,683
573,683
573,683
574,683
574,683
574,683
574,683
574,683
574,683
574,683
575,683
575,683
575,683
575,683
574,683
574,683
574,683
574,683
574,683
574,683
574,683
574,683
574,683
574,683
575,683
575,683
575,683
575,683
575,683
575,683
575,683
575,683
575,683
575,682
575,682
575,682
575,682
575,682
575,682
575,682
575,682
575,682
575,682
575,681
575,681
575,681
575,681
574,681
574,681
574,680
574,680
574,680
574,680
574,680
574,680
573,680
573,680
573,680
573,680
573,679
573,679
572,679
572,679
572,679
572,679
572,678
572,678
572,678
572,678
571,678
571,678
571,677
571,677
571,677
571,677
571,677
571,676
571,676
571,676
571,676
571,676
571,675
571,675
571,675
571,675
571,675
571,675
571,675
571,675
571,675
571,675
571,675
571,675
571,675
571,675
571,674
571,674
571,674
571,674
571,674
571,674
571,674
571,673
571,673
571,673
571,673
571,673
571,673
571,673
571,673
571,672
571,672
571,672
572,672
572,672
572,672
572,671
572,671
572,671
573,671
573,671
573,671
573,671
573,671
573,671
573,671
573,671
573,671
573,671
573,671
573,671
573,671
573,670
573,670
573,670
573,670
573,670
573,670
573,670
573,670
573,670
573,669
573,669
573,669
573,669
573,669
573,669
573,668
573,668
573,668
574,668
574,668
574,667
574,667
574,667
574,667
574,667
574,666
574,666
574,666
575,666
575,666
575,666
575,666
575,666
575,666
575,666
575,666
575,666
575,666
575,666
575,666
575,666
575,665
575,665
575,665
575,665
575,665
575,665
575,665
575,665
575,665
575,665
575,665
575,665
575,664
575,664
575,664
575,664
575,664
575,664
575,664
575,663
575,663
575,663
575,663
575,663
575,663
575,663
575,663
575,663
575,663
575,663
575,663
575,663
575,663
575,663
575,663
575,663
575,663
575,663
575,663
574,663
574,663
574,663
574,663
574,663
574,663
574,663
574,663
573,663
573,663
573,663
573,663
573,663
573,664
573,664
573,664
573,664
573,664
573,664
573,664
572,664
572,664
572,664
572,664
572,664
572,664
572,664
571,665
571,665
571,665
571,665
571,665
570,665
570,665
570,665
570,665
570,665
570,665
569,665
569,665
569,665
569,665
569,665
569,665
569,665
569,665
569,665
569,665
569,665
569,665
569,665
569,665
569,665
569,665
569,665
568,665
568,664
568,664
568,664
568,664
568,664
568,664
568,663
567,663
567,663
567,663
567,663
567,662
567,662
567,662
567,662
567,662
567,662
567,662
567,662
567,662
567,662
567,662
567,661
567,661
567,661
567,661
566,661
566,661
566,661
566,661
566,661
566,661
566,661
566,661
566,661
566,661
566,661
566,660
566,660
566,660
566,660
566,660
566,660
567,660
567,660
567,660
567,659
567,659
567,659
567,659
567,659
567,658
567,658
567,658
567,658
567,658
567,658
566,657
566,657
566,657
566,657
566,657
566,657
566,656
566,656
566,656
566,656
566,656
566,656
566,656
566,656
565,656
565,655
565,655
565,655
565,655
565,655
565,655
565,655
565,655
564,655
564,655
564,655
564,655
564,655
564,655
564,655
564,655
564,655
564,655
564,655
564,655
564,655
564,655
564,655
564,655
563,655
563,655
563,655
563,655
563,655
563,655
563,655
563,655
563,655
563,655
563,655
563,655
562,655
562,655
562,655
562,654
562,654
562,654
562,654
562,654
562,654
562,654
562,654
562,654
562,654
562,654
562,653
562,653
562,653
562,653
562,653
562,652
563,652
563,652
563,652
563,652
563,652
563,651
563,651
563,651
563,651
563,651
563,650
563,650
564,650
564,650
564,650
564,649
564,649
564,649
564,649
564,649
564,649
564,649
564,649
564,649
564,648
564,648
564,648
563,648
563,648
563,648
563,648
563,648
563,648
563,647
563,647
563,647
563,647
563,647
563,647
563,647
563,647
562,647
562,647
562,647
562,647
562,647
562,647
562,647
562,647
561,647
561,647
561,647
561,647
561,647
561,647
561,647
561,647
561,646
560,646
560,646
560,646
560,646
560,646
560,646
560,646
560,646
560,646
560,646
560,645
560,645
560,645
560,645
560,645
560,645
559,645
559,645
559,645
559,645
559,645
559,645
559,645
559,645
559,645
559,645
558,645
558,645
558,645
558,645
558,645
558,645
558,645
558,645
558,645
558,646
558,646
558,646
558,646
557,646
557,645
557,645
557,645
557,645
557,645
556,645
556,645
556,645
556,645
556,645
556,645
556,645
556,645
555,644
555,644
555,644
555,644
555,644
555,644
555,644
555,644
555,644
555,644
555,644
555,644
554,644
554,644
554,644
554,643
554,643
554,643
554,643
553,642
553,642
553,642
553,642
553,642
553,642
553,642
553,641
552,641
552,641
552,641
552,641
552,641
552,641
552,641
552,641
551,641
551,641
551,642
551,642
551,642
551,642
551,642
551,642
550,642
