502,502
502,502
502,502
502,502
502,502
502,502
502,502
502,502
503,502
503,502
503,502
503,502
503,502
503,503
504,503
504,503
504,503
504,503
504,503
504,503
505,504
505,504
505,504
505,504
505,504
505,504
506,504
506,504
506,504
506,504
506,504
506,504
507,505
507,505
507,505
507,505
507,505
507,505
507,505
507,505
507,505
507,506
507,506
507,506
507,506
507,506
507,506
507,507
507,507
507,507
507,507
507,507
506,507
506,507
506,507
506,507
506,507
506,507
505,507
505,508
505,508
505,508
505,508
505,508
506,508
506,508
506,509
506,509
506,509
506,509
506,509
506,509
506,509
506,509
506,509
506,509
506,509
506,509
506,509
506,509
506,509
506,510
506,510
506,510
506,510
506,510
506,510
506,510
506,510
506,510
506,510
506,510
506,510
505,510
505,510
505,510
505,510
505,510
505,511
504,511
504,511
504,511
504,511
504,511
504,511
504,512
504,512
504,512
504,512
504,512
504,512
504,512
504,512
504,512
504,513
504,513
504,513
504,513
504,513
504,513
504,513
504,513
504,513
504,513
504,513
504,514
504,514
504,514
504,514
505,514
505,514
505,514
504,514
504,514
504,514
504,514
504,514
504,514
504,514
504,514
504,514
504,514
504,514
504,514
504,514
504,514
504,514
504,514
504,514
504,514
504,514
504,514
504,514
503,514
503,515
503,515
503,515
503,515
503,515
503,515
503,515
502,515
502,515
502,515
502,515
502,515
502,515
502,515
502,515
502,516
502,516
502,515
501,515
501,515
501,515
501,515
501,515
501,515
501,515
501,515
501,515
501,515
501,516
501,516
501,516
501,516
500,516
500,516
500,516
500,516
500,516
500,516
500,516
500,516
500,516
500,516
500,516
500,516
500,516
500,517
500,517
500,517
500,517
500,517
500,517
500,517
500,517
500,517
500,517
500,517
500,517
500,517
500,517
500,518
500,518
500,518
500,518
500,518
500,518
500,518
499,518
499,518
499,518
499,518
499,518
499,518
499,518
499,517
499,517
499,517
499,517
499,517
499,517
498,517
498,517
498,517
498,517
498,517
498,517
497,517
497,517
497,517
497,517
497,516
497,516
497,516
497,516
497,516
497,516
497,516
497,516
496,516
496,516
496,516
496,516
495,516
495,516
495,516
494,515
494,515
494,515
494,515
494,515
493,515
493,515
493,515
493,515
493,515
492,515
492,515
492,515
492,515
492,515
491,515
491,515
491,515
491,515
491,515
491,515
490,515
490,515
490,515
490,516
490,516
490,516
490,516
490,516
490,516
490,516
490,516
490,516
490,516
490,516
490,516
490,516
490,516
490,516
490,516
490,516
490,516
490,516
490,516
490,516
490,516
490,516
489,516
489,516
489,516
489,516
489,516
489,516
489,516
489,517
489,517
488,517
488,517
488,517
488,517
488,517
488,517
487,518
487,518
487,518
487,518
487,518
487,518
487,518
487,518
487,518
487,519
486,519
486,519
486,519
486,519
486,519
486,520
485,520
485,520
485,520
485,520
485,520
485,520
485,520
485,520
485,520
485,520
485,520
485,520
485,520
485,520
485,520
485,521
484,521
484,521
484,521
484,521
484,521
484,521
484,521
484,521
484,521
483,522
483,522
483,522
483,522
482,522
482,522
482,522
482,523
482,523
481,523
481,523
481,523
481,523
481,523
481,523
480,523
480,523
480,523
480,523
480,523
480,523
480,523
480,523
480,523
479,523
479,522
479,522
479,522
479,522
479,522
479,522
479,522
479,522
479,522
479,522
479,522
479,523
479,523
479,523
478,523
478,523
478,523
478,523
478,523
478,523
478,523
478,523
478,523
478,523
478,523
478,523
478,524
478,524
478,524
478,524
478,524
478,525
478,525
478,525
478,525
478,525
478,525
478,525
478,526
478,526
478,526
478,526
478,526
478,526
478,527
478,527
478,527
478,527
478,527
478,527
478,528
478,528
478,528
478,528
478,528
478,528
477,528
477,528
477,528
477,528
477,527
476,527
476,527
476,527
476,527
476,527
476,527
476,527
476,527
476,527
476,527
476,527
475,527
475,527
475,527
475,527
475,527
475,527
475,527
475,527
475,527
475,527
475,527
474,527
474,527
474,528
474,528
474,528
474,528
474,528
474,528
474,528
473,528
473,528
473,528
473,528
473,527
473,527
473,527
473,527
473,527
473,527
473,527
473,527
472,527
472,527
472,527
471,527
471,527
471,527
470,527
470,527
470,527
469,527
469,527
469,527
469,527
469,527
469,527
469,527
468,527
468,527
468,527
468,527
468,527
468,527
468,527
468,527
468,527
468,527
468,527
468,527
468,527
468,527
468,527
468,527
468,527
468,527
467,527
467,527
467,527
467,527
467,527
467,528
467,528
467,528
467,528
467,528
467,528
467,528
467,528
467,528
467,528
467,528
467,528
466,529
466,529
466,529
466,529
466,529
466,529
466,529
466,530
466,530
466,530
466,530
466,530
466,530
466,530
466,530
466,530
466,530
466,530
466,531
466,531
466,531
466,531
466,531
466,531
466,531
466,531
467,531
467,532
467,532
467,532
466,532
466,532
466,532
466,532
466,532
466,532
466,532
466,532
466,532
466,532
466,532
466,532
466,532
466,532
466,532
465,532
465,532
465,532
465,532
465,532
465,532
465,532
465,531
465,531
465,531
465,531
464,531
464,531
464,531
464,531
464,531
464,530
464,530
464,530
464,530
464,530
464,530
464,530
464,530
464,530
463,530
463,530
463,530
463,530
463,530
463,530
463,530
462,530
462,530
462,530
462,530
462,530
462,530
462,530
462,530
462,530
462,530
462,530
462,530
462,530
461,530
461,530
461,530
461,530
461,530
461,530
461,530
461,530
461,530
460,529
460,529
460,529
460,529
460,529
459,529
459,529
459,529
459,529
459,529
459,529
459,529
459,529
459,529
459,529
459,529
459,529
459,529
459,529
459,529
459,529
459,529
459,529
458,529
458,529
458,530
458,530
458,530
458,530
458,530
457,530
457,530
457,530
457,530
457,530
457,530
457,530
457,530
457,531
457,531
456,531
456,531
456,531
456,531
456,531
456,531
456,531
456,531
456,531
456,531
456,531
456,531
456,531
456,532
456,532
455,532
455,532
455,532
455,532
455,532
455,532
455,533
455,533
455,533
455,533
455,534
455,534
455,534
455,534
455,534
455,534
455,535
455,535
455,535
455,535
455,535
455,535
455,535
455,535
455,535
455,536
455,536
455,536
455,536
455,536
455,536
455,536
455,536
455,536
455,536
455,536
455,537
455,537
455,537
455,537
455,537
455,537
455,537
455,537
455,537
455,538
455,538
455,538
455,538
455,538
455,538
455,538
455,539
456,539
456,539
456,539
456,539
456,539
456,539
456,540
456,540
456,540
457,540
457,540
457,540
457,541
457,541
457,541
457,541
457,541
457,541
457,541
457,542
457,542
457,542
457,542
457,542
457,542
457,542
458,542
458,542
458,543
458,543
458,543
458,543
458,543
458,543
458,543
459,543
459,543
459,543
459,543
459,543
459,543
460,543
460,543
460,543
460,544
460,544
460,544
460,544
460,544
460,544
460,544
461,544
461,544
461,544
461,544
462,544
462,544
462,545
462,545
463,545
463,545
463,545
463,545
463,545
463,545
463,545
463,545
463,545
464,545
464,545
464,545
464,545
464,545
464,545
464,546
464,546
465,546
465,546
465,546
465,546
465,546
465,546
466,546
466,547
466,547
466,547
466,547
466,547
466,547
467,547
467,547
467,547
467,547
467,548
467,548
467,548
467,548
467,548
467,548
467,548
467,548
467,548
467,548
467,549
467,549
467,549
467,549
467,549
466,549
466,549
466,549
466,549
466,549
466,549
466,549
466,549
466,549
466,549
466,549
466,549
466,549
466,549
466,549
466,549
466,549
466,548
466,548
466,548
466,548
466,548
466,547
466,547
466,547
466,547
466,547
466,547
466,547
466,547
466,547
466,547
466,547
466,547
466,546
466,546
466,546
466,546
466,546
466,545
467,545
467,545
467,545
467,545
466,545
466,544
466,544
466,544
466,544
466,543
466,543
465,543
465,543
465,542
465,542
465,542
465,542
465,542
465,542
465,542
465,542
465,542
465,542
465,542
465,542
465,542
465,542
464,541
464,541
464,541
464,541
464,541
464,541
464,541
464,542
464,542
464,542
464,542
464,542
464,542
464,542
464,542
464,543
464,543
464,543
464,543
464,543
464,543
464,543
464,544
464,544
464,544
464,544
464,544
464,544
464,544
464,544
464,545
464,545
464,545
464,545
464,545
464,545
464,545
464,545
464,545
464,546
464,546
464,546
464,546
464,546
464,546
464,547
464,547
464,547
463,547
463,547
463,547
463,547
463,547
463,547
462,548
462,548
462,548
462,548
462,548
462,548
462,548
462,548
461,548
461,548
461,548
461,548
461,548
461,548
461,548
461,549
461,549
461,549
461,549
460,549
460,549
460,549
460,549
460,549
460,549
460,549
460,550
460,550
460,550
460,550
460,550
460,550
460,550
460,550
460,550
460,550
461,551
461,551
461,551
461,551
461,551
461,552
461,552
461,552
461,552
462,552
462,553
462,553
462,553
462,553
462,553
463,553
463,554
463,554
463,554
463,554
463,554
463,554
464,554
464,554
464,554
464,554
464,554
464,554
464,554
465,554
465,554
465,554
465,554
465,554
465,554
466,554
466,554
466,554
466,554
466,554
466,554
466,554
466,554
466,554
466,554
466,554
466,554
466,555
466,555
466,555
466,555
466,555
466,555
466,555
466,555
466,555
466,555
466,555
466,556
466,556
466,556
466,556
466,556
466,556
466,556
466,556
466,556
466,556
466,557
466,557
466,557
466,557
466,557
466,557
466,557
466,558
466,558
466,558
466,558
466,558
466,558
466,558
466,558
466,558
466,558
466,558
466,558
466,558
466,558
465,559
465,559
465,559
465,559
465,559
465,559
465,560
465,560
465,560
465,560
464,560
464,560
464,560
464,561
464,561
464,561
464,561
464,561
464,561
464,561
464,561
464,561
463,561
463,561
463,561
463,562
463,562
463,562
463,562
463,562
463,562
463,563
463,563
463,563
463,564
463,564
463,564
463,564
462,564
462,564
462,564
462,564
462,564
462,564
461,564
461,564
461,564
461,564
461,564
461,564
461,564
461,564
461,564
460,564
460,564
460,564
460,564
460,564
460,564
460,564
460,564
460,564
460,564
460,564
460,564
460,564
459,564
459,564
459,564
459,564
459,564
459,564
458,564
458,564
458,564
458,564
458,563
458,563
458,563
458,563
457,563
457,563
457,563
457,562
457,562
457,562
457,562
457,562
457,562
457,562
457,562
456,562
456,562
456,562
456,562
456,562
456,563
455,563
455,563
455,563
455,563
455,563
455,563
455,563
455,563
455,563
455,563
455,563
455,563
455,564
455,564
455,564
454,564
454,564
454,564
454,564
454,565
454,565
454,565
454,565
454,565
454,565
454,565
454,565
454,565
454,565
454,566
453,566
453,566
453,566
453,566
453,566
453,566
453,566
453,567
453,567
452,567
452,567
452,567
452,567
452,568
452,568
451,568
451,568
451,568
451,569
451,569
450,569
450,569
450,569
450,569
450,569
450,569
450,569
449,569
449,569
449,569
449,569
449,569
449,569
449,569
448,569
448,569
448,569
448,568
448,568
448,568
448,568
448,568
447,568
447,568
447,568
447,568
447,568
446,568
446,568
446,568
446,568
446,568
446,568
446,568
446,568
445,568
445,568
445,567
445,567
445,567
445,567
445,567
445,567
445,567
445,567
444,567
444,567
444,567
444,567
444,567
444,567
444,568
444,568
444,568
444,568
444,568
444,568
444,568
444,568
444,568
444,569
443,569
443,569
443,569
443,569
443,569
442,570
442,570
442,570
442,570
442,570
441,570
441,570
441,570
441,571
440,571
440,571
440,571
440,571
440,571
439,571
439,571
439,571
439,571
439,571
439,571
439,571
439,571
439,571
439,572
439,572
439,572
439,571
439,571
439,571
439,571
439,571
438,571
438,571
438,571
438,571
438,571
438,571
438,571
438,571
438,571
437,571
437,571
437,571
437,570
437,570
437,570
437,570
437,570
437,570
436,570
436,570
436,570
436,570
436,570
436,570
436,570
436,570
436,570
436,570
435,570
435,570
435,570
435,571
435,571
435,571
435,570
434,570
434,570
434,570
434,570
433,570
433,570
433,570
433,569
433,569
432,569
432,570
432,570
432,570
432,570
432,570
432,570
432,570
431,570
431,571
431,571
431,571
431,571
431,571
431,571
431,571
431,571
431,571
431,571
431,571
431,571
431,572
431,572
431,572
430,572
430,572
430,572
430,573
430,573
430,573
430,573
430,573
430,573
429,573
429,573
429,573
429,573
429,573
429,573
429,574
429,574
429,574
429,574
428,574
428,574
428,575
428,575
428,575
428,575
428,575
428,575
428,575
428,575
428,575
428,575
428,575
428,575
428,575
428,575
428,575
428,576
428,576
428,576
428,576
427,576
427,576
427,576
427,576
427,577
427,577
427,577
427,577
427,577
427,577
427,577
427,577
427,578
427,578
427,578
427,578
427,578
426,578
426,578
426,578
426,578
426,579
426,579
425,579
425,579
425,579
425,579
425,579
425,579
424,579
424,579
424,579
424,579
424,579
424,579
424,579
424,580
424,580
424,580
423,580
423,580
423,580
423,580
423,580
423,580
423,581
423,581
423,581
423,581
423,581
423,581
423,581
423,581
423,581
423,582
423,582
423,582
423,582
423,582
423,582
423,582
423,582
423,582
423,582
423,583
423,583
423,583
423,583
423,583
423,583
422,583
422,583
422,583
422,584
422,584
422,584
422,584
423,584
423,584
423,584
423,584
423,584
423,584
423,584
423,584
423,585
423,585
424,585
424,585
424,585
424,585
424,585
424,585
424,585
425,586
425,586
425,586
425,586
425,586
425,586
425,586
425,586
426,586
426,587
426,587
426,587
426,587
426,587
426,587
426,587
426,587
426,587
426,587
426,587
426,587
426,587
426,587
426,587
426,587
426,587
426,587
426,588
426,588
426,588
425,588
425,588
425,588
425,588
425,588
426,588
426,589
426,589
426,589
426,589
426,589
426,589
426,590
426,590
426,590
426,590
426,590
426,590
426,590
426,590
426,590
426,591
425,591
425,591
425,591
425,591
425,591
425,591
424,591
424,591
424,591
424,592
424,592
424,592
424,592
424,592
423,592
423,592
423,592
423,592
423,592
423,592
423,592
423,593
423,593
422,593
422,593
422,593
422,594
422,594
422,594
422,594
422,594
422,594
422,594
422,594
422,594
422,594
421,594
421,594
421,594
421,594
421,594
421,594
421,594
421,594
421,595
421,595
421,595
421,595
421,595
421,595
421,595
421,595
421,595
421,595
420,595
420,595
420,595
420,595
420,595
420,595
420,595
420,595
419,595
419,595
419,596
419,596
419,596
419,596
419,596
418,596
418,595
418,595
418,595
418,595
418,594
418,594
418,594
418,594
417,593
417,593
417,593
417,593
417,593
417,593
417,592
417,592
417,592
417,592
417,592
417,592
417,592
417,591
417,591
417,591
417,591
417,591
417,591
417,591
417,591
417,590
417,590
417,590
416,590
416,590
416,590
416,590
416,590
416,589
416,589
416,589
416,589
416,589
416,589
416,589
415,589
415,589
415,589
415,589
415,589
415,589
414,589
414,589
414,589
414,589
414,590
414,590
414,590
414,590
414,590
414,590
413,590
413,590
413,590
413,590
413,590
413,591
413,591
413,591
413,591
412,591
412,591
412,591
412,591
412,591
412,591
412,591
412,591
411,591
411,591
411,592
411,592
411,592
411,592
411,592
410,592
410,592
410,592
410,592
410,592
410,592
409,592
409,592
409,592
409,592
409,592
409,592
409,592
409,593
408,593
408,593
408,593
408,593
408,593
408,593
407,593
407,593
407,593
407,593
407,593
407,594
407,594
407,594
406,594
406,594
406,594
406,594
406,594
406,594
406,595
406,595
406,595
406,595
406,595
406,595
406,595
407,595
407,596
407,596
407,596
407,596
407,596
407,596
407,596
407,596
407,596
407,597
408,597
408,597
408,597
408,597
408,597
408,597
408,597
408,598
408,598
408,598
408,598
408,598
408,598
409,599
409,599
409,599
409,599
409,599
409,600
409,600
409,600
409,600
409,600
409,600
410,601
410,601
410,601
410,601
410,601
410,601
410,601
410,601
410,601
410,601
410,602
410,602
410,602
410,602
410,602
411,602
411,602
411,602
411,602
411,603
411,603
411,603
411,603
411,603
411,603
411,603
411,603
411,603
412,604
412,604
412,604
412,604
412,604
412,604
412,604
412,604
412,604
412,604
412,604
412,604
412,604
412,604
412,605
413,605
413,605
413,605
413,605
413,605
413,605
413,605
413,605
413,605
413,605
413,606
413,606
414,606
414,606
414,606
414,606
414,606
414,606
414,606
414,606
414,606
414,607
414,607
414,607
415,607
415,607
415,607
415,607
415,607
415,607
415,607
415,607
415,608
415,608
415,608
415,608
415,608
415,608
415,608
415,608
415,608
415,608
415,608
415,608
415,608
415,608
415,608
416,608
416,608
416,608
416,609
417,609
417,609
417,609
417,609
418,609
418,609
418,609
418,609
418,609
418,609
418,609
418,609
418,609
418,609
418,609
418,609
418,609
418,610
418,610
418,610
418,610
418,610
418,610
418,611
418,611
418,611
418,611
418,611
418,611
417,611
417,611
417,611
417,611
417,611
416,611
416,611
416,611
416,611
416,611
416,611
415,611
415,611
415,611
415,611
415,612
415,612
415,612
415,612
414,612
414,612
414,612
414,612
414,612
414,612
414,612
414,612
414,612
413,612
413,612
413,612
413,612
413,612
412,612
412,612
412,612
412,612
412,612
412,612
411,612
411,612
411,612
411,612
411,612
411,612
410,613
410,613
410,613
410,613
410,613
409,613
409,612
409,612
409,612
408,612
408,612
408,612
408,613
408,613
408,613
408,613
408,613
408,613
408,614
407,614
407,614
407,614
407,614
407,614
407,614
406,614
406,614
406,614
406,614
405,614
405,614
405,614
405,614
405,614
405,615
404,615
404,615
404,615
404,615
404,615
404,615
404,615
403,615
403,615
403,615
403,615
403,616
403,616
403,616
402,616
402,616
402,616
402,616
402,616
402,617
402,617
402,617
402,617
402,617
402,617
402,617
402,617
401,617
401,617
401,617
401,617
401,617
400,617
400,617
400,617
400,617
399,617
399,617
399,617
399,617
399,617
399,617
399,618
399,618
399,618
399,618
399,618
399,618
399,619
399,619
399,619
399,619
399,619
399,619
399,619
399,620
398,620
398,620
398,620
398,620
398,620
398,620
398,620
398,620
398,620
398,620
397,620
397,620
397,620
397,620
397,620
397,620
397,620
397,620
397,620
397,620
397,620
397,620
397,620
397,620
396,620
396,620
396,620
396,620
396,620
396,620
395,620
395,620
395,620
395,620
395,620
395,620
395,620
395,620
395,620
395,620
395,620
395,620
395,620
395,620
395,620
395,620
395,620
395,620
395,620
395,620
395,620
395,620
395,620
395,620
395,620
395,620
395,620
395,620
395,620
395,620
395,620
395,621
395,621
395,621
395,621
395,621
395,621
395,621
395,621
395,621
395,622
395,622
394,622
394,622
394,622
394,622
394,622
394,622
394,622
394,622
394,622
394,622
394,622
394,622
394,622
394,622
394,622
394,622
394,622
394,622
394,622
394,622
394,623
394,623
394,623
394,623
394,623
394,623
394,623
394,624
394,624
393,624
393,624
393,624
393,624
393,624
393,624
393,624
393,623
393,623
393,623
392,624
392,624
392,624
392,624
392,624
392,624
392,624
392,624
392,625
392,625
391,625
391,625
391,625
391,625
391,625
391,626
391,626
390,626
390,626
390,626
390,626
390,626
389,626
389,626
389,626
389,626
388,626
388,626
388,625
388,625
388,625
388,626
388,626
388,626
387,626
387,626
387,626
387,626
387,626
387,626
387,627
387,627
387,627
387,627
387,627
387,628
387,628
387,628
387,628
387,628
387,628
387,628
387,628
387,629
387,629
387,629
386,629
386,629
386,629
386,629
386,629
386,629
386,629
386,629
386,629
386,629
386,629
386,629
386,630
386,630
386,630
386,630
386,630
387,630
387,630
387,631
387,631
387,631
387,631
387,631
387,631
387,631
387,632
388,632
388,632
388,632
388,632
388,632
388,632
388,633
388,633
388,633
388,633
388,633
388,633
388,633
388,633
388,633
388,633
388,633
388,633
388,633
388,633
388,633
388,633
388,633
388,633
388,634
388,634
388,634
388,634
388,634
388,634
388,634
388,634
388,635
388,635
388,635
388,635
388,635
388,635
388,635
388,636
388,636
388,636
388,636
388,637
388,637
388,637
388,637
388,637
388,637
388,637
388,637
388,638
388,638
388,638
388,638
388,638
388,638
388,638
388,638
388,638
388,638
387,639
387,639
387,639
387,639
387,639
387,639
387,639
387,639
387,640
386,640
386,640
386,640
386,640
386,640
386,640
386,640
386,640
385,641
385,641
385,641
385,641
385,641
385,641
384,641
384,641
384,641
384,641
384,641
384,641
384,642
383,642
383,642
383,642
383,642
383,642
383,642
383,642
383,642
383,642
382,642
382,642
382,642
382,641
382,641
382,641
382,641
382,642
382,642
381,642
381,642
381,642
381,642
381,643
381,643
381,643
380,643
380,643
380,643
380,643
380,643
380,643
380,643
379,644
379,644
379,644
379,644
379,644
379,644
378,644
378,644
378,644
378,644
378,644
378,644
377,644
377,644
377,644
377,644
377,644
377,644
377,645
377,645
377,645
377,645
377,645
376,645
376,645
377,645
377,645
377,645
377,645
377,645
377,645
377,645
377,645
377,645
377,646
377,646
377,646
376,646
376,646
376,646
376,647
376,647
376,647
376,647
376,647
376,647
376,647
376,647
376,647
376,647
376,647
376,648
376,648
376,648
376,648
376,648
375,648
375,648
375,648
375,649
375,649
375,649
375,649
374,649
374,649
374,649
374,650
374,650
374,650
374,650
373,650
373,650
373,650
373,650
373,650
373,650
373,650
373,650
373,650
373,650
373,650
373,650
373,650
373,650
373,650
373,650
373,650
374,650
374,651
374,651
374,651
374,651
374,651
374,651
375,651
375,651
375,651
375,652
375,652
375,652
375,652
375,652
375,653
375,653
375,653
375,653
375,653
375,653
375,654
376,654
376,654
376,654
376,654
376,655
376,655
376,655
376,655
376,655
376,655
376,655
376,655
376,655
376,655
376,655
376,655
376,655
376,655
376,655
376,655
376,655
376,655
376,655
376,655
376,655
376,656
376,656
376,656
376,656
376,656
376,656
376,656
376,656
376,657
376,657
376,657
376,657
376,657
376,657
375,657
375,657
375,657
375,657
375,657
375,657
375,658
375,658
375,658
375,658
375,658
374,658
374,658
374,658
374,659
374,659
374,659
374,659
373,659
373,659
373,659
373,659
373,659
373,659
373,659
372,659
372,659
372,659
372,659
372,660
372,660
372,660
372,660
372,660
372,660
372,660
372,660
372,660
372,660
371,660
371,660
371,660
371,660
371,660
371,661
371,661
371,660
371,660
371,660
371,660
371,659
371,659
371,659
371,659
371,658
371,658
370,658
370,658
370,658
370,659
370,659
370,659
370,659
370,659
370,659
369,659
369,659
369,659
369,659
369,659
369,659
369,659
369,659
369,659
369,659
369,659
369,660
369,660
369,660
369,660
369,660
368,660
368,660
368,660
368,660
368,660
368,660
368,660
368,660
368,660
367,660
367,661
367,661
367,661
367,661
367,661
366,661
366,661
366,661
366,661
366,661
366,661
366,661
366,661
365,661
365,662
365,662
365,662
365,662
365,662
365,662
365,662
365,662
365,662
365,663
365,663
365,663
364,663
364,663
364,663
364,663
364,663
364,663
364,663
364,663
364,663
364,663
364,664
364,664
364,664
364,664
364,665
364,665
364,665
364,665
364,666
364,666
364,666
364,666
364,666
364,666
364,666
364,666
364,667
364,667
364,667
363,667
363,667
363,667
363,667
363,666
363,666
362,666
362,666
362,666
362,666
362,666
362,666
362,666
361,667
361,667
361,667
361,667
361,667
361,667
361,667
361,667
360,668
360,668
360,668
360,668
360,668
360,668
360,668
360,669
360,669
360,669
360,669
360,669
360,669
360,669
360,669
360,669
360,670
360,670
360,670
360,670
360,670
360,670
360,670
360,670
360,671
360,671
360,671
360,671
360,671
360,671
360,671
360,671
360,672
360,672
360,672
360,672
360,672
360,672
360,672
360,672
360,672
360,672
360,672
360,672
360,672
360,672
360,672
360,672
360,672
360,673
360,673
360,673
360,673
360,673
360,673
360,673
360,673
360,673
360,674
359,674
359,674
359,674
359,674
359,674
359,674
359,674
359,674
359,674
359,674
358,674
358,674
358,674
358,673
358,673
358,673
357,673
357,673
357,673
357,673
357,673
357,673
357,673
357,673
357,673
356,673
356,673
356,673
356,673
356,673
356,673
356,673
356,673
356,673
355,672
355,672
355,672
355,672
355,672
355,672
355,672
354,673
354,673
354,673
354,673
354,673
354,674
354,674
354,674
354,674
353,674
353,674
353,675
353,675
353,675
353,675
353,675
353,675
353,675
353,675
353,675
353,675
353,675
353,675
353,675
353,675
352,675
352,676
352,676
352,676
352,676
352,676
352,676
352,676
352,676
352,676
352,676
351,676
351,676
351,676
351,676
351,676
351,676
350,676
350,676
350,676
350,675
350,675
349,675
349,675
349,675
349,675
349,676
349,676
349,676
349,676
349,676
348,676
348,676
348,676
348,676
348,676
348,677
348,677
348,677
348,677
348,677
348,678
348,678
348,678
348,678
348,678
348,678
348,678
348,678
348,678
347,678
347,678
347,678
347,679
347,679
347,679
347,679
347,679
347,679
347,679
347,679
347,679
347,679
347,679
347,679
347,680
347,680
347,680
347,680
347,681
347,681
346,681
346,681
346,682
346,682
346,682
346,682
346,682
346,682
346,682
346,682
346,682
346,683
346,683
346,683
345,683
345,683
345,683
345,683
345,683
345,683
345,683
345,684
345,684
344,684
344,684
344,684
344,684
344,685
344,685
344,685
344,685
344,685
343,686
343,686
343,686
343,686
343,686
343,686
343,686
342,686
342,687
342,687
342,687
342,687
342,687
341,687
341,687
341,687
341,687
341,687
340,687
340,687
340,687
340,687
340,687
340,687
339,687
339,687
339,687
339,688
339,688
339,688
339,688
339,688
339,688
339,688
338,688
338,688
338,688
338,688
338,688
338,688
338,688
338,688
338,688
338,689
338,689
338,689
338,689
338,690
337,690
337,690
337,691
337,691
337,691
337,691
337,692
337,692
337,692
337,692
337,692
337,693
337,693
337,693
337,693
337,693
337,693
337,693
337,693
337,693
336,693
336,693
336,693
336,693
336,694
336,694
336,694
336,694
336,694
336,694
336,694
336,694
336,694
336,694
337,694
337,694
337,694
337,694
337,694
337,694
337,695
337,695
337,695
337,695
337,695
337,695
337,695
337,695
337,695
337,695
337,695
337,695
337,695
337,695
337,695
337,695
337,695
338,695
338,695
338,695
338,695
338,695
338,695
338,695
338,695
338,695
338,695
338,695
338,696
338,696
338,696
338,696
338,696
338,696
338,696
338,696
339,696
339,696
339,696
339,696
339,696
339,696
339,696
339,696
339,696
339,696
339,696
339,696
339,696
339,696
338,696
338,696
338,696
338,696
338,697
338,697
338,697
338,697
338,697
338,698
338,698
338,698
338,698
338,698
338,698
338,698
338,699
338,699
338,699
338,699
338,699
338,699
338,699
338,699
338,699
338,700
338,700
338,700
338,700
339,700
339,700
339,700
339,700
339,700
339,700
339,700
339,700
339,700
339,700
339,700
338,700
338,700
338,701
338,701
338,701
338,701
338,701
338,701
338,701
338,702
338,702
338,702
338,702
338,702
338,702
337,702
337,702
337,702
337,702
337,702
337,702
337,703
337,703
337,703
337,703
337,703
337,703
337,703
336,703
336,703
336,703
336,703
336,703
336,703
336,703
336,703
336,703
336,703
336,703
336,703
336,703
336,703
335,703
335,703
335,703
335,704
335,704
335,704
335,704
335,704
335,704
335,704
335,704
335,704
335,704
334,704
334,704
334,704
334,704
334,704
334,704
334,705
334,705
334,705
334,705
334,705
334,705
334,705
334,705
334,706
335,706
335,706
335,706
335,706
335,706
335,706
335,706
335,706
335,707
335,707
335,707
335,707
335,707
335,707
335,707
335,707
335,707
335,707
335,707
335,708
335,708
335,708
335,708
335,708
335,708
335,708
335,708
335,709
335,709
335,709
335,709
335,709
335,709
335,709
335,709
335,709
335,709
335,709
335,709
335,709
335,709
335,709
335,709
335,709
335,709
335,709
335,709
335,709
335,709
335,709
335,709
335,709
335,709
335,709
335,709
335,709
335,709
334,709
334,709
334,709
334,709
334,709
334,709
334,709
334,710
334,710
334,710
334,710
334,710
334,710
333,710
333,710
333,711
333,711
333,711
333,711
333,711
333,711
333,711
333,711
332,711
332,711
332,712
332,712
332,712
332,712
332,712
332,712
332,712
332,712
332,712
332,712
331,712
331,712
331,712
331,712
331,712
330,712
330,712
330,712
330,712
330,712
329,712
329,712
329,712
329,712
329,712
328,712
328,712
328,711
328,711
328,711
328,711
328,711
327,711
327,711
327,711
327,711
327,712
327,712
327,712
327,712
327,712
327,712
327,712
326,712
326,712
326,712
326,712
326,712
326,712
326,712
325,712
325,712
325,712
325,712
325,712
325,712
325,713
325,713
324,713
324,713
324,713
324,713
324,713
324,713
324,713
324,713
323,713
323,713
323,714
323,714
323,714
323,714
323,714
322,714
322,714
322,714
322,714
322,714
321,714
321,715
321,715
321,715
321,715
321,716
321,716
321,716
321,716
321,717
321,717
321,717
321,718
321,718
321,718
321,718
321,718
320,718
320,719
320,719
320,719
320,719
320,719
320,719
320,719
320,719
320,719
320,719
320,719
320,719
320,719
320,720
320,720
319,720
319,720
319,720
319,720
319,720
319,720
319,720
319,720
319,720
319,720
319,721
318,721
318,721
318,721
318,721
318,721
318,722
318,722
318,722
318,722
317,722
317,722
317,722
317,722
317,722
317,723
317,723
317,723
317,723
317,723
317,723
317,723
317,723
317,723
317,723
317,723
317,723
317,723
317,723
317,723
317,723
317,723
317,723
317,723
318,723
318,723
318,723
318,723
318,724
318,724
318,724
319,724
319,724
319,724
319,724
319,724
319,724
319,724
319,724
319,724
319,724
320,724
320,724
320,724
320,724
320,724
320,724
320,724
320,724
320,724
320,724
320,724
320,724
320,724
320,724
320,724
320,724
320,725
320,725
320,725
320,725
320,725
320,725
320,725
320,725
320,725
320,725
319,725
319,725
319,725
319,725
319,726
319,726
319,726
319,726
318,726
318,726
318,726
318,726
318,726
318,726
318,726
317,726
317,726
317,726
317,726
317,726
317,726
317,727
317,727
317,727
316,727
316,727
316,727
316,727
316,727
316,727
315,727
315,727
315,728
315,727
315,727
314,727
314,727
314,727
314,727
313,727
313,727
313,727
313,726
313,726
313,726
313,726
312,726
312,726
312,726
312,726
312,726
312,726
312,726
312,726
312,726
312,726
312,726
312,726
311,726
311,726
311,726
311,726
311,726
311,726
311,726
311,726
311,726
311,726
310,726
310,726
310,726
310,726
310,726
310,726
310,726
310,726
310,726
309,726
309,726
309,726
309,726
309,726
309,726
309,726
309,726
309,726
309,726
309,726
309,726
309,726
309,726
309,726
309,726
308,727
308,727
308,727
308,727
308,727
308,727
308,727
307,728
307,728
307,728
307,728
307,728
307,728
307,728
307,728
307,728
307,728
307,728
307,728
307,728
307,728
307,728
307,728
307,729
307,729
307,729
307,729
307,729
307,730
307,730
307,730
307,730
307,730
307,730
307,731
307,731
307,731
307,731
307,731
307,732
307,732
307,732
307,732
308,732
308,732
308,732
308,732
308,732
308,732
308,732
308,733
308,733
308,733
308,733
308,733
308,733
308,733
308,733
308,734
308,734
308,734
308,734
308,734
308,734
308,734
308,734
308,734
308,734
308,734
308,735
308,735
308,735
308,735
308,735
308,735
308,735
308,735
308,735
308,735
308,735
308,735
307,735
307,735
307,735
307,735
307,735
307,735
307,735
307,735
307,735
307,735
307,736
307,736
307,736
308,736
308,736
308,736
308,736
308,736
308,736
308,736
308,736
308,736
308,736
309,736
309,736
309,736
309,736
309,736
309,736
309,736
310,736
310,736
310,736
310,736
310,736
311,736
311,736
311,736
311,736
311,736
311,736
311,736
311,736
311,736
311,736
312,736
312,736
312,737
312,737
312,737
312,737
312,737
312,736
312,736
312,736
312,736
312,736
312,736
312,736
312,736
312,736
313,736
313,736
313,736
313,736
313,736
313,736
313,736
313,736
313,736
313,736
313,736
313,736
313,736
314,736
314,736
314,736
314,736
314,736
314,736
314,736
314,736
315,736
315,736
315,736
315,736
315,736
315,736
316,737
316,737
316,737
316,737
316,738
316,738
316,738
316,738
316,739
316,739
316,739
316,739
316,739
316,739
316,739
315,740
315,740
315,740
315,740
315,740
315,740
315,740
315,740
315,740
315,740
315,740
315,740
315,740
315,740
315,740
315,740
316,741
316,741
316,741
316,741
316,741
316,741
316,741
316,742
316,742
316,742
316,742
316,743
316,743
316,743
316,744
316,744
316,744
316,745
316,745
316,746
316,746
316,746
316,746
316,747
316,747
316,747
316,747
316,747
316,748
316,748
316,748
316,748
316,748
316,748
316,749
316,749
315,749
315,749
315,749
315,749
315,749
315,750
315,750
315,750
315,750
315,750
314,750
314,750
314,750
314,750
314,750
314,750
314,750
314,751
314,751
314,751
314,751
314,751
314,751
314,751
314,751
314,751
314,751
314,751
314,751
314,751
314,751
314,751
314,751
314,751
314,752
314,752
314,752
314,752
314,752
314,752
314,753
314,753
314,753
314,753
314,753
314,753
314,753
314,753
313,754
313,754
313,754
313,754
313,754
313,754
312,754
312,754
312,754
312,754
312,754
312,754
312,754
312,754
312,754
312,754
312,755
312,755
312,755
312,755
312,755
312,755
312,755
312,755
311,755
311,755
311,755
311,755
311,756
311,756
310,756
310,756
310,757
310,757
309,757
309,757
309,757
309,757
309,758
309,758
309,758
309,758
309,758
309,758
309,758
309,759
309,759
309,759
309,759
309,759
309,759
309,760
309,760
309,760
309,760
309,760
309,760
309,760
309,760
309,760
309,760
309,761
309,761
309,761
309,761
310,761
310,761
310,761
310,761
310,761
310,761
310,761
310,761
310,761
310,761
310,761
310,761
310,761
310,762
310,762
310,762
310,762
310,762
310,762
310,762
310,763
310,763
310,763
310,762
310,762
310,762
310,762
310,762
310,762
310,762
310,762
310,762
310,762
310,762
310,762
310,762
310,762
310,762
310,762
310,762
310,762
310,762
310,762
310,763
310,763
310,763
311,763
311,763
311,763
311,763
311,763
311,763
311,763
311,763
311,764
311,764
310,764
310,764
310,764
310,764
310,765
310,765
310,765
310,765
310,765
310,765
310,766
310,766
310,766
310,766
310,766
310,766
310,767
310,767
310,767
310,767
310,767
310,767
310,767
310,767
310,768
310,768
309,768
309,768
309,768
309,768
309,768
309,768
309,768
309,768
308,768
308,768
308,769
308,769
308,769
308,769
308,769
308,769
307,769
307,769
307,769
307,769
307,770
307,770
307,770
307,770
307,770
306,770
306,770
306,770
306,770
306,770
306,771
306,771
306,771
306,771
306,771
306,771
305,771
305,771
305,772
305,772
305,772
305,772
305,772
305,773
305,773
305,773
305,773
305,774
305,774
305,774
305,774
305,774
305,774
305,774
305,774
305,774
304,774
304,774
304,775
304,775
304,775
304,775
304,775
304,775
304,775
304,775
304,775
304,775
304,775
304,775
304,776
304,776
304,776
304,776
304,776
304,776
304,776
304,776
304,777
304,777
304,777
303,777
303,777
303,777
303,777
303,777
303,778
303,778
302,778
302,778
302,778
302,778
302,778
302,778
301,778
301,778
301,778
301,778
301,778
301,778
301,779
301,779
301,779
301,779
301,779
301,779
301,780
301,780
301,780
301,780
301,780
301,780
301,780
301,780
300,781
300,781
300,781
300,781
300,781
300,781
300,781
300,781
300,781
300,781
300,781
300,782
300,782
300,782
300,782
300,782
300,782
299,782
299,782
299,782
299,782
299,782
299,782
298,782
298,782
298,782
298,782
298,782
298,782
298,782
298,782
298,782
298,782
298,782
298,782
298,782
297,782
297,782
297,782
297,782
297,782
297,782
296,782
296,782
296,783
296,782
296,782
296,782
296,782
296,782
296,782
296,782
296,781
296,781
296,781
296,781
296,781
296,781
296,781
296,781
296,781
296,781
296,781
296,781
296,781
296,781
296,781
296,781
295,781
295,780
295,780
295,780
295,780
295,780
295,780
295,780
294,780
294,780
294,779
294,779
294,779
294,779
294,779
294,779
294,779
294,779
294,779
294,779
294,779
294,779
294,779
293,779
293,779
293,779
293,779
293,779
293,779
293,779
293,779
293,779
293,779
293,779
293,779
293,779
293,779
293,779
293,779
293,779
293,779
293,779
293,779
293,779
293,779
292,779
292,779
292,779
292,779
292,779
292,779
292,779
292,779
292,779
292,780
292,780
291,780
291,780
291,780
291,780
291,780
291,780
291,780
291,780
291,780
291,780
291,780
291,780
290,780
290,781
290,781
290,781
290,781
290,781
290,781
290,781
289,781
289,781
289,781
289,781
289,781
289,781
289,781
289,781
289,781
289,781
289,781
289,781
288,781
288,781
288,781
288,781
288,781
288,781
287,781
287,781
287,781
287,780
287,780
287,780
287,780
287,780
287,780
287,780
287,780
287,780
287,779
287,779
287,779
286,779
286,779
286,778
286,778
286,778
286,778
286,778
286,777
286,777
285,777
285,777
285,777
285,777
284,777
284,777
284,777
284,776
284,776
284,776
284,776
283,776
283,776
283,776
283,776
283,776
283,776
283,776
283,776
283,776
283,776
283,776
283,776
283,776
283,775
283,775
283,775
283,775
283,775
283,775
283,775
283,775
283,775
283,775
283,775
283,775
283,775
283,775
283,774
283,774
282,774
282,774
282,774
282,775
282,775
282,775
282,775
282,775
282,775
282,775
281,775
281,775
281,775
281,775
281,775
281,775
280,775
280,775
280,775
280,775
280,775
280,775
279,775
279,775
279,775
279,775
279,775
279,775
278,775
278,775
278,775
278,775
278,776
278,776
278,776
278,776
277,777
277,777
277,777
277,777
277,777
277,777
277,777
277,778
277,778
278,778
278,778
278,778
278,778
278,778
278,779
278,779
278,779
277,779
277,779
277,779
277,779
277,779
277,780
277,780
277,780
277,780
277,780
277,780
277,780
277,780
277,781
277,781
277,781
277,781
277,781
277,781
277,781
276,781
276,781
276,781
276,781
276,781
276,781
276,782
276,782
276,782
276,782
276,782
276,782
276,782
276,783
276,783
276,783
276,783
276,783
276,783
276,783
276,783
276,783
275,784
275,784
275,784
275,784
275,784
275,784
275,784
275,784
274,784
274,784
274,784
274,784
274,784
273,784
273,784
273,785
273,785
273,785
273,785
272,785
272,785
272,785
272,785
272,786
271,786
271,786
271,786
271,786
271,786
271,786
271,786
270,786
270,786
270,786
270,786
270,786
269,786
269,786
269,786
269,786
269,786
268,786
268,786
268,786
268,786
268,786
268,786
268,786
268,786
268,786
268,786
268,786
267,786
267,786
267,786
267,786
267,786
267,786
267,786
267,787
267,787
267,787
267,787
267,787
266,787
266,787
266,787
266,787
266,787
266,787
265,787
265,787
265,787
265,787
265,787
264,786
264,786
264,786
264,786
264,786
263,786
263,786
263,786
263,785
262,785
262,785
262,785
262,785
262,785
262,785
261,785
261,785
261,785
261,785
261,785
261,785
261,785
260,785
260,785
260,785
260,785
260,785
260,785
260,785
260,785
260,785
260,785
260,785
260,785
260,785
260,785
260,785
260,785
260,785
260,785
260,785
260,785
260,785
260,785
260,785
260,785
260,785
260,785
260,785
260,786
260,786
260,786
260,786
260,786
260,786
260,787
260,787
260,787
260,787
260,787
260,787
260,787
260,788
260,788
259,788
259,788
259,788
259,788
259,788
259,789
259,789
259,789
259,789
259,789
259,789
259,789
259,789
259,789
259,789
259,789
259,789
259,789
259,789
259,789
259,789
259,789
259,789
259,789
258,789
258,789
258,789
258,789
258,789
257,789
257,789
257,789
257,789
256,789
256,790
256,790
256,790
256,790
256,790
256,790
256,790
256,790
255,790
255,790
255,790
255,790
255,790
255,790
255,790
255,791
255,791
255,791
255,791
254,791
254,791
254,791
254,791
254,791
254,791
254,791
254,791
254,792
254,792
254,792
254,792
254,792
254,792
254,792
254,792
254,792
254,792
254,792
254,792
254,792
254,792
254,792
254,792
254,792
254,793
254,793
254,793
254,793
254,793
254,793
253,793
253,793
253,793
253,793
254,793
254,793
254,793
254,793
254,793
254,793
254,793
254,793
254,793
254,793
254,794
254,794
254,794
254,794
254,794
254,794
254,794
254,794
254,794
254,794
254,794
254,794
254,794
254,794
254,795
254,795
254,795
254,795
254,795
253,795
253,795
253,796
253,796
253,796
253,796
252,796
252,796
252,796
252,796
252,796
252,796
251,796
251,796
251,796
251,796
251,796
251,796
250,796
250,796
250,796
250,797
250,797
250,797
249,797
249,797
249,797
249,797
249,797
249,797
249,797
249,798
249,798
248,798
248,798
248,798
248,798
248,798
248,799
248,799
248,799
249,799
249,799
249,799
249,800
249,800
249,800
249,800
249,800
249,800
249,800
249,800
249,800
249,800
249,800
249,800
249,800
249,800
248,801
248,801
248,801
248,801
248,801
248,801
248,801
248,801
248,801
248,801
248,802
248,802
248,802
248,802
248,802
248,802
248,802
247,802
247,802
247,802
247,802
247,802
247,802
247,802
247,802
247,802
246,802
246,802
246,802
246,802
246,802
246,803
246,803
246,803
246,803
246,803
246,803
246,803
246,803
246,804
246,804
246,804
246,804
246,804
246,804
246,804
246,804
246,804
246,804
246,804
246,804
246,804
246,804
246,805
246,805
246,805
246,805
246,805
246,805
246,806
246,806
246,806
246,806
246,806
246,806
246,807
246,807
246,807
246,807
246,807
246,807
246,808
246,808
246,808
247,808
247,808
247,808
247,808
247,809
247,809
247,809
247,809
247,809
247,809
247,809
248,809
248,809
248,809
248,809
248,809
248,809
248,809
248,810
248,810
248,810
248,810
248,810
248,811
249,811
249,811
249,811
248,811
248,811
248,811
248,811
248,811
248,812
248,812
248,812
248,812
248,812
248,812
248,812
248,812
248,812
248,812
248,813
248,813
247,813
247,813
247,813
247,813
247,813
247,813
247,813
247,813
247,813
247,813
247,814
247,814
247,814
247,814
247,814
247,814
247,814
247,814
247,815
247,815
247,815
247,815
247,815
247,815
247,816
247,816
246,816
246,816
246,816
246,816
246,817
246,817
246,817
245,817
245,817
245,817
245,817
245,817
245,817
245,817
245,817
245,817
245,818
245,818
245,818
245,818
245,818
245,818
245,818
245,818
245,819
245,819
245,819
245,819
245,819
245,819
244,820
244,820
244,820
244,820
244,820
244,821
244,821
244,821
244,821
244,821
244,821
244,822
244,822
244,822
245,822
245,822
245,823
245,823
245,823
245,823
245,823
245,823
245,824
245,824
245,824
245,824
245,824
245,824
245,825
245,825
245,825
245,825
245,825
245,825
245,825
245,825
245,825
246,825
246,826
246,826
246,826
246,826
246,826
246,826
246,826
246,826
246,826
246,826
246,826
246,826
246,826
246,827
246,827
247,827
247,827
247,827
247,827
247,827
247,827
247,828
247,828
248,828
248,828
248,828
248,828
248,828
248,828
248,828
248,829
249,829
249,829
249,829
249,829
249,830
249,830
249,830
249,830
250,830
250,830
250,830
250,830
251,830
251,830
251,830
251,830
251,830
251,830
252,830
252,831
252,831
252,831
252,831
252,831
252,832
252,832
252,832
252,832
252,832
252,832
252,832
252,832
252,832
252,832
252,832
252,832
251,832
251,832
251,832
251,832
250,832
250,832
250,832
250,832
249,832
249,832
249,832
249,832
248,833
248,833
248,833
248,833
248,833
248,833
247,833
247,833
247,833
247,833
247,833
247,833
247,833
247,833
247,833
247,833
247,833
247,833
247,834
247,834
247,834
247,834
247,834
246,834
246,834
246,834
246,835
246,835
246,835
246,835
246,835
246,835
246,835
246,835
246,835
246,835
246,835
246,836
246,836
246,836
246,836
246,836
246,836
246,837
246,837
246,837
246,837
246,837
246,837
246,837
246,838
246,838
246,838
245,838
245,838
245,838
245,838
245,838
245,838
244,838
244,838
244,838
244,838
244,838
244,838
243,837
243,837
243,837
243,837
243,837
243,837
242,837
242,837
242,837
242,837
242,837
241,837
241,837
241,837
241,837
241,837
241,837
241,837
241,837
240,837
240,837
240,837
240,837
240,837
240,837
240,837
240,837
240,837
240,837
240,837
239,837
239,837
239,837
239,837
239,837
239,837
239,837
239,837
239,837
239,837
239,837
239,837
239,837
239,837
239,837
239,837
239,837
239,837
239,837
239,837
239,838
239,838
239,838
240,838
240,838
240,838
240,838
239,838
239,838
239,838
239,838
239,838
239,838
239,838
239,838
240,838
240,838
240,838
240,838
240,838
240,838
240,838
240,838
240,838
241,838
241,838
241,838
241,838
241,838
241,838
241,838
241,838
241,838
242,838
242,838
242,838
242,838
242,838
242,838
242,838
242,838
242,838
242,838
242,838
242,838
242,839
242,839
242,839
242,839
242,839
242,839
242,839
242,839
242,840
242,840
242,840
242,840
242,840
242,840
242,840
242,840
242,841
242,841
242,841
242,841
242,841
242,841
243,841
243,841
243,841
243,841
243,842
243,842
243,842
244,842
244,842
244,842
244,842
244,841
244,841
244,841
245,841
245,841
245,841
245,841
245,842
246,842
246,842
246,842
246,842
247,842
247,842
247,842
247,843
247,843
248,843
248,843
248,843
248,843
248,843
248,844
248,844
248,844
248,844
248,844
248,844
248,844
248,844
248,844
248,844
248,844
248,845
249,845
249,845
249,845
249,845
249,845
249,845
249,846
249,846
249,846
249,846
249,846
249,847
249,847
249,847
249,847
249,847
249,847
249,847
249,847
249,847
249,847
249,847
249,847
249,847
249,847
249,847
249,847
249,847
249,848
249,848
249,848
249,848
249,848
249,848
249,848
249,848
249,848
249,848
249,848
249,849
249,849
249,849
249,849
249,849
248,849
248,849
248,849
248,849
248,849
247,849
247,849
247,849
247,850
247,850
247,850
247,850
246,850
246,850
246,850
246,850
246,851
246,851
246,851
246,851
246,851
246,851
246,851
245,851
245,851
245,851
245,851
245,851
245,851
245,851
245,851
245,851
245,852
245,852
245,852
245,852
245,852
245,852
245,852
245,852
245,852
245,853
244,853
244,853
244,853
244,853
244,853
244,853
244,853
244,853
244,853
244,853
244,853
243,853
243,853
243,853
243,853
243,853
243,853
242,853
242,853
242,853
242,853
242,853
242,853
242,853
242,853
241,853
241,853
241,853
241,853
241,853
241,853
241,853
241,853
241,854
240,854
240,854
240,854
240,854
240,854
240,854
240,854
240,854
240,854
239,854
239,854
239,854
239,854
239,854
239,854
239,854
239,854
239,854
239,854
239,854
239,854
239,854
239,854
239,854
238,854
238,854
238,854
238,854
238,854
238,854
238,854
238,855
238,855
238,855
238,855
238,855
238,855
238,855
238,855
238,855
238,855
238,855
238,855
238,856
238,856
238,856
238,856
238,856
238,856
237,857
237,857
237,857
237,857
237,857
237,857
237,857
236,857
236,857
236,857
236,857
236,857
235,857
235,857
235,857
235,857
235,858
235,858
235,858
235,858
235,858
234,858
234,858
234,858
234,858
234,858
234,858
234,858
234,858
233,858
233,858
233,858
233,858
233,859
233,859
233,859
233,859
233,859
233,859
233,859
234,859
234,860
234,860
234,860
234,860
234,860
234,860
234,860
234,860
234,861
234,861
234,861
234,861
234,861
234,861
234,862
234,862
234,862
234,862
234,862
234,863
234,863
235,863
234,863
234,863
234,864
234,864
234,864
234,864
234,864
234,865
234,865
234,865
234,865
233,865
233,865
233,866
233,866
233,866
233,866
233,866
233,867
233,867
233,867
233,867
233,867
233,867
233,867
232,867
232,867
232,867
232,867
232,867
232,868
232,868
232,868
232,868
232,869
232,869
232,869
232,869
232,869
232,870
232,870
232,870
232,870
232,870
232,870
232,870
232,870
232,870
232,870
231,871
231,871
231,871
231,871
231,871
231,871
231,871
231,871
231,871
231,871
231,872
231,872
231,872
231,872
230,872
230,872
230,872
230,872
230,872
230,872
230,872
230,872
230,872
230,873
229,873
229,873
229,873
229,873
228,873
228,874
228,874
228,874
228,874
228,874
228,874
228,874
228,874
227,874
227,874
227,874
227,874
227,874
227,874
227,874
227,874
227,874
226,874
226,874
226,874
226,874
226,874
226,874
226,874
226,874
226,874
226,875
226,875
226,875
226,875
226,875
226,875
226,875
225,875
225,875
225,875
225,875
225,875
225,875
225,876
225,876
225,876
225,876
225,876
225,876
224,876
224,876
224,876
224,876
224,876
224,877
224,877
224,877
224,877
224,877
224,877
223,877
223,877
223,876
223,876
223,876
223,876
223,876
222,876
222,876
222,876
222,876
222,876
221,876
221,876
221,876
221,876
220,876
220,876
220,877
220,877
219,877
219,877
219,877
219,877
219,878
218,878
218,878
218,878
218,878
218,878
218,878
218,879
217,879
217,879
217,879
217,879
217,879
217,879
217,879
217,879
217,879
217,879
217,880
217,880
217,880
216,880
216,880
216,880
216,880
216,880
216,880
216,880
216,880
216,880
216,880
216,880
216,880
216,880
215,880
215,880
215,880
215,880
215,880
215,880
214,880
214,880
214,880
214,880
214,880
213,880
213,880
213,880
213,880
212,880
212,880
212,880
212,880
212,880
212,880
212,880
212,880
212,880
211,880
211,880
211,880
211,880
211,880
211,880
211,880
211,880
210,880
210,880
210,880
210,880
210,880
209,880
209,880
209,880
209,880
209,880
209,880
209,880
209,880
209,880
209,880
209,880
209,880
209,880
209,880
209,880
209,880
209,880
209,880
209,880
208,880
208,880
208,880
209,880
209,880
209,880
209,880
209,880
209,880
209,880
209,880
209,880
209,880
209,880
209,880
210,880
210,880
210,880
210,880
210,880
210,881
210,881
210,881
210,881
210,881
211,881
211,881
211,881
211,881
211,881
211,881
211,881
211,881
211,880
211,880
211,880
212,880
212,880
212,880
212,880
212,880
212,879
212,879
212,879
212,879
212,879
212,879
212,879
212,879
212,879
213,879
213,879
213,879
213,879
213,879
213,879
213,879
213,879
214,879
214,879
214,879
214,879
214,879
214,880
214,880
215,880
215,880
215,880
215,880
215,880
215,880
215,880
215,880
215,881
215,881
215,881
215,881
215,881
215,881
215,881
215,881
215,881
215,882
215,882
215,882
215,882
215,882
215,882
215,882
215,883
215,883
215,883
215,883
215,883
215,883
215,883
214,884
214,884
214,884
214,884
214,884
214,884
214,884
214,885
214,885
214,885
214,885
214,886
214,886
214,886
214,886
214,886
214,886
214,887
214,887
214,887
214,887
214,887
214,887
214,887
214,887
214,887
214,887
214,887
215,887
215,888
215,888
215,888
215,888
215,888
215,888
215,888
215,888
215,889
216,889
216,889
216,889
216,889
216,889
216,889
216,889
216,889
217,889
217,889
217,889
217,889
217,889
217,889
217,889
217,889
217,889
217,889
217,889
217,889
217,889
217,889
217,889
218,889
218,889
218,889
218,889
218,889
218,889
218,889
218,889
218,889
218,889
218,889
218,889
218,889
219,890
219,890
219,890
219,890
219,890
219,890
219,890
220,890
220,890
220,891
220,891
220,891
220,891
220,891
220,891
220,892
220,892
221,892
221,892
221,892
221,893
221,893
221,893
221,893
221,893
221,893
221,893
221,893
221,893
221,893
221,893
221,893
221,893
221,894
220,894
220,894
220,894
220,894
220,894
220,894
220,894
220,895
220,895
220,895
220,895
220,895
220,895
220,895
220,895
220,895
220,895
220,895
220,895
220,895
220,895
219,895
219,895
219,895
219,895
219,895
219,895
219,895
219,895
219,895
219,895
218,895
218,895
218,896
218,896
217,896
217,896
217,896
217,896
217,896
217,897
217,897
217,897
217,897
217,897
217,898
217,898
217,898
217,898
217,898
217,898
217,899
217,899
217,899
217,899
217,899
217,900
217,900
217,900
218,900
218,900
218,900
218,900
218,900
218,900
218,900
218,900
218,900
218,901
218,901
218,901
218,901
218,902
218,902
218,902
218,902
218,903
218,903
218,903
218,903
218,903
217,903
217,904
217,904
217,904
217,904
217,904
217,904
216,904
216,904
216,905
216,905
216,905
216,905
216,905
216,905
216,905
215,905
215,905
216,905
216,905
216,906
216,906
216,906
216,906
216,906
216,906
216,906
216,906
216,906
216,906
216,907
216,907
216,907
216,907
216,907
216,907
216,907
216,907
216,908
216,908
216,908
216,908
216,908
216,908
216,908
216,908
216,908
216,908
216,908
215,908
215,908
215,907
215,907
214,907
214,907
214,907
214,907
214,907
214,907
214,907
213,907
213,907
213,907
213,906
213,906
213,906
213,906
213,906
213,906
212,906
212,906
212,906
212,906
212,906
212,906
212,906
211,905
211,905
211,905
211,905
211,905
211,905
210,905
210,905
210,905
210,905
210,905
210,905
210,905
210,905
210,905
210,905
210,905
210,905
210,905
210,905
210,905
210,905
210,905
209,905
209,905
209,905
209,905
209,905
209,905
209,905
209,905
209,905
208,905
208,905
208,905
208,905
208,905
208,905
208,905
207,905
207,905
207,906
207,906
207,906
207,906
207,906
206,906
206,906
206,906
206,906
206,907
206,907
206,907
206,907
206,907
206,907
205,907
205,907
205,907
205,907
205,907
205,907
205,907
205,907
205,907
205,908
205,908
205,908
204,908
204,908
204,908
204,908
204,909
204,909
204,909
204,909
204,909
204,909
204,909
204,910
204,910
204,910
204,910
203,910
203,910
203,910
203,911
203,911
202,911
202,911
202,911
202,911
201,911
201,911
201,911
200,911
200,911
200,911
200,911
199,911
199,912
199,911
199,911
199,911
199,911
199,911
199,911
199,911
199,911
199,911
199,911
199,911
199,911
199,911
198,911
198,911
198,911
198,911
198,911
198,911
198,911
197,911
197,911
197,911
197,911
196,911
196,912
196,912
195,912
195,912
195,912
195,912
195,912
195,912
194,912
194,912
194,913
194,913
194,913
194,913
194,913
194,913
194,913
194,913
194,914
194,914
194,914
194,914
194,914
194,914
194,914
194,914
194,914
194,915
194,915
194,915
194,915
194,915
194,915
194,915
194,915
194,915
194,915
194,915
194,916
194,916
194,916
194,916
193,916
193,916
193,916
193,916
193,917
193,917
193,917
193,917
193,917
193,917
193,917
193,917
193,917
193,918
193,918
193,918
193,918
193,919
193,919
192,919
192,919
192,920
192,920
192,920
192,920
192,920
192,920
191,920
191,921
191,921
191,921
191,921
191,921
191,921
191,921
191,922
191,922
191,922
191,922
191,922
192,922
192,923
192,923
192,923
192,923
192,923
192,923
192,923
192,923
192,924
192,924
192,924
192,924
192,924
192,924
192,924
192,924
192,925
192,925
192,925
192,925
192,925
192,925
192,926
192,926
192,926
192,926
192,926
192,927
192,927
192,927
192,927
192,928
192,928
192,928
192,928
192,928
192,928
192,928
192,928
192,929
192,929
192,929
192,929
192,929
191,929
191,929
191,929
191,929
191,929
191,930
191,930
191,930
191,930
191,930
191,930
191,930
190,930
190,930
190,930
190,930
190,930
189,930
189,930
189,930
189,930
189,931
189,931
188,931
188,931
188,931
188,931
188,931
188,931
188,931
188,931
187,931
187,931
187,932
187,932
187,932
187,932
187,932
187,932
187,932
187,932
187,932
187,932
187,932
187,933
187,933
186,933
186,933
186,933
186,933
186,933
186,933
186,933
186,934
186,934
186,934
186,934
186,934
186,934
186,934
186,934
186,934
186,934
186,934
186,934
186,934
186,934
186,934
186,935
186,935
186,935
186,935
186,935
186,935
186,935
186,935
186,935
186,936
186,936
186,936
186,936
186,936
186,936
186,936
187,936
187,936
187,936
187,936
187,936
187,936
187,936
187,936
187,936
187,936
187,936
187,936
187,936
187,936
187,936
188,936
188,936
188,936
188,936
188,936
188,936
189,936
189,936
189,936
189,936
189,936
189,936
189,936
189,936
189,936
189,936
189,937
189,937
190,937
190,937
190,937
190,937
190,937
190,937
190,938
190,938
190,938
190,938
190,938
190,938
190,938
190,939
190,939
190,939
190,939
190,939
190,939
190,939
190,940
190,940
190,940
190,940
190,940
190,940
190,940
190,940
190,940
190,940
190,940
190,940
190,940
190,940
190,940
190,940
190,940
190,940
190,940
190,940
190,940
190,941
189,941
189,941
189,941
189,941
189,941
189,941
189,941
188,941
188,941
188,941
188,941
188,941
188,941
188,941
187,941
187,941
187,941
187,942
187,942
187,942
187,942
187,942
186,942
186,942
186,942
186,942
186,942
186,942
185,942
185,942
185,942
185,942
185,942
185,942
184,942
184,943
184,943
184,943
184,943
184,943
183,943
183,943
183,943
183,943
183,943
183,943
183,943
183,944
183,944
183,944
183,944
183,944
182,944
182,944
182,944
182,944
182,944
182,944
182,944
182,944
182,944
182,944
182,945
182,945
182,945
182,945
182,945
182,945
182,945
182,945
182,945
181,946
181,946
181,946
181,946
181,946
181,946
181,946
181,947
181,947
181,947
181,947
181,947
180,947
180,947
180,947
180,947
180,948
180,948
180,948
180,948
180,948
180,949
180,949
180,949
180,949
180,950
179,950
179,950
179,950
179,950
179,950
179,949
179,949
179,949
179,949
179,949
179,949
179,949
179,948
179,948
179,948
178,948
178,948
178,948
178,948
178,947
178,947
178,947
178,947
178,947
178,947
178,947
178,947
178,947
178,947
178,947
178,947
178,947
178,947
177,947
177,947
177,947
177,947
177,947
177,947
177,947
176,947
176,947
176,947
176,947
176,947
176,947
176,947
176,947
176,947
176,947
176,947
176,947
176,947
175,947
175,947
175,947
175,947
175,947
175,947
175,947
174,947
174,947
174,947
174,947
174,947
174,946
174,946
173,946
173,946
173,946
173,946
173,946
173,945
173,945
173,945
173,945
173,944
173,944
174,944
174,944
174,943
174,943
174,943
174,943
174,943
174,943
174,942
174,942
174,942
174,942
174,942
174,942
174,942
174,942
174,942
175,942
175,942
175,942
175,942
175,942
175,942
175,942
175,942
175,942
175,942
176,942
176,942
176,942
176,942
176,942
176,942
177,943
177,943
177,943
177,943
177,943
177,943
177,943
177,943
177,943
177,943
177,943
177,943
177,943
177,943
177,942
177,942
177,942
177,942
177,942
177,942
177,942
177,942
177,942
177,942
177,942
177,941
177,941
177,941
177,941
177,941
177,940
177,940
177,940
177,940
177,940
177,940
178,940
178,940
178,940
178,940
178,940
178,940
178,940
178,940
178,940
178,940
179,940
179,940
179,940
179,940
179,940
179,940
179,940
179,940
179,939
179,939
179,939
179,939
179,939
179,939
179,939
179,939
179,939
179,938
179,938
179,938
179,938
179,938
179,938
179,937
179,937
179,937
179,937
179,937
179,937
179,937
179,936
179,936
179,936
179,936
179,936
179,936
179,936
179,936
179,935
179,935
178,935
178,935
178,935
178,935
178,935
178,935
178,935
178,935
178,934
178,934
178,934
178,934
178,934
178,934
178,934
178,934
178,934
178,933
178,933
178,933
178,933
178,932
178,932
178,932
178,932
178,932
178,932
178,932
178,932
177,932
177,932
177,932
177,932
177,932
177,932
177,932
177,932
177,932
177,932
176,932
176,931
176,931
176,931
176,931
176,931
176,931
176,931
176,931
176,931
176,931
175,931
175,931
175,931
175,931
175,930
175,930
175,930
175,930
175,930
175,930
175,929
174,929
174,929
174,929
174,929
174,928
174,928
174,928
173,928
173,928
173,928
173,928
173,927
172,927
172,927
172,927
172,927
172,927
172,926
172,926
172,926
172,926
172,926
172,925
172,925
172,925
172,925
173,925
173,925
173,925
173,925
173,925
174,924
174,924
174,924
174,924
174,924
174,924
175,925
175,925
175,925
175,925
175,925
175,925
175,925
175,925
176,925
176,925
176,925
176,925
176,925
176,925
176,925
176,925
176,924
176,924
176,924
177,924
177,924
177,924
177,924
177,924
177,924
177,924
178,924
178,924
178,924
178,924
178,924
178,924
177,924
177,924
177,923
177,923
177,923
177,923
178,923
178,923
178,923
178,922
178,922
178,922
178,922
179,922
179,922
179,921
179,921
179,921
179,921
179,921
179,921
179,921
179,920
180,920
180,920
180,920
180,920
180,920
180,920
180,920
181,920
181,920
181,920
181,920
181,920
181,920
181,920
181,920
182,920
182,920
182,920
182,920
182,920
182,920
182,920
182,920
182,920
182,920
182,920
183,920
183,920
183,920
183,920
183,920
183,920
183,920
183,920
184,920
184,920
184,919
184,919
184,919
184,919
184,919
184,919
185,919
185,919
185,919
185,919
185,919
185,919
186,919
186,919
186,919
186,919
186,919
186,919
186,919
187,919
187,919
187,919
187,918
187,918
187,918
187,918
187,918
187,918
187,918
187,918
188,918
188,918
188,918
188,918
188,918
188,918
188,918
188,918
188,918
189,918
189,918
189,918
189,918
189,918
190,918
190,918
190,918
190,918
190,918
190,918
190,918
190,917
191,917
191,917
191,917
191,917
191,917
191,917
191,917
191,917
191,917
191,917
191,917
192,916
192,916
192,916
192,916
192,916
192,916
192,916
192,916
192,916
192,916
192,916
192,916
193,916
193,916
193,916
193,916
193,916
193,916
193,916
193,916
194,916
194,916
194,916
194,916
194,916
194,916
194,916
195,916
195,916
195,916
195,916
195,916
195,916
196,916
196,916
196,916
196,916
196,916
196,916
196,917
196,917
196,917
196,917
196,917
197,917
197,917
197,917
197,916
198,916
198,916
198,916
198,916
198,916
199,916
199,916
199,916
199,916
200,916
200,916
200,916
200,916
200,916
201,916
201,916
201,916
201,916
201,916
201,916
201,916
201,916
201,916
201,915
201,915
201,915
201,915
201,915
201,915
201,915
201,915
201,915
201,915
201,915
201,915
201,915
201,915
201,915
201,914
201,914
201,914
201,914
201,914
201,914
201,914
201,913
202,913
202,913
202,913
202,913
202,913
202,913
202,913
202,913
202,913
202,913
203,913
203,913
203,913
203,913
203,913
203,913
203,913
203,913
203,913
203,912
204,912
204,912
204,912
204,912
204,912
204,912
204,911
204,911
205,911
205,911
205,911
205,911
205,910
205,910
205,910
205,910
205,910
205,910
205,909
205,909
205,909
206,909
206,909
206,909
206,909
206,909
206,909
206,909
206,909
207,909
207,909
207,909
207,909
207,909
208,908
208,908
208,908
208,908
208,908
208,908
208,907
209,907
209,907
209,907
209,907
209,906
209,906
209,906
209,906
209,906
209,906
209,906
209,906
209,905
209,905
209,905
209,905
209,905
209,905
209,905
209,905
209,905
209,905
210,905
210,905
210,904
210,904
210,904
210,904
210,904
210,904
210,904
210,904
210,904
210,904
210,904
210,904
210,904
211,904
211,904
211,904
211,904
211,904
211,904
211,904
211,904
211,904
211,904
211,904
211,904
211,904
211,904
211,903
211,903
211,903
211,903
211,903
211,903
211,903
211,903
211,903
211,903
211,902
211,902
211,902
211,902
211,902
211,902
211,902
211,902
211,902
211,901
210,901
210,901
210,901
210,900
210,900
210,900
209,900
209,900
209,900
209,899
209,899
209,899
209,899
209,899
209,899
209,898
209,898
209,898
209,898
209,898
209,898
209,898
209,898
209,898
209,898
209,898
209,898
209,898
209,897
209,897
209,897
209,897
209,897
209,897
209,897
209,897
209,897
209,897
209,897
210,897
210,896
210,896
210,896
210,896
210,896
210,896
210,895
210,895
210,895
210,895
210,895
210,895
210,895
210,895
209,895
209,894
209,894
209,894
209,894
209,894
209,894
209,894
209,894
209,893
209,893
209,893
209,893
210,893
210,893
210,893
210,893
210,893
210,893
210,893
210,893
210,893
210,893
210,893
211,893
211,893
211,893
211,893
211,893
211,893
211,893
211,893
211,894
211,893
211,893
212,893
212,893
212,893
212,893
212,893
212,892
212,892
212,892
212,892
212,892
212,892
212,892
212,892
213,892
213,892
213,892
213,891
213,891
213,891
213,891
213,891
213,891
214,891
214,891
214,891
214,891
214,891
214,891
214,890
214,890
214,890
215,890
215,890
215,890
215,890
215,890
215,890
215,890
215,890
216,890
216,890
216,889
216,889
216,889
216,889
217,889
217,889
217,889
217,889
217,889
217,888
217,888
217,888
217,888
218,887
218,887
218,887
218,887
218,887
218,887
218,887
218,887
218,887
219,887
219,887
219,887
219,887
219,887
219,887
219,886
219,886
220,886
220,886
220,886
220,886
220,886
220,886
221,886
220,886
220,886
220,885
220,885
220,885
220,885
220,884
220,884
220,884
220,884
220,884
220,884
220,883
220,883
220,883
220,883
220,883
220,883
220,883
220,883
219,883
219,883
219,883
219,883
219,883
219,882
218,882
218,882
218,882
218,882
218,882
218,882
218,882
218,882
217,882
217,882
217,882
217,882
217,882
217,881
217,881
217,881
217,881
217,881
217,881
217,880
217,880
217,880
217,880
217,880
217,879
217,879
217,879
217,879
216,879
216,879
216,878
216,878
216,878
216,878
216,878
216,878
216,877
215,877
215,877
215,877
215,877
215,877
215,877
215,877
215,877
215,877
215,877
215,877
215,877
215,877
215,877
215,877
215,877
215,877
215,876
215,876
215,876
215,876
215,876
215,876
215,876
215,876
215,876
215,876
215,875
215,875
215,875
215,875
215,875
215,875
216,874
216,874
216,874
216,874
216,874
216,874
216,874
216,873
216,873
216,873
216,873
216,873
216,873
216,873
216,872
216,872
216,872
216,872
216,872
217,872
217,872
217,872
217,871
217,871
217,871
217,871
218,871
218,871
218,871
219,871
219,871
219,871
219,871
220,871
220,871
220,871
220,871
220,872
220,872
221,872
221,872
221,872
221,872
221,872
221,872
222,872
222,871
222,871
222,871
223,871
223,870
223,870
223,870
223,870
224,869
224,869
224,869
224,869
224,869
224,869
224,869
224,868
224,868
224,868
224,868
224,868
224,868
224,867
224,867
224,867
224,867
224,866
224,866
224,866
224,866
224,866
224,866
224,865
224,865
224,865
224,865
224,865
224,865
223,865
223,865
223,864
223,864
223,864
223,864
223,864
223,864
223,864
223,864
223,863
223,863
223,863
223,863
223,863
223,863
223,862
223,862
223,862
222,862
222,862
222,861
222,861
222,861
222,861
222,861
222,861
222,860
222,860
222,860
222,860
222,860
222,859
222,859
222,859
222,859
222,858
222,858
222,858
222,858
221,858
222,857
222,857
222,857
222,857
222,857
222,856
222,856
222,856
222,856
222,855
223,855
223,855
223,855
223,855
223,855
223,854
224,854
224,854
224,854
224,854
224,854
224,854
224,854
224,854
224,854
224,853
224,853
224,853
225,853
225,853
225,853
225,853
225,853
225,853
225,852
225,852
225,852
225,852
225,852
225,852
225,852
225,851
225,851
225,851
224,851
224,851
224,851
224,851
224,851
224,851
224,851
224,851
223,851
223,851
223,851
223,851
223,851
223,851
223,851
223,851
223,850
223,850
223,850
223,850
224,850
224,850
224,850
224,850
224,850
224,849
224,849
224,849
225,849
225,849
225,849
225,849
225,849
225,850
225,850
226,850
226,850
226,849
226,849
226,849
226,849
226,849
226,849
226,849
226,849
226,849
226,849
226,849
226,849
226,849
226,849
227,849
227,849
227,849
227,849
227,849
227,849
227,849
227,848
227,848
227,848
227,848
226,848
226,848
226,847
226,847
226,847
226,847
226,846
226,846
226,846
226,846
226,845
226,845
226,845
226,845
225,845
225,844
225,844
225,844
225,844
225,844
225,844
224,844
224,844
224,844
224,844
224,844
224,843
224,843
224,843
224,843
223,843
223,843
223,843
223,842
223,842
223,842
223,842
224,842
224,841
224,841
224,841
224,841
224,841
224,840
224,840
224,840
225,840
225,840
225,840
225,840
225,840
225,839
225,839
225,839
226,839
226,839
226,839
226,839
226,839
226,839
227,839
227,839
227,838
227,838
227,838
227,838
227,838
227,838
227,838
227,838
227,838
227,838
227,837
227,837
227,837
227,837
227,837
227,837
227,837
226,837
226,837
226,837
226,836
226,836
226,836
226,836
226,836
226,836
226,836
226,836
226,836
226,836
226,835
226,835
226,835
226,835
226,834
225,834
225,834
225,833
225,833
225,833
225,832
224,832
224,832
224,832
224,832
224,832
224,831
224,831
224,831
224,831
224,831
224,831
224,831
224,831
224,830
224,830
224,830
224,830
224,830
224,830
224,830
225,830
224,830
224,830
224,830
224,830
224,829
224,829
224,829
224,829
224,829
224,829
225,829
225,829
225,829
225,828
225,828
225,828
225,828
225,828
226,827
226,827
226,827
226,827
226,827
226,827
226,827
226,827
227,827
227,827
227,827
227,827
227,827
227,827
227,826
227,826
227,826
227,826
227,826
227,826
227,825
227,825
227,825
227,825
227,825
227,825
227,825
227,825
227,825
227,825
227,825
227,825
227,825
227,825
227,825
227,825
228,825
228,825
228,825
228,825
228,825
228,825
228,825
228,825
229,825
229,825
229,825
229,825
229,825
229,825
229,825
229,825
229,825
229,825
229,825
229,825
230,825
230,825
230,825
230,825
230,824
230,824
230,824
230,824
230,824
230,824
230,824
230,824
230,824
230,824
230,824
230,824
230,824
230,824
230,825
230,825
230,825
230,825
231,825
231,825
231,825
231,825
231,825
231,825
231,825
231,825
231,825
231,825
231,825
231,824
231,824
232,824
232,824
232,824
232,824
232,824
232,824
232,824
232,824
233,824
233,824
233,824
233,824
233,824
233,824
233,824
233,824
233,824
234,824
234,824
234,824
234,824
234,824
234,824
234,824
235,824
235,824
235,824
235,824
235,824
236,824
236,824
236,824
236,824
236,824
236,824
236,824
236,824
236,824
236,823
237,823
237,823
237,823
237,823
237,823
237,823
237,823
237,823
237,823
237,823
237,823
237,824
237,823
237,823
237,823
237,823
237,823
237,823
237,823
237,823
237,822
237,822
237,822
237,822
237,822
237,822
237,822
237,821
237,821
237,821
237,821
237,821
237,821
236,821
236,821
236,821
236,821
236,821
236,821
236,820
236,820
236,820
236,820
236,821
236,821
236,821
235,821
235,821
235,821
235,821
235,821
235,821
235,821
235,821
235,821
234,821
234,821
234,821
234,821
234,821
234,821
234,821
234,821
234,821
234,822
234,822
234,822
234,822
234,822
234,822
234,822
234,822
234,822
234,822
234,822
234,822
234,822
234,822
234,822
234,822
234,822
234,822
234,822
234,822
234,822
234,822
234,822
234,821
234,821
234,821
234,821
234,821
234,821
234,821
234,821
234,820
234,820
234,820
234,820
234,820
234,820
234,820
234,819
234,819
234,819
234,819
234,818
234,818
234,818
234,818
234,818
234,817
234,817
234,817
235,817
235,817
235,816
235,816
235,816
235,816
235,816
236,816
236,816
236,816
236,815
236,815
236,815
236,815
236,815
236,815
235,815
235,815
235,815
235,814
235,814
235,814
235,814
235,814
235,814
235,814
235,814
235,814
235,814
235,814
235,814
235,814
234,814
234,814
234,813
234,813
234,813
234,813
234,813
234,813
234,813
234,813
234,813
234,813
234,813
234,813
234,812
234,812
234,812
234,812
234,812
234,812
234,811
234,811
234,811
234,811
234,811
234,811
234,811
234,810
235,810
235,810
235,810
235,810
235,810
235,810
235,810
235,810
235,810
235,810
235,810
235,810
235,810
235,810
236,810
236,810
236,810
236,810
236,809
236,809
236,809
236,809
236,809
236,809
236,809
236,809
237,809
237,809
237,809
237,809
237,808
237,808
237,808
237,808
237,808
237,807
237,807
237,807
237,807
237,807
236,807
236,807
236,807
236,806
236,806
235,806
235,806
235,806
235,806
235,806
235,805
236,805
236,805
236,804
236,804
236,804
236,803
236,803
236,803
236,803
236,803
236,803
236,803
236,803
236,802
236,802
236,802
236,802
236,802
236,802
236,802
236,802
236,802
236,802
236,802
236,802
236,802
236,802
236,802
236,801
236,801
236,801
236,801
236,800
236,800
236,800
236,800
236,799
236,799
236,799
236,799
236,799
236,799
236,799
236,799
236,799
236,799
236,799
236,799
236,798
236,798
236,798
236,798
236,798
237,798
237,797
237,797
237,797
237,797
237,797
237,796
237,796
237,796
237,796
237,796
237,795
237,795
237,795
237,795
237,795
237,795
237,795
237,794
237,794
237,794
237,794
237,794
237,794
237,794
237,794
236,793
236,793
236,793
236,793
236,793
236,793
236,793
236,793
236,792
236,792
236,792
236,792
236,792
237,792
237,792
237,791
237,791
237,791
237,791
237,791
237,791
237,791
237,790
237,790
237,790
237,790
237,790
236,790
237,790
237,789
237,789
237,789
237,789
237,789
237,789
237,789
237,789
237,789
237,789
237,788
237,788
237,788
237,788
237,788
237,788
237,788
237,788
237,788
237,788
237,788
237,788
237,788
237,787
237,787
237,787
237,787
237,787
237,787
237,787
237,786
237,786
237,786
237,786
237,786
236,786
236,786
236,785
236,785
236,785
236,785
236,785
236,785
236,785
236,785
236,785
236,785
236,784
236,784
236,784
235,784
235,784
235,784
235,784
235,784
235,784
235,784
234,783
234,783
234,783
234,783
234,783
234,783
234,782
234,782
234,782
234,782
234,782
234,781
234,781
234,781
234,781
234,781
234,781
234,781
234,781
234,781
234,781
234,781
234,781
234,781
234,781
234,781
234,781
234,781
234,781
234,781
234,781
234,781
233,780
233,780
233,780
233,780
233,780
233,780
233,780
233,780
233,780
233,780
233,780
233,780
233,780
233,780
233,780
233,779
233,779
233,779
233,779
233,779
233,779
233,779
233,779
234,779
234,779
234,779
234,778
234,778
234,778
234,778
234,778
234,778
234,778
234,778
234,777
234,777
234,777
234,777
234,777
234,777
234,777
234,776
234,776
234,776
234,776
234,776
234,776
234,776
234,776
234,776
234,775
234,775
234,775
234,775
234,775
234,774
234,774
234,774
234,774
234,774
234,774
234,773
234,773
234,773
234,773
234,773
234,773
234,773
233,773
233,773
233,773
233,773
233,772
233,772
233,772
233,772
232,772
232,772
232,772
232,772
232,772
232,772
232,772
232,772
232,772
232,772
232,771
232,771
232,771
232,771
232,771
232,771
232,771
232,771
232,770
232,770
232,770
232,770
232,770
232,770
232,770
232,770
232,769
232,769
232,769
232,769
232,769
232,769
232,769
232,769
232,768
232,768
232,768
232,768
232,768
232,768
232,768
232,768
232,768
232,768
232,768
232,768
232,768
233,768
233,768
233,768
233,768
233,768
233,768
233,768
234,768
234,768
234,768
234,768
234,768
235,768
235,768
235,767
235,767
235,767
235,767
236,767
236,767
236,767
236,767
236,766
236,766
236,766
237,766
237,766
237,766
237,765
237,765
237,765
237,765
237,764
237,764
237,764
237,764
237,764
237,763
237,763
237,763
237,763
237,763
237,763
237,763
237,763
237,762
237,762
237,762
237,762
237,762
237,762
237,761
237,761
237,761
236,761
236,761
236,761
236,760
236,760
236,760
236,760
236,760
236,760
236,759
236,759
236,759
236,759
236,759
236,759
236,759
236,759
236,759
236,759
236,758
236,758
236,758
236,758
236,758
236,758
236,758
236,758
237,758
237,758
237,758
237,758
237,758
237,758
237,758
237,758
237,758
237,758
238,758
238,758
238,758
238,758
238,759
238,759
238,759
239,759
239,759
239,759
239,759
239,759
239,759
239,759
240,759
240,759
240,759
240,759
240,759
240,759
240,759
240,759
241,759
241,759
241,758
241,758
241,758
241,758
241,758
241,758
241,758
241,758
241,758
241,758
241,758
241,758
241,758
241,757
241,757
241,757
241,757
241,757
241,756
241,756
241,756
241,756
241,756
241,756
241,755
241,755
241,755
241,755
241,755
241,755
241,755
241,755
241,755
241,755
241,754
241,754
241,754
241,754
241,754
241,754
241,754
241,753
241,753
241,753
241,753
240,753
240,753
240,753
240,753
240,753
240,752
240,752
240,752
240,752
240,752
240,752
240,752
240,752
240,752
239,752
239,752
239,752
239,752
239,752
239,752
239,752
239,752
238,752
238,752
238,751
238,751
238,751
238,751
237,752
237,752
237,752
237,752
236,752
236,752
236,752
236,752
235,752
235,752
235,752
235,752
235,752
235,752
235,752
235,752
235,752
235,752
235,752
235,752
235,752
235,752
234,752
234,752
234,753
234,753
234,753
234,753
234,753
233,753
233,753
233,753
233,753
232,753
232,753
232,753
232,753
231,753
231,753
231,753
231,753
231,753
230,753
230,753
230,753
230,753
230,753
229,753
229,752
229,752
229,752
229,752
229,753
229,753
229,753
229,753
229,753
229,753
229,753
229,752
229,752
229,752
229,752
229,752
228,752
228,752
228,752
228,752
228,752
228,752
228,752
228,752
228,752
228,752
228,752
228,751
228,751
227,751
227,751
227,751
227,751
227,751
227,751
227,751
227,752
227,752
227,752
227,752
227,752
227,752
226,752
226,752
226,752
226,752
226,752
226,752
226,752
226,752
225,753
225,752
225,752
225,752
225,752
225,752
225,752
225,751
225,751
225,751
225,751
225,751
225,751
224,751
224,751
224,751
224,751
224,751
224,751
224,751
223,751
223,751
223,751
223,751
223,751
223,751
223,751
223,751
223,751
223,751
222,751
222,751
222,751
222,751
222,750
221,750
221,750
221,750
221,750
221,750
220,750
220,750
220,750
220,750
220,750
220,750
220,750
220,750
220,750
220,750
220,750
220,750
220,750
220,750
220,750
219,750
219,750
219,750
219,750
219,750
219,750
219,750
219,750
219,750
218,750
218,750
218,750
218,750
218,750
218,750
218,750
218,750
218,750
217,750
217,750
217,750
217,750
217,750
217,750
217,750
216,750
216,750
216,750
216,750
216,750
216,750
216,750
216,750
216,750
216,750
216,750
216,750
216,750
216,750
216,749
215,749
215,749
215,749
215,749
215,749
215,749
215,749
215,749
215,748
215,748
215,748
215,748
215,748
215,748
215,747
215,747
215,747
215,747
215,747
215,746
215,746
215,746
215,746
215,746
215,745
215,745
215,745
215,745
215,745
215,744
215,744
215,744
215,744
215,744
215,743
215,743
215,743
215,743
214,743
214,743
214,743
214,743
214,743
214,743
214,743
213,743
213,743
213,743
213,743
213,743
213,743
213,743
213,743
213,743
213,742
213,742
213,742
213,742
213,742
213,742
213,742
213,743
213,743
213,743
213,743
213,743
213,742
213,742
213,742
212,742
212,742
212,741
212,741
212,741
212,741
212,741
212,741
212,741
212,740
212,740
212,740
211,740
211,740
211,740
211,740
211,740
211,740
211,740
211,740
211,740
210,739
210,739
210,739
210,739
210,739
210,739
210,738
210,738
210,738
210,738
210,738
210,738
210,737
210,737
209,737
209,737
209,737
209,737
209,737
209,736
209,736
209,736
209,736
209,736
209,736
209,736
209,735
209,735
209,735
209,735
209,735
209,735
209,735
209,735
209,734
209,734
208,734
208,734
208,734
208,734
208,734
208,734
208,733
208,733
208,733
208,733
208,733
208,733
208,733
208,733
208,733
208,733
208,733
208,733
208,733
208,733
208,733
208,733
208,733
208,733
208,733
207,733
207,733
207,733
207,733
207,733
207,733
207,733
207,733
207,733
207,733
206,733
206,733
206,733
206,733
206,733
206,733
206,733
206,733
206,733
205,733
205,733
205,733
205,733
205,733
205,733
205,733
205,733
205,733
205,733
205,733
205,733
205,733
205,733
205,733
205,733
204,733
204,733
204,733
204,732
204,732
204,732
204,732
204,732
204,732
204,732
203,731
203,731
203,731
203,731
203,731
203,731
203,731
203,731
203,731
203,731
203,731
203,730
203,730
203,730
203,730
203,730
203,730
203,730
203,730
203,730
202,730
202,730
202,730
202,730
202,729
201,729
201,729
201,729
201,729
201,729
201,729
201,729
200,729
200,729
200,729
200,729
200,729
200,729
200,729
200,729
200,729
200,729
200,729
200,729
200,729
200,729
200,729
200,729
199,729
199,729
199,729
199,729
199,729
199,729
199,729
199,729
199,729
199,728
199,728
199,728
199,728
199,728
199,728
199,728
199,728
198,728
198,728
198,728
198,728
198,728
198,727
198,727
198,727
199,727
199,727
199,727
199,726
199,726
199,726
199,726
199,726
199,726
199,726
199,726
199,726
199,726
199,726
199,726
199,726
199,726
199,726
199,726
199,726
199,726
199,726
199,726
199,726
199,726
199,726
199,726
199,726
200,726
200,726
200,726
200,726
200,726
200,726
200,726
200,726
200,726
200,726
200,726
200,726
200,726
200,725
200,725
200,725
200,725
200,725
200,725
200,725
200,725
200,725
200,724
200,724
200,724
201,724
201,724
201,724
201,724
201,724
201,723
201,723
201,723
201,723
201,723
201,723
201,723
201,723
200,723
200,723
200,723
200,723
200,723
200,723
200,723
200,723
200,723
200,723
200,723
199,722
199,722
199,722
199,722
199,722
199,722
199,722
199,722
198,722
198,722
198,721
198,721
198,721
198,721
198,721
198,721
198,721
198,721
198,721
198,721
198,721
198,721
198,721
198,721
198,721
198,721
198,721
198,721
198,721
198,721
198,721
198,721
198,720
198,720
198,720
198,720
198,720
198,720
198,720
198,720
197,720
197,720
197,720
197,719
197,719
196,719
196,719
196,719
196,719
196,718
196,718
196,718
196,718
196,718
195,718
195,717
195,717
195,717
195,717
195,717
195,717
195,716
195,716
195,716
196,716
196,716
196,716
196,716
196,716
196,716
196,715
196,715
196,715
196,715
196,715
196,715
196,715
196,714
196,714
197,714
197,714
197,714
197,714
197,714
197,714
196,714
196,714
196,714
196,714
196,714
196,714
196,714
196,714
196,713
196,713
196,713
196,713
196,713
197,713
197,713
197,713
197,713
197,712
197,712
197,712
197,712
197,712
197,712
197,711
197,711
197,711
197,711
197,711
197,710
197,710
197,710
197,710
197,710
197,709
197,709
197,709
197,709
197,709
197,709
197,709
197,708
197,708
197,708
197,708
197,708
197,708
198,708
198,707
198,707
198,707
198,707
198,706
199,706
199,706
199,706
199,706
199,706
199,706
200,706
200,706
200,706
200,706
200,706
200,706
201,706
201,706
201,706
201,706
201,706
201,706
201,706
201,706
201,706
201,706
201,706
201,706
201,706
202,706
202,706
202,706
202,706
202,706
202,706
202,706
202,705
202,705
203,705
203,705
203,705
203,705
203,705
203,705
204,705
204,705
204,705
204,705
204,704
204,704
204,704
204,704
204,704
204,704
204,704
204,704
204,703
204,703
204,703
204,703
204,703
204,703
204,703
204,703
204,703
204,703
204,703
205,702
205,702
205,702
205,702
205,702
205,702
205,702
205,702
205,702
206,702
206,701
206,701
206,701
206,701
206,701
206,701
206,701
206,701
206,701
206,700
206,700
207,700
207,700
207,700
207,699
207,699
207,699
207,699
207,699
207,698
207,698
207,698
207,698
207,698
207,697
207,697
207,697
207,697
207,697
207,696
207,696
207,696
207,696
207,696
207,696
207,697
207,697
207,697
207,697
207,697
207,697
207,697
207,697
207,697
208,697
208,697
208,697
208,697
208,697
208,697
208,697
208,697
208,697
208,696
208,696
208,696
209,696
209,696
209,696
209,696
209,696
209,696
209,696
209,696
209,696
209,696
209,696
209,696
209,696
209,696
209,697
209,697
210,697
210,697
210,697
210,698
210,698
211,698
211,698
211,698
211,698
211,698
211,698
211,698
211,698
211,698
211,698
211,698
211,698
211,698
211,698
211,698
211,698
211,698
211,698
212,698
212,698
212,698
212,698
212,698
212,698
212,698
212,698
213,698
213,698
213,698
213,698
213,698
213,698
214,698
214,698
214,698
214,698
214,698
214,698
215,697
215,697
215,697
215,697
215,697
215,697
215,697
216,696
216,696
216,696
216,696
216,696
216,696
216,696
216,695
216,695
216,695
216,695
216,695
216,695
216,695
216,695
216,695
216,695
216,695
216,695
215,695
215,695
215,695
215,694
214,694
214,694
214,694
214,694
214,694
214,694
214,694
214,693
214,693
214,693
215,692
215,692
215,692
215,691
215,691
215,691
215,691
215,691
215,691
216,691
216,691
216,691
216,690
216,690
216,690
216,690
216,690
216,690
216,690
216,690
217,690
217,690
217,690
217,690
217,690
217,689
217,689
217,689
217,689
217,689
217,689
217,689
217,689
217,689
217,689
217,689
217,688
217,688
217,688
217,688
217,688
217,688
217,687
217,687
217,687
217,687
218,687
218,687
218,687
218,687
218,686
218,686
218,686
218,686
219,686
219,686
219,686
219,686
219,686
219,685
219,685
219,685
219,685
219,685
219,685
219,685
219,685
219,684
219,684
218,684
218,684
218,684
218,684
218,684
218,684
218,684
218,684
218,684
218,684
218,684
218,684
218,684
218,684
218,684
218,684
218,684
218,683
218,683
217,683
217,683
217,683
217,683
217,682
216,682
216,682
216,682
216,682
216,682
216,682
216,682
216,682
216,682
216,682
216,682
216,682
215,681
215,681
215,681
215,681
214,681
214,681
214,681
214,681
213,680
213,680
213,680
213,680
213,680
213,680
213,680
213,680
212,680
212,680
212,680
212,680
212,680
212,680
212,679
212,679
211,679
211,679
211,679
211,679
211,679
211,679
211,679
211,679
211,679
211,679
211,679
211,679
211,679
211,679
211,679
211,679
210,679
210,679
210,679
210,679
210,679
210,679
210,679
210,679
210,679
210,679
210,679
210,679
210,679
210,679
209,679
209,679
209,678
209,678
209,678
209,678
209,678
209,678
209,678
209,678
209,678
208,678
208,678
208,678
208,678
208,678
208,678
208,678
208,678
208,678
208,678
207,678
207,678
207,678
207,678
207,678
207,678
207,678
207,678
207,678
207,678
207,678
207,678
207,678
207,678
207,678
207,678
207,678
207,678
207,678
206,678
206,678
206,678
206,678
206,678
206,678
206,678
206,678
206,678
206,678
206,678
206,679
206,679
205,679
205,679
205,679
205,679
205,679
205,679
205,679
204,679
204,679
204,679
204,679
203,679
203,679
203,679
203,679
203,679
203,679
203,679
203,678
203,678
203,678
203,678
203,678
203,678
203,678
203,678
203,678
203,678
203,677
202,677
202,677
202,677
202,677
202,677
202,677
202,677
202,677
202,677
202,677
202,677
202,677
202,677
202,677
202,677
202,677
202,677
202,676
201,676
201,676
201,676
201,676
201,676
201,676
200,676
200,676
200,675
200,675
200,675
200,675
200,675
200,675
199,674
199,674
199,674
199,674
199,674
199,674
199,674
199,674
199,674
199,674
199,674
199,674
199,674
200,674
200,674
200,674
200,674
200,674
200,674
200,674
200,673
200,673
200,673
200,673
200,673
200,673
200,673
200,673
200,673
200,672
200,672
200,672
