2.000000,3.500000
1.918806,110.837224,129.619326,154.359296,119.630653,128.607143,85.746241,72.895349,94.542840,74.581481,98.092593
2.774305,387.466200,728.059441,375.715810,727.583073,329.069767,683.500000,359.145641,602.671091,422.358948,580.259100,439.785980,586.450282,468.317200,624.688000,469.130454,657.218160
2.199292,314.343356,18.313108,314.583008,17.943359,294.131086,-50.229713,281.691150,-47.409994,251.200149,-0.776699
3.548432,1133.644321,98.171938,1173.353230,125.826357,1130.908310,209.083700,1128.172148,208.597271,1078.371435,146.135359,1078.644242,130.994565
3.584254,1131.052326,326.074336,1093.109756,298.069106,1156.062701,242.110932
3.064897,226.584959,899.295469,187.640351,925.640351,178.251773,929.630496,132.368483,916.783175,132.699382,883.362465,149.979434,863.795347
2.432935,-200.909718,403.259685,-188.952659,463.564851,-100.142547,509.170043,-88.768895,458.367733,-138.751046,426.897490
2.887926,-209.222178,689.829913,-239.019481,690.746753,-234.504637,749.439722,-170.093951,736.294684
3.530642,1046.912621,88.872573,1123.500000,36.218750,1123.500000,-10.232283,1081.416098,-18.847885,1036.429192,28.592852
2.115297,-106.783634,127.723994,-93.408840,140.226519,-53.956116,148.256720,-22.029183,99.071984,-56.123457,16.271605
3.886150,698.659737,1115.183807,614.000000,1107.978723,588.887553,1076.454588,592.637816,1070.854194,679.450820,1024.002732,739.241410,1057.521700,738.876582,1072.601266
2.645630,227.381356,604.974576,249.162512,621.486098,253.400147,678.164471,187.352249,684.954442,166.180942,590.859743,189.405172,584.525862
3.415283,1011.077298,349.289933,1006.551282,350.551282,979.865953,364.282568,967.314928,409.466258,1064.438816,472.807924,1079.135912,463.375459,1078.304301,401.420406,1058.592362,383.441385
3.685886,142.376340,1147.332275,139.424870,1158.843005,-21.447821,1268.772677,-33.134934,1242.756146,-37.752863,1212.409757,-28.403456,1120.391914,45.038314,1046.177072
3.587003,1075.652174,-25.572464,1106.145598,-106.888262,1244.214769,-82.991675,1226.022963,-67.548270,1123.500000,-10.232283,1081.416098,-18.847885
3.604707,1077.769058,-170.159193,1015.750000,-117.000000,1022.566167,-84.778117,1083.541008,-114.730671,1089.429344,-147.852559
1.885267,110.837224,129.619326,74.581481,98.092593,67.928571,131.357143,106.500000,133.500000
2.123150,-71.975000,230.483333,-68.798246,242.484405,-91.320000,300.040000,-123.886277,318.649301,-124.161972,317.257042,-116.413043,260.108696
4.146363,760.385906,1089.808725,839.268544,1114.378727,850.854452,1093.567002,799.677060,1009.371938,776.340426,1010.744681,739.241410,1057.521700,738.876582,1072.601266
3.336541,962.834413,108.978937,1017.605227,182.993551,1078.371435,146.135359,1078.644242,130.994565,1046.396254,91.222046
3.809726,988.798932,829.058719,972.944050,891.036895,950.733944,891.392257,893.719528,855.236774,902.839573,815.876578,935.340722,764.908867
3.633203,-105.952943,1027.536608,-28.403456,1120.391914,-37.752863,1212.409757,-131.277288,1137.936604,-124.917002,1036.172028
3.850761,398.313953,1163.127907,363.117450,1155.795302,355.048387,1204.209677,410.384956,1187.269912
3.901865,915.933360,935.095315,850.781481,951.097531,830.006642,899.426776,890.843240,856.091117,893.719528,855.236774,950.733944,891.392257
3.145103,-99.362159,1001.539627,36.445228,974.011102,23.714063,941.014001,-17.481742,888.283370,-42.706799,895.317280,-107.715207,973.622862
2.751366,96.528986,700.586957,124.151163,783.453488,125.008475,783.906780,135.226054,788.191571,146.451941,698.384473
2.552002,56.623201,514.187976,48.162148,507.521692,-11.490178,522.250661,33.125000,574.625000,55.105769,567.298077
3.626639,677.680562,982.106641,609.997528,958.016069,592.637816,1070.854194,679.450820,1024.002732
4.008482,410.384956,1187.269912,484.192308,1215.738462,526.667265,1334.668342,523.505898,1766.194906,447.225418,3287.036979,303.635612,1625.497795,293.685567,1295.487973,296.454023,1253.038314,355.048387,1204.209677
2.866503,804.411498,312.014327,777.529656,324.088375,675.821168,265.969239,671.501888,221.233837,795.917722,254.411392,810.547909,300.824401
4.443785,764.747217,1169.437459,754.089552,1198.000000,809.187500,1198.000000,806.798969,1159.783505,769.618812,1165.980198
4.472348,754.089552,1198.000000,748.463270,1210.998651,859.720183,1467.507645,809.187500,1198.000000
3.785957,1136.187717,65.955586,1192.313980,64.478579,1226.022963,-67.548270,1123.500000,-10.232283,1123.500000,36.218750
3.728498,1077.238518,-186.605950,1077.769058,-170.159193,1089.429344,-147.852559,1204.719849,-151.571608,1179.713115,-181.341530,1104.938040,-197.958213
2.292350,-78.425163,-140.297180,-98.833333,-116.666667,-150.151899,-128.741623,-134.269841,-198.809524,-101.154122,-182.913978
3.691908,1019.953656,704.817393,988.304979,640.816736,1009.277362,570.908793,1056.786933,592.641895,1084.235156,613.868520,1082.893939,622.318182,1054.822581,706.532258
2.973895,358.593817,829.233475,371.839623,813.896226,360.087500,774.232813,331.199234,821.176245
2.178286,318.500000,74.148936,345.211532,90.346354,344.502116,112.101777,331.345730,145.462613,285.084737,142.819128,279.707865,90.842697,280.216738,80.665236
2.275515,164.508226,410.977086,207.294603,465.173163,231.867470,412.246988,201.420209,368.479051,185.622489,362.290254,156.399981,371.956160
3.661074,-124.917002,1036.172028,-131.277288,1137.936604,-181.138781,1113.459144,-188.759654,1056.302594
3.707908,1138.938735,348.043619,1175.324087,339.813599,1196.422395,242.233925,1196.536670,235.263132,1161.167358,229.904145,1156.062701,242.110932,1131.052326,326.074336
4.955983,1156.918699,996.943089,1157.697674,1007.069767,1227.316794,1056.797710,1896.173378,882.616308,1595.979949,856.174400,1413.885014,889.484449
3.121630,839.705644,430.543140,865.942587,538.114606,861.642913,550.101575,795.049959,465.984159
2.141550,336.222282,196.318084,331.345730,145.462613,285.084737,142.819128,238.039171,182.513825,237.966173,182.588795,333.492891,200.784360
2.934846,785.234332,192.299728,862.131579,171.327751,871.826481,84.954986,839.139226,74.416472,818.282439,76.773171,742.769698,151.407857
2.649508,483.897038,414.785614,482.573375,435.170028,491.943849,455.678991,526.417230,477.347973,567.757228,488.132320,583.521959,476.834263,611.830420,376.922047,609.034264,371.831609,586.976852,365.958333
3.712290,745.419355,887.826613,762.540404,977.712121,705.891334,927.727648,708.322442,877.889940
5.054357,1057.876108,1100.415811,1043.042346,1093.148263,994.380055,1103.536842,992.338975,1105.047772,965.938207,1166.230505,974.561249,1500.373408,1058.788270,1291.911531,1079.761538,1152.089744
2.415725,426.546141,359.640520,399.149381,342.670885,336.949152,391.435865,329.644118,416.505412,342.899674,473.376020,383.753521,494.775654,482.573375,435.170028,483.897038,414.785614
2.274534,-23.448864,352.988636,5.846354,326.723958,7.329478,276.297761,-11.168373,277.702661,-91.320000,300.040000,-123.886277,318.649301,-125.875062,324.257674,-125.487500,324.520833,-42.871795,357.304843
2.396534,275.187500,429.575000,329.644118,416.505412,342.899674,473.376020,317.492084,500.156992,230.512238,483.185315
2.420208,484.824726,24.294210,566.125364,30.548105,596.522892,133.139759,509.332127,92.973227,488.876244,42.710199
2.602819,687.453825,-111.936143,596.955282,-24.963518,529.493614,-46.312147,515.545403,-85.695334,603.587317,-175.051307,644.870761,-206.774374,693.792825,-140.532076
2.409672,448.045455,144.045455,509.332127,92.973227,596.522892,133.139759,619.447766,153.881312,623.088756,160.320115,557.341649,209.147010,488.500000,184.500000
3.796945,745.419355,887.826613,757.872093,888.864341,777.459184,960.683673,770.603448,991.534483,762.540404,977.712121
2.549887,-193.752468,496.820670,-188.952659,463.564851,-100.142547,509.170043,-91.430156,543.227574,-133.042373,543.822034
2.209542,-118.967742,242.225806,-182.330508,212.211864,-163.267442,206.127907,-112.558824,197.676471,-108.694444,207.981481
2.520761,31.403226,579.790323,-18.394512,655.672590,-17.159854,664.130002,60.516854,665.272307,88.181356,629.471186
4.236548,850.854452,1093.567002,893.720678,1070.368810,890.598540,1029.781022,844.589134,979.770798,799.677060,1009.371938
2.648179,96.528986,700.586957,80.854667,692.190000,60.516854,665.272307,88.181356,629.471186,103.305791,613.351722,181.136653,688.189089,180.140688,689.240385,146.451941,698.384473
4.294193,962.182320,1001.577348,994.380055,1103.536842,1043.042346,1093.148263,1062.976226,1016.849618,991.519084,968.049618
3.000032,241.195652,891.789855,240.778125,881.212500,179.280813,814.124524,164.876724,810.827202,149.979434,863.795347,226.584959,899.295469,227.246606,899.260181,238.898882,896.492766
4.504147,1091.477852,842.185189,1081.039171,865.197738,1098.180473,911.946746,1146.011628,919.918605,1158.343618,920.170278,1182.873757,904.320034,1105.633731,842.879104
4.130504,988.798932,829.058719,972.944050,891.036895,994.986631,909.013369,997.001237,910.487016,1000.523725,910.335184,1081.039171,865.197738,1091.477852,842.185189,1075.932927,814.847561,1031.764605,808.537801
3.396864,314.415538,976.009953,314.588353,987.242972,315.392308,989.453846,449.256968,1046.824415,475.529821,1027.478041,470.557735,985.667321,394.633700,962.890110,333.956433,961.087815
2.601322,471.372939,542.802849,439.785980,586.450282,422.358948,580.259100,383.753521,494.775654,482.573375,435.170028,491.943849,455.678991
3.205472,200.014624,997.095335,178.251773,929.630496,132.368483,916.783175,116.698192,943.514848,195.471945,1003.127418
2.348122,-23.448864,352.988636,-1.009313,410.690338,-55.259961,419.129327,-56.028015,417.238733,-42.871795,357.304843
2.248999,367.152283,-67.882807,319.290323,-63.720898,287.031044,-104.395641,380.000000,-191.166667,380.000000,-126.362069
3.950640,1191.465254,482.960389,1196.002575,422.840886,1193.877020,422.339019,1079.321601,463.461477,1094.871618,475.805305
1.941096,27.117206,93.987875,-22.029183,99.071984,-53.956116,148.256720,-20.500000,183.473684,34.554185,156.670989
2.128148,20.734446,-68.144158,-0.804514,-98.699427,-32.315403,-94.698044,-45.000000,-72.500000,-32.182324,4.406057,11.385070,-1.204895,25.231954,-44.532243
3.276820,840.962951,428.384367,865.029344,410.206559,930.681297,458.027118,931.460872,460.406873,865.942587,538.114606,839.705644,430.543140
4.142258,902.928571,979.928571,927.176471,1004.176471,890.598540,1029.781022,844.589134,979.770798,847.235099,972.966887
2.613601,108.483539,602.374897,103.305791,613.351722,181.136653,688.189089,187.352249,684.954442,166.180942,590.859743,126.909946,584.382053
2.868384,616.580268,549.774247,655.962612,566.577381,636.702703,635.057057,559.908696,592.393720,566.205795,575.776374,589.815217,553.597826
2.962154,640.550428,647.740298,636.702703,635.057057,559.908696,592.393720,554.833824,596.779412,586.064081,700.880270,620.882285,705.934525,629.856125,702.815957
2.725946,-89.022285,741.769978,-72.464553,739.192596,-60.163428,725.945230,-27.653450,676.342377,-127.149351,608.266234,-139.265625,616.343750,-134.402778,664.972222
3.574148,1075.652174,-25.572464,1021.435111,-80.512420,1022.566167,-84.778117,1083.541008,-114.730671,1106.145598,-106.888262
2.324869,484.781558,24.233541,466.763158,19.236842,400.320755,85.679245,425.090909,111.402098,488.876244,42.710199,484.824726,24.294210
4.448449,809.187500,1198.000000,859.720183,1467.507645,877.212747,1515.403950,854.453434,1151.254939,840.636570,1137.048867,806.798969,1159.783505
2.126279,192.893681,208.977370,211.310924,239.000000,222.846154,270.923077,185.622489,362.290254,156.399981,371.956160,147.789928,369.951079,114.633279,325.092084,103.837915,280.249802,143.752319,227.405380
3.806106,1084.235156,613.868520,1090.500000,613.500000,1118.253846,544.115385,1056.786933,592.641895
3.964768,935.337304,764.488428,935.340722,764.908867,988.798932,829.058719,1031.764605,808.537801,1000.141010,726.688496,956.273994,745.821981
3.782801,1161.167358,229.904145,1130.908310,209.083700,1173.353230,125.826357,1176.946490,125.300514,1240.070397,221.842960,1196.536670,235.263132
2.204296,178.235169,-147.038136,132.289474,-265.184211,110.830306,-325.660045,197.950758,-222.537879,236.877804,-113.542150,236.271177,-112.899307
3.750903,221.166667,1123.407407,149.429530,1139.348993,142.376340,1147.332275,139.424870,1158.843005,142.225637,1161.433714,282.280959,1206.132221,284.066681,1161.846305
3.042881,69.591787,848.559581,30.722677,823.328755,-3.707594,828.912042,-17.481742,888.283370,23.714063,941.014001,86.074602,866.661051,77.967532,855.785714
3.289742,195.471945,1003.127418,189.722320,1029.240298,170.724386,1041.840968,55.771999,1009.828911,51.188658,987.436014,116.698192,943.514848
4.514924,1105.633731,842.879104,1182.873757,904.320034,1413.885014,889.484449,1595.979949,856.174400,1350.612158,785.437739,1155.742511,816.960770
4.334839,704.024555,1131.690940,695.165724,1177.595796,736.502475,1208.054455,748.463270,1210.998651,754.089552,1198.000000,764.747217,1169.437459
3.036575,693.792825,-140.532076,760.561943,-135.670247,828.336075,-165.638400,439.618705,-1547.744604,480.674881,-930.728935,644.870761,-206.774374
2.256434,318.500000,53.125000,388.774194,0.419355,396.619847,-25.732824,382.248547,-38.169527,314.583008,17.943359,314.343356,18.313108
3.365151,-105.952943,1027.536608,-99.362159,1001.539627,-107.715207,973.622862,-139.085278,945.313285,-204.781726,947.578680,-207.729998,1047.819920,-188.759654,1056.302594,-124.917002,1036.172028
2.910488,331.199234,821.176245,306.599562,829.048140,274.471209,803.734892,364.443471,745.374505,360.087500,774.232813
2.289685,294.131086,-50.229713,319.290323,-63.720898,287.031044,-104.395641,248.051811,-119.782180,236.877804,-113.542150,236.271177,-112.899307,228.873107,-92.498567,281.691150,-47.409994
3.371206,863.371795,576.089744,1003.369258,556.090106,1009.363601,522.921408,931.460872,460.406873,865.942587,538.114606,861.642913,550.101575,860.532590,559.301400
3.537943,318.949541,1100.839450,271.467391,1070.402174,230.778351,1077.417526,231.154373,1096.218651
3.801426,850.781481,951.097531,847.235099,972.966887,844.589134,979.770798,799.677060,1009.371938,776.340426,1010.744681,774.461538,1007.738462,770.603448,991.534483,777.459184,960.683673,815.251024,893.498179,830.006642,899.426776
2.836223,751.414803,378.161912,708.705882,405.617647,665.225000,423.010000,611.830420,376.922047,609.034264,371.831609,645.894309,332.541231,753.335607,363.238745
3.152784,875.500000,269.893443,905.811884,267.905778,938.226658,292.757104,927.820755,316.820755,900.502833,323.975449,864.536459,283.013745
2.798604,528.702621,536.768145,471.372939,542.802849,439.785980,586.450282,468.317200,624.688000,554.833824,596.779412,559.908696,592.393720,566.205795,575.776374,532.892344,539.131579
3.519087,1078.892294,287.859019,1096.400000,229.500000,1016.500000,229.500000,1062.341636,291.386209
3.618689,789.613449,717.661677,823.491104,700.490810,836.441206,713.867839,847.725753,787.217391,836.362892,813.285130,809.643019,823.379304,769.805457,778.434361,776.152939,746.394687
3.341827,1036.429192,28.592852,1081.416098,-18.847885,1075.652174,-25.572464,1021.435111,-80.512420,945.927626,-42.072246,943.254698,13.295547
2.411375,484.781558,24.233541,529.493614,-46.312147,515.545403,-85.695334,503.096512,-89.146512,476.686047,-79.686047,417.578947,-20.578947,466.763158,19.236842
2.405793,380.000000,-126.362069,380.000000,-191.166667,380.784826,-199.538143,385.469052,-209.007331,463.306888,-150.001230,503.096512,-89.146512,476.686047,-79.686047
2.236974,-172.042471,-68.492664,-203.143662,-57.487627,-190.596408,-11.779773,-144.251037,16.954357,-142.856370,17.207933,-125.637187,6.911926,-141.466418,-30.578358
4.112061,924.698276,960.137931,915.933360,935.095315,950.733944,891.392257,972.944050,891.036895,994.986631,909.013369,933.409091,970.590909
2.005596,143.752319,227.405380,103.837915,280.249802,15.582273,267.511874,44.675439,227.508772,109.118123,204.493528
2.160046,251.200149,-0.776699,281.691150,-47.409994,228.873107,-92.498567,195.310191,-67.099604,232.053469,8.920970
3.119965,875.500000,269.893443,875.500000,206.906780,943.527086,208.059781,957.833333,222.596774,905.811884,267.905778
2.903504,80.854667,692.190000,60.516854,665.272307,-17.159854,664.130002,-27.653450,676.342377,-60.163428,725.945230,58.614693,754.739926
3.212488,397.676851,880.725029,469.674912,851.475817,478.591703,856.615357,505.816358,915.602109,470.557735,985.667321,394.633700,962.890110
2.519162,108.483539,602.374897,103.305791,613.351722,88.181356,629.471186,31.403226,579.790323,33.125000,574.625000,55.105769,567.298077
3.459015,1016.500000,229.500000,1005.763158,225.921053,1017.605227,182.993551,1078.371435,146.135359,1128.172148,208.597271,1096.400000,229.500000
2.248453,-196.504823,120.347267,-186.217877,179.497207,-120.029851,136.947761,-107.935424,127.418819,-138.188822,106.889728
2.241501,-88.384692,-104.773360,-37.635329,-99.335928,-32.315403,-94.698044,-45.000000,-72.500000,-79.662162,-72.500000
4.459445,850.854452,1093.567002,893.720678,1070.368810,992.338975,1105.047772,965.938207,1166.230505,854.453434,1151.254939,840.636570,1137.048867,839.268544,1114.378727
2.556473,-193.752468,496.820670,-133.042373,543.822034,-162.754954,562.868560,-202.564639,511.115970
2.356406,231.867470,412.246988,207.294603,465.173163,213.647230,489.836304,230.512238,483.185315,275.187500,429.575000
3.717933,805.882544,887.949856,757.872093,888.864341,777.459184,960.683673,815.251024,893.498179
3.371442,1015.750000,-117.000000,1022.566167,-84.778117,1021.435111,-80.512420,945.927626,-42.072246,919.414622,-64.981540,894.815885,-154.045933,982.471976,-172.696165,989.620253,-169.259494
3.152242,312.399679,870.867576,286.434211,881.736842,241.195652,891.789855,240.778125,881.212500,267.946539,806.856841,272.920047,803.313217,274.471209,803.734892,306.599562,829.048140,314.823529,864.000000
2.830294,670.291045,550.873134,657.000000,511.000000,625.923913,504.094203,616.580268,549.774247,655.962612,566.577381,659.784705,565.262252
3.865643,1175.324087,339.813599,1228.560660,352.422261,1196.422395,242.233925
1.989973,154.359296,119.630653,163.537975,122.968354,208.144068,40.618644,124.331386,5.159432,112.113821,14.804878,110.237624,34.504950,128.607143,85.746241
2.145771,218.331325,37.222892,208.144068,40.618644,124.331386,5.159432,135.215815,-63.988704,149.960219,-68.860768,195.310191,-67.099604,232.053469,8.920970
2.720332,-198.691801,653.283309,-134.402778,664.972222,-89.022285,741.769978,-121.012406,760.076463,-170.093951,736.294684,-209.222178,689.829913
3.014288,640.550428,647.740298,636.702703,635.057057,655.962612,566.577381,659.784705,565.262252,723.997730,607.615524,714.725054,625.645729
3.026274,875.500000,269.893443,875.500000,206.906780,869.028429,199.228645,799.849398,234.753012,795.917722,254.411392,810.547909,300.824401,864.536459,283.013745
3.246136,900.502833,323.975449,894.889117,372.627652,973.921875,362.921875,927.820755,316.820755
1.968280,128.607143,85.746241,110.237624,34.504950,64.806385,86.666743,72.895349,94.542840
2.217592,397.324514,305.970782,399.149381,342.670885,336.949152,391.435865,285.962008,358.073907,269.179245,294.089623,346.037604,264.627252
2.374694,488.876244,42.710199,509.332127,92.973227,448.045455,144.045455,443.577756,143.635574,425.090909,111.402098
3.552231,927.876623,760.136364,912.682266,653.775862,926.306324,655.918972,956.273994,745.821981,935.337304,764.488428
3.181302,227.246606,899.260181,210.750000,948.750000,187.640351,925.640351,226.584959,899.295469
3.610325,1086.138331,-564.552550,1104.938040,-197.958213,1077.238518,-186.605950,1048.054917,-203.745525,1029.777817,-870.859692
2.470519,-55.259961,419.129327,-62.383427,445.748596,-88.768895,458.367733,-138.751046,426.897490,-78.858491,402.235849,-56.028015,417.238733
2.263109,285.962008,358.073907,201.420209,368.479051,185.622489,362.290254,222.846154,270.923077,269.179245,294.089623
3.562191,1089.641134,296.504825,1093.109756,298.069106,1131.052326,326.074336,1138.938735,348.043619,1130.446729,362.752988,1078.304301,401.420406,1058.592362,383.441385
3.642665,836.362892,813.285130,890.843240,856.091117,893.719528,855.236774,902.839573,815.876578,847.725753,787.217391
2.248680,-297.728476,77.361880,-342.867844,72.815469,-1085.281112,98.269638,-193.248247,201.994390,-186.217877,179.497207,-196.504823,120.347267
3.872389,1244.214769,-82.991675,1268.370373,-96.776810,1374.881535,-100.257566,1208.253804,92.679806,1192.313980,64.478579,1226.022963,-67.548270
2.294720,-118.967742,242.225806,-182.330508,212.211864,-184.000000,212.363636,-184.000000,227.500000,-124.161972,317.257042,-116.413043,260.108696
2.063261,280.216738,80.665236,279.707865,90.842697,238.039171,182.513825,237.966173,182.588795,198.909777,192.743458,195.990956,181.383721,263.178571,76.220497
3.165426,210.750000,948.750000,212.629137,988.211875,200.014624,997.095335,178.251773,929.630496,187.640351,925.640351
3.616570,708.322442,877.889940,688.790152,857.634232,684.247778,856.260956,646.903128,862.145568,590.128454,916.164190,609.997528,958.016069,677.680562,982.106641,693.186528,968.262028,705.891334,927.727648
4.021033,1149.301180,686.292102,1122.561224,613.500000,1090.500000,613.500000,1084.235156,613.868520,1082.893939,622.318182,1124.996954,694.494778
3.876506,296.454023,1253.038314,293.685567,1295.487973,150.436508,1176.113757,142.225637,1161.433714,282.280959,1206.132221
2.562384,603.587317,-175.051307,463.306888,-150.001230,503.096512,-89.146512,515.545403,-85.695334
2.377013,25.102963,423.525185,-21.518018,476.806306,-12.795616,522.162795,-11.490178,522.250661,48.162148,507.521692,56.561425,467.205160,26.558580,423.354847
2.895686,806.779872,-38.536087,835.635812,28.288197,839.139226,74.416472,818.282439,76.773171,736.500000,18.357143
2.319950,-209.546761,390.120353,-342.398366,360.321862,-208.510448,260.764179,-128.667059,326.090588
3.528173,344.133815,1084.598148,315.392308,989.453846,449.256968,1046.824415,405.565552,1082.456249,404.836249,1082.686260
2.225637,276.511364,-162.106643,197.950758,-222.537879,236.877804,-113.542150,248.051811,-119.782180
3.525620,1013.719604,338.822337,1062.341636,291.386209,1078.892294,287.859019,1089.641134,296.504825,1058.592362,383.441385,1011.077298,349.289933
2.225265,-42.871795,357.304843,-125.487500,324.520833,-78.858491,402.235849,-56.028015,417.238733
3.315335,938.226658,292.757104,946.300000,290.300000,1006.551282,350.551282,979.865953,364.282568,973.921875,362.921875,927.820755,316.820755
3.500771,1048.054917,-203.745525,989.620253,-169.259494,1015.750000,-117.000000,1077.769058,-170.159193,1077.238518,-186.605950
2.784908,727.782828,14.621212,642.780517,166.031579,653.196034,172.521649,742.769698,151.407857,818.282439,76.773171,736.500000,18.357143
4.679718,1147.422144,1090.906498,1146.589537,1041.782696,1074.248163,1003.484321,1062.976226,1016.849618,1043.042346,1093.148263,1057.876108,1100.415811
2.397112,108.483539,602.374897,55.105769,567.298077,56.623201,514.187976,120.361876,530.360476,126.909946,584.382053
2.799899,181.136653,688.189089,187.352249,684.954442,253.400147,678.164471,259.791667,683.500000,254.644422,745.266932,177.291168,770.451713,180.140688,689.240385
2.253171,466.763158,19.236842,417.578947,-20.578947,396.619847,-25.732824,388.774194,0.419355,374.047872,79.941489,400.320755,85.679245
2.729196,-198.691801,653.283309,-211.240860,602.302758,-190.034960,598.614776,-139.265625,616.343750,-134.402778,664.972222
2.441643,424.436506,274.898612,537.926272,255.037902,545.894366,292.009859,426.546141,359.640520,399.149381,342.670885,397.324514,305.970782
2.266531,-78.858491,402.235849,-138.751046,426.897490,-200.909718,403.259685,-209.546761,390.120353,-128.667059,326.090588,-125.875062,324.257674,-125.487500,324.520833
2.267181,-88.942623,-56.148712,-79.662162,-72.500000,-88.384692,-104.773360,-97.888889,-114.777778,-111.176471,-81.558824
3.362785,973.921875,362.921875,894.889117,372.627652,866.090193,399.598074,865.029344,410.206559,930.681297,458.027118,967.314928,409.466258,979.865953,364.282568
3.081849,-295.282759,810.118966,-147.011480,837.432096,-250.340454,912.739653,-595.403846,860.021635,-365.192308,812.060897
4.280990,949.061485,997.982599,927.176471,1004.176471,890.598540,1029.781022,893.720678,1070.368810,992.338975,1105.047772,994.380055,1103.536842,962.182320,1001.577348
3.828116,1129.051609,533.831801,1118.253846,544.115385,1056.786933,592.641895,1009.277362,570.908793,1003.369258,556.090106,1009.363601,522.921408,1064.438816,472.807924,1079.135912,463.375459,1079.321601,463.461477,1094.871618,475.805305
2.224155,-54.381838,-146.530635,-37.635329,-99.335928,-88.384692,-104.773360,-97.888889,-114.777778,-98.833333,-116.666667,-78.425163,-140.297180
3.784049,-181.138781,1113.459144,-131.277288,1137.936604,-37.752863,1212.409757,-33.134934,1242.756146,-196.830795,1189.554992,-214.976161,1163.034841
3.009699,700.100000,526.600000,677.787671,469.424658,676.190877,453.190587,762.644155,477.039767,758.976487,504.406209,755.158130,510.286480
3.021073,358.593817,829.233475,365.369863,843.689041,362.697368,864.000000,314.823529,864.000000,306.599562,829.048140,331.199234,821.176245
3.183421,728.038810,693.424851,714.725054,625.645729,723.997730,607.615524,752.130312,594.396601,760.556345,592.609260,841.488764,624.039326,844.029032,637.756774,823.491104,700.490810,789.613449,717.661677
3.792960,677.680562,982.106641,693.186528,968.262028,774.461538,1007.738462,776.340426,1010.744681,739.241410,1057.521700,679.450820,1024.002732
2.347171,-161.904762,-82.178571,-156.422680,-92.457474,-150.308523,-128.632908,-623.200730,-206.368613,-203.143662,-57.487627,-172.042471,-68.492664
2.206383,-121.537037,-73.270370,-111.176471,-81.558824,-97.888889,-114.777778,-98.833333,-116.666667,-150.151899,-128.741623,-150.308523,-128.632908,-156.422680,-92.457474
5.119370,1142.308300,1186.837945,1058.788270,1291.911531,1079.761538,1152.089744
4.519044,1146.011628,919.918605,1158.343618,920.170278,1135.385609,981.869926,1086.328073,982.515420,1083.951613,973.112903
3.110627,546.842037,800.129243,535.040721,799.382324,527.237795,712.435433,586.064081,700.880270,620.882285,705.934525,610.118151,748.357877
2.961215,-121.012406,760.076463,-123.374299,764.613785,-295.282759,810.118966,-365.192308,812.060897,-234.504637,749.439722,-170.093951,736.294684
3.572819,807.117188,849.058594,805.882544,887.949856,757.872093,888.864341,745.419355,887.826613,708.322442,877.889940,688.790152,857.634232,735.913043,813.456522
2.762020,567.757228,488.132320,526.417230,477.347973,528.702621,536.768145,532.892344,539.131579,568.805556,495.237654
2.589106,-202.564639,511.115970,-264.148501,578.298365,-211.240860,602.302758,-190.034960,598.614776,-162.754954,562.868560
3.256739,649.234847,711.464312,728.038810,693.424851,789.613449,717.661677,776.152939,746.394687,675.839992,762.574195
2.337132,367.152283,-67.882807,382.248547,-38.169527,396.619847,-25.732824,417.578947,-20.578947,476.686047,-79.686047,380.000000,-126.362069
3.990820,1176.318873,572.975004,1129.051609,533.831801,1094.871618,475.805305,1191.465254,482.960389,1244.018255,542.870811,1184.755954,573.236619
2.572054,426.546141,359.640520,545.894366,292.009859,586.976852,365.958333,483.897038,414.785614
2.807088,567.757228,488.132320,583.521959,476.834263,623.798273,492.757457,625.923913,504.094203,616.580268,549.774247,589.815217,553.597826,568.805556,495.237654
2.266277,-142.856370,17.207933,-148.850049,66.489289,-296.447674,77.031977,-144.251037,16.954357
2.353289,413.652558,168.430738,443.577756,143.635574,425.090909,111.402098,400.320755,85.679245,374.047872,79.941489,345.211532,90.346354,344.502116,112.101777,411.676569,168.528318
2.249211,154.739130,-85.586957,178.235169,-147.038136,236.271177,-112.899307,228.873107,-92.498567,195.310191,-67.099604,149.960219,-68.860768
2.161722,346.037604,264.627252,269.179245,294.089623,222.846154,270.923077,211.310924,239.000000,336.490196,239.000000
4.708513,1086.328073,982.515420,1074.248163,1003.484321,1146.589537,1041.782696,1157.697674,1007.069767,1156.918699,996.943089,1135.385609,981.869926
3.765609,1136.187717,65.955586,1192.313980,64.478579,1208.253804,92.679806,1209.644046,106.185019,1176.946490,125.300514,1173.353230,125.826357,1133.644321,98.171938
3.892308,303.635612,1625.497795,150.436508,1176.113757,293.685567,1295.487973
2.217782,-120.029851,136.947761,-107.935424,127.418819,-106.783634,127.723994,-93.408840,140.226519,-112.558824,197.676471,-163.267442,206.127907
2.756928,-198.691801,653.283309,-211.240860,602.302758,-264.148501,578.298365,-726.500000,609.500000,-239.019481,690.746753,-209.222178,689.829913
4.536093,1146.011628,919.918605,1083.951613,973.112903,1079.673252,960.990881,1098.180473,911.946746
3.995127,1244.018255,542.870811,3686.364909,471.457166,1284.696117,380.828155,1196.002575,422.840886,1191.465254,482.960389
2.922346,135.226054,788.191571,137.930690,789.826241,77.967532,855.785714,69.591787,848.559581,125.008475,783.906780
2.150961,20.734446,-68.144158,-0.804514,-98.699427,36.153855,-226.205800,60.818417,-256.718660,82.342908,-161.652154,52.230097,-94.973786
2.458030,-62.383427,445.748596,-88.768895,458.367733,-100.142547,509.170043,-91.430156,543.227574,-83.883994,550.199571,-56.814785,557.279210,-12.795616,522.162795,-21.518018,476.806306
2.495588,215.230038,518.279468,189.405172,584.525862,227.381356,604.974576,244.572289,536.210843
3.590193,1204.719849,-151.571608,1268.370373,-96.776810,1244.214769,-82.991675,1106.145598,-106.888262,1083.541008,-114.730671,1089.429344,-147.852559
2.244721,36.706376,354.778523,114.633279,325.092084,147.789928,369.951079,110.154171,397.936642,45.581303,399.835844
1.979270,106.500000,133.500000,81.035519,178.062842,63.482531,174.848914,37.663513,157.495148,67.928571,131.357143
2.392929,-55.259961,419.129327,-62.383427,445.748596,-21.518018,476.806306,25.102963,423.525185,-1.009313,410.690338
2.356462,425.875000,260.833333,429.038462,243.961538,488.500000,184.500000,557.341649,209.147010,537.926272,255.037902,424.436506,274.898612
4.628885,877.212747,1515.403950,938.583517,1754.216295,974.561249,1500.373408,965.938207,1166.230505,854.453434,1151.254939
2.807296,777.529656,324.088375,753.335607,363.238745,645.894309,332.541231,675.821168,265.969239
3.068412,137.930690,789.826241,159.152060,799.071194,164.876724,810.827202,149.979434,863.795347,132.699382,883.362465,86.074602,866.661051,77.967532,855.785714
3.820549,398.313953,1163.127907,404.836249,1082.686260,344.133815,1084.598148,331.478049,1097.512195,363.117450,1155.795302
2.262479,36.706376,354.778523,114.633279,325.092084,103.837915,280.249802,15.582273,267.511874,13.786099,267.793918,7.329478,276.297761,5.846354,326.723958
2.231703,-161.904762,-82.178571,-156.422680,-92.457474,-121.537037,-73.270370,-119.491713,-63.861878,-129.702703,-58.027027
2.875052,795.917722,254.411392,799.849398,234.753012,785.234332,192.299728,742.769698,151.407857,653.196034,172.521649,671.501888,221.233837
4.179077,704.024555,1131.690940,695.165724,1177.595796,671.795644,1191.427068,614.000000,1186.766129,614.000000,1107.978723,698.659737,1115.183807
3.775800,1086.138331,-564.552550,1179.713115,-181.341530,1104.938040,-197.958213
2.021741,35.018870,83.917126,19.501983,5.224343,11.385070,-1.204895,-32.182324,4.406057,-56.101737,15.696020,-56.123457,16.271605,-22.029183,99.071984,27.117206,93.987875
3.668036,322.568702,1102.461832,284.066681,1161.846305,221.166667,1123.407407,231.154373,1096.218651,318.949541,1100.839450
2.408139,110.154171,397.936642,99.936326,455.156576,136.438865,489.170306,164.508226,410.977086,156.399981,371.956160,147.789928,369.951079
2.791827,146.451941,698.384473,180.140688,689.240385,177.291168,770.451713,159.152060,799.071194,137.930690,789.826241,135.226054,788.191571
2.686696,528.702621,536.768145,471.372939,542.802849,491.943849,455.678991,526.417230,477.347973
4.387359,997.001237,910.487016,991.519084,968.049618,1062.976226,1016.849618,1074.248163,1003.484321,1086.328073,982.515420,1083.951613,973.112903,1079.673252,960.990881,1000.523725,910.335184
3.752110,956.273994,745.821981,1000.141010,726.688496,1019.953656,704.817393,988.304979,640.816736,926.306324,655.918972
4.353422,1155.742511,816.960770,1350.612158,785.437739,1241.710639,732.401285,1127.515355,763.329175
3.169707,943.527086,208.059781,938.399371,102.087002,907.659671,77.751406,871.826481,84.954986,862.131579,171.327751,869.028429,199.228645,875.500000,206.906780
4.157974,933.409091,970.590909,949.061485,997.982599,962.182320,1001.577348,991.519084,968.049618,997.001237,910.487016,994.986631,909.013369
2.570732,-133.042373,543.822034,-91.430156,543.227574,-83.883994,550.199571,-127.149351,608.266234,-139.265625,616.343750,-190.034960,598.614776,-162.754954,562.868560
3.365547,-105.952943,1027.536608,-28.403456,1120.391914,45.038314,1046.177072,55.771999,1009.828911,51.188658,987.436014,36.445228,974.011102,-99.362159,1001.539627
2.534611,557.341649,209.147010,623.088756,160.320115,642.780517,166.031579,653.196034,172.521649,671.501888,221.233837,675.821168,265.969239,645.894309,332.541231,609.034264,371.831609,586.976852,365.958333,545.894366,292.009859,537.926272,255.037902
2.197988,-71.374031,226.076227,-20.500000,189.551282,-20.500000,183.473684,-53.956116,148.256720,-93.408840,140.226519,-112.558824,197.676471,-108.694444,207.981481
3.610975,927.876623,760.136364,836.441206,713.867839,823.491104,700.490810,844.029032,637.756774,912.682266,653.775862
2.015244,263.178571,76.220497,195.990956,181.383721,163.537975,122.968354,208.144068,40.618644,218.331325,37.222892
3.218569,649.234847,711.464312,629.856125,702.815957,640.550428,647.740298,714.725054,625.645729,728.038810,693.424851
2.122532,-296.447674,77.031977,-148.850049,66.489289,-138.188822,106.889728,-196.504823,120.347267,-297.728476,77.361880
2.294308,45.581303,399.835844,110.154171,397.936642,99.936326,455.156576,56.561425,467.205160,26.558580,423.354847
3.946721,1124.996954,694.494778,1082.893939,622.318182,1054.822581,706.532258,1078.453488,719.360465
3.189765,377.811573,880.409708,397.676851,880.725029,394.633700,962.890110,333.956433,961.087815,336.679743,934.762482
3.152502,358.593817,829.233475,365.369863,843.689041,429.244275,824.526718,371.839623,813.896226
2.097407,52.230097,-94.973786,82.342908,-161.652154,129.902985,-67.783582,100.408257,-65.325688
3.280817,894.815885,-154.045933,982.471976,-172.696165,943.130372,-448.087393,866.391737,-173.688637
4.055305,924.698276,960.137931,902.928571,979.928571,847.235099,972.966887,850.781481,951.097531,915.933360,935.095315
2.659383,317.492084,500.156992,342.899674,473.376020,383.753521,494.775654,422.358948,580.259100,359.145641,602.671091,298.814214,566.317539,296.339142,555.282842
2.949152,274.471209,803.734892,364.443471,745.374505,370.849810,734.412548,261.662534,761.709366,272.920047,803.313217
2.250386,-129.702703,-58.027027,-119.491713,-63.861878,-93.039906,-42.978873,-89.222420,2.830961,-125.637187,6.911926,-141.466418,-30.578358
2.524487,644.870761,-206.774374,480.674881,-930.728935,385.469052,-209.007331,463.306888,-150.001230,603.587317,-175.051307
2.458556,244.572289,536.210843,227.381356,604.974576,249.162512,621.486098,298.814214,566.317539,296.339142,555.282842
2.234096,-120.029851,136.947761,-163.267442,206.127907,-182.330508,212.211864,-184.000000,212.363636,-193.248247,201.994390,-186.217877,179.497207
2.885694,761.185714,463.928571,708.705882,405.617647,751.414803,378.161912,757.803047,387.818560
2.264743,154.739130,-85.586957,132.289474,-265.184211,178.235169,-147.038136
3.115571,760.556345,592.609260,755.158130,510.286480,758.976487,504.406209,860.532590,559.301400,863.371795,576.089744,841.488764,624.039326
3.023078,761.185714,463.928571,708.705882,405.617647,665.225000,423.010000,672.312256,448.524120,676.190877,453.190587,762.644155,477.039767,763.591743,475.958716
2.199905,-23.448864,352.988636,5.846354,326.723958,36.706376,354.778523,45.581303,399.835844,26.558580,423.354847,25.102963,423.525185,-1.009313,410.690338
3.736001,398.313953,1163.127907,404.836249,1082.686260,405.565552,1082.456249,484.706042,1208.494808,484.192308,1215.738462,410.384956,1187.269912
2.143229,336.490196,239.000000,211.310924,239.000000,192.893681,208.977370,198.909777,192.743458,237.966173,182.588795,333.492891,200.784360
2.925849,761.185714,463.928571,757.803047,387.818560,840.962951,428.384367,839.705644,430.543140,795.049959,465.984159,763.591743,475.958716
4.363711,695.165724,1177.595796,736.502475,1208.054455,686.628492,1230.220670,671.795644,1191.427068
3.089248,546.842037,800.129243,618.345034,828.981329,610.118151,748.357877
2.276535,285.962008,358.073907,201.420209,368.479051,231.867470,412.246988,275.187500,429.575000,329.644118,416.505412,336.949152,391.435865
2.078423,279.707865,90.842697,285.084737,142.819128,238.039171,182.513825
2.033835,37.663513,157.495148,63.482531,174.848914,44.675439,227.508772,15.582273,267.511874,13.786099,267.793918,-20.500000,189.551282,-20.500000,183.473684,34.554185,156.670989
2.949198,806.779872,-38.536087,835.635812,28.288197,865.988245,-53.429891,807.861798,-71.534850
3.969300,526.667265,1334.668342,484.192308,1215.738462,484.706042,1208.494808,535.276573,1074.551239,588.887553,1076.454588,614.000000,1107.978723,614.000000,1186.766129
3.036166,377.811573,880.409708,397.676851,880.725029,469.674912,851.475817,449.578224,824.094080,429.244275,824.526718,365.369863,843.689041,362.697368,864.000000
4.179252,1091.880952,759.642857,1078.453488,719.360465,1124.996954,694.494778,1149.301180,686.292102,1199.834711,697.636364,1241.710639,732.401285,1127.515355,763.329175
3.761115,405.565552,1082.456249,484.706042,1208.494808,535.276573,1074.551239,475.529821,1027.478041,449.256968,1046.824415
3.262518,962.834413,108.978937,1046.396254,91.222046,1046.912621,88.872573,1036.429192,28.592852,943.254698,13.295547,907.659671,77.751406,938.399371,102.087002
2.435081,230.512238,483.185315,317.492084,500.156992,296.339142,555.282842,244.572289,536.210843,215.230038,518.279468,208.604035,498.615199,213.647230,489.836304
3.162639,752.130312,594.396601,760.556345,592.609260,755.158130,510.286480,700.100000,526.600000,696.571429,531.892857
3.441661,1064.438816,472.807924,967.314928,409.466258,930.681297,458.027118,931.460872,460.406873,1009.363601,522.921408
3.264743,989.875000,235.000000,1005.763158,225.921053,1017.605227,182.993551,962.834413,108.978937,938.399371,102.087002,943.527086,208.059781,957.833333,222.596774
2.315708,380.000000,-191.166667,287.031044,-104.395641,248.051811,-119.782180,276.511364,-162.106643,380.784826,-199.538143
4.745802,1158.343618,920.170278,1182.873757,904.320034,1413.885014,889.484449,1156.918699,996.943089,1135.385609,981.869926
3.107415,116.698192,943.514848,51.188658,987.436014,36.445228,974.011102,23.714063,941.014001,86.074602,866.661051,132.699382,883.362465,132.368483,916.783175
2.384280,120.361876,530.360476,140.580904,500.215743,136.438865,489.170306,99.936326,455.156576,56.561425,467.205160,48.162148,507.521692,56.623201,514.187976
3.213801,905.811884,267.905778,957.833333,222.596774,989.875000,235.000000,989.573770,237.409836,946.300000,290.300000,938.226658,292.757104
4.104001,1176.318873,572.975004,1122.561224,613.500000,1149.301180,686.292102,1199.834711,697.636364,1184.755954,573.236619
3.524122,1029.777817,-870.859692,1012.039659,-1011.345904,943.130372,-448.087393,982.471976,-172.696165,989.620253,-169.259494,1048.054917,-203.745525
2.860221,179.280813,814.124524,267.946539,806.856841,272.920047,803.313217,261.662534,761.709366,254.644422,745.266932,177.291168,770.451713,159.152060,799.071194,164.876724,810.827202
2.948727,124.151163,783.453488,68.329076,785.025942,30.722677,823.328755,69.591787,848.559581,125.008475,783.906780
2.295358,380.784826,-199.538143,385.469052,-209.007331,480.674881,-930.728935,439.618705,-1547.744604,122.984088,-5563.247246,92.884342,-355.991252,110.830306,-325.660045,197.950758,-222.537879,276.511364,-162.106643
3.070438,864.536459,283.013745,810.547909,300.824401,804.411498,312.014327,866.090193,399.598074,894.889117,372.627652,900.502833,323.975449
4.197203,704.024555,1131.690940,764.747217,1169.437459,769.618812,1165.980198,760.385906,1089.808725,738.876582,1072.601266,698.659737,1115.183807
2.484487,33.125000,574.625000,31.403226,579.790323,-18.394512,655.672590,-56.814785,557.279210,-12.795616,522.162795,-11.490178,522.250661
4.294132,1184.755954,573.236619,1199.834711,697.636364,1241.710639,732.401285,1350.612158,785.437739,1595.979949,856.174400,1896.173378,882.616308,51385.036443,1806.682216,5510.474619,476.984772,3686.364909,471.457166,1244.018255,542.870811
2.478661,484.781558,24.233541,529.493614,-46.312147,596.955282,-24.963518,597.204694,-12.617631,566.125364,30.548105,484.824726,24.294210
2.335112,-193.248247,201.994390,-1085.281112,98.269638,-4536.038384,45.384469,-342.398366,360.321862,-208.510448,260.764179,-184.000000,227.500000,-184.000000,212.363636
3.187160,312.399679,870.867576,336.679743,934.762482,377.811573,880.409708,362.697368,864.000000,314.823529,864.000000
3.158828,238.898882,896.492766,276.359939,962.542524,212.629137,988.211875,210.750000,948.750000,227.246606,899.260181
3.757101,-207.729998,1047.819920,-690.230769,1098.000000,-214.976161,1163.034841,-181.138781,1113.459144,-188.759654,1056.302594
2.333817,-190.596408,-11.779773,-342.867844,72.815469,-297.728476,77.361880,-296.447674,77.031977,-144.251037,16.954357
4.150630,924.698276,960.137931,902.928571,979.928571,927.176471,1004.176471,949.061485,997.982599,933.409091,970.590909
2.290408,425.875000,260.833333,370.449833,186.933110,336.222282,196.318084,333.492891,200.784360,336.490196,239.000000,346.037604,264.627252,397.324514,305.970782,424.436506,274.898612
2.283463,425.875000,260.833333,429.038462,243.961538,413.652558,168.430738,411.676569,168.528318,370.449833,186.933110
2.987183,371.839623,813.896226,429.244275,824.526718,449.578224,824.094080,439.500000,790.500000,387.466200,728.059441,375.715810,727.583073,370.849810,734.412548,364.443471,745.374505,360.087500,774.232813
2.969873,907.659671,77.751406,871.826481,84.954986,839.139226,74.416472,835.635812,28.288197,865.988245,-53.429891,919.414622,-64.981540,945.927626,-42.072246,943.254698,13.295547
2.354005,429.038462,243.961538,488.500000,184.500000,448.045455,144.045455,443.577756,143.635574,413.652558,168.430738
2.184857,318.500000,53.125000,314.343356,18.313108,251.200149,-0.776699,232.053469,8.920970,218.331325,37.222892,263.178571,76.220497,280.216738,80.665236,318.500000,74.148936
4.287500,1081.039171,865.197738,1098.180473,911.946746,1079.673252,960.990881,1000.523725,910.335184
3.112996,312.399679,870.867576,286.434211,881.736842,309.497512,973.990050,314.415538,976.009953,333.956433,961.087815,336.679743,934.762482
1.986448,64.806385,86.666743,110.237624,34.504950,112.113821,14.804878,19.501983,5.224343,35.018870,83.917126
3.744684,762.540404,977.712121,770.603448,991.534483,774.461538,1007.738462,693.186528,968.262028,705.891334,927.727648
2.787319,623.798273,492.757457,672.312256,448.524120,676.190877,453.190587,677.787671,469.424658,657.000000,511.000000,625.923913,504.094203
2.609704,687.453825,-111.936143,714.534483,-2.767241,635.492647,36.753676,597.204694,-12.617631,596.955282,-24.963518
3.184673,241.195652,891.789855,286.434211,881.736842,309.497512,973.990050,276.359939,962.542524,238.898882,896.492766
4.215338,671.795644,1191.427068,614.000000,1186.766129,526.667265,1334.668342,523.505898,1766.194906,686.628492,1230.220670
2.629141,-56.814785,557.279210,-83.883994,550.199571,-127.149351,608.266234,-27.653450,676.342377,-17.159854,664.130002,-18.394512,655.672590
3.055637,-121.012406,760.076463,-123.374299,764.613785,-145.529549,836.882101,-133.481013,859.007595,-42.706799,895.317280,-17.481742,888.283370,-3.707594,828.912042,-72.464553,739.192596,-89.022285,741.769978
2.244306,-93.039906,-42.978873,-89.222420,2.830961,-56.101737,15.696020,-32.182324,4.406057,-45.000000,-72.500000,-79.662162,-72.500000,-88.942623,-56.148712
3.014212,840.962951,428.384367,865.029344,410.206559,866.090193,399.598074,804.411498,312.014327,777.529656,324.088375,753.335607,363.238745,751.414803,378.161912,757.803047,387.818560
3.491041,1046.396254,91.222046,1078.644242,130.994565,1133.644321,98.171938,1136.187717,65.955586,1123.500000,36.218750,1046.912621,88.872573
2.921548,785.234332,192.299728,799.849398,234.753012,869.028429,199.228645,862.131579,171.327751
2.185678,154.739130,-85.586957,132.289474,-265.184211,110.830306,-325.660045,92.884342,-355.991252,60.818417,-256.718660,82.342908,-161.652154,129.902985,-67.783582,135.215815,-63.988704,149.960219,-68.860768
3.496097,322.568702,1102.461832,331.478049,1097.512195,344.133815,1084.598148,315.392308,989.453846,314.588353,987.242972,260.259398,1036.778195,271.467391,1070.402174,318.949541,1100.839450
3.341931,1013.719604,338.822337,989.573770,237.409836,946.300000,290.300000,1006.551282,350.551282,1011.077298,349.289933
4.247868,1091.477852,842.185189,1075.932927,814.847561,1091.880952,759.642857,1127.515355,763.329175,1155.742511,816.960770,1105.633731,842.879104
2.899366,623.798273,492.757457,672.312256,448.524120,665.225000,423.010000,611.830420,376.922047,583.521959,476.834263
2.209931,318.500000,53.125000,388.774194,0.419355,374.047872,79.941489,345.211532,90.346354,318.500000,74.148936
3.165649,-204.781726,947.578680,-250.340454,912.739653,-147.011480,837.432096,-145.529549,836.882101,-133.481013,859.007595,-139.085278,945.313285
3.137180,-107.715207,973.622862,-42.706799,895.317280,-133.481013,859.007595,-139.085278,945.313285
2.110837,-71.374031,226.076227,-20.500000,189.551282,13.786099,267.793918,7.329478,276.297761,-11.168373,277.702661,-68.798246,242.484405,-71.975000,230.483333
3.018778,439.500000,790.500000,520.660000,709.340000,469.130454,657.218160,387.466200,728.059441
2.319309,-128.667059,326.090588,-208.510448,260.764179,-184.000000,227.500000,-124.161972,317.257042,-123.886277,318.649301,-125.875062,324.257674
3.861158,1176.318873,572.975004,1122.561224,613.500000,1090.500000,613.500000,1118.253846,544.115385,1129.051609,533.831801
3.413375,1013.719604,338.822337,989.573770,237.409836,989.875000,235.000000,1005.763158,225.921053,1016.500000,229.500000,1062.341636,291.386209
4.961519,1147.422144,1090.906498,1146.589537,1041.782696,1157.697674,1007.069767,1227.316794,1056.797710,1156.412801,1094.613173
3.571917,809.643019,823.379304,807.117188,849.058594,735.913043,813.456522,769.805457,778.434361
2.048496,110.837224,129.619326,154.359296,119.630653,163.537975,122.968354,195.990956,181.383721,198.909777,192.743458,192.893681,208.977370,143.752319,227.405380,109.118123,204.493528,81.035519,178.062842,106.500000,133.500000
2.890389,520.660000,709.340000,527.237795,712.435433,586.064081,700.880270,554.833824,596.779412,468.317200,624.688000,469.130454,657.218160
2.307875,-161.904762,-82.178571,-129.702703,-58.027027,-141.466418,-30.578358,-172.042471,-68.492664
3.373395,675.839992,762.574195,684.247778,856.260956,688.790152,857.634232,735.913043,813.456522,769.805457,778.434361,776.152939,746.394687
3.522441,204.529851,1038.044776,230.778351,1077.417526,271.467391,1070.402174,260.259398,1036.778195
3.147040,649.234847,711.464312,629.856125,702.815957,620.882285,705.934525,610.118151,748.357877,618.345034,828.981329,646.903128,862.145568,684.247778,856.260956,675.839992,762.574195
3.053615,807.861798,-71.534850,865.988245,-53.429891,919.414622,-64.981540,894.815885,-154.045933,866.391737,-173.688637,828.336075,-165.638400,760.561943,-135.670247
3.926327,1284.696117,380.828155,1228.560660,352.422261,1175.324087,339.813599,1138.938735,348.043619,1130.446729,362.752988,1193.877020,422.339019,1196.002575,422.840886
2.805160,96.528986,700.586957,80.854667,692.190000,58.614693,754.739926,68.329076,785.025942,124.151163,783.453488
3.423647,-207.729998,1047.819920,-690.230769,1098.000000,-21537.500000,1098.000000,-595.403846,860.021635,-250.340454,912.739653,-204.781726,947.578680
2.365340,136.438865,489.170306,140.580904,500.215743,208.604035,498.615199,213.647230,489.836304,207.294603,465.173163,164.508226,410.977086
3.144949,-295.282759,810.118966,-147.011480,837.432096,-145.529549,836.882101,-123.374299,764.613785
2.942138,240.778125,881.212500,267.946539,806.856841,179.280813,814.124524
1.913014,74.581481,98.092593,72.895349,94.542840,64.806385,86.666743,35.018870,83.917126,27.117206,93.987875,34.554185,156.670989,37.663513,157.495148,67.928571,131.357143
2.155349,-54.381838,-146.530635,-37.635329,-99.335928,-32.315403,-94.698044,-0.804514,-98.699427,36.153855,-226.205800,-3.077044,-200.221698
1.967334,81.035519,178.062842,63.482531,174.848914,44.675439,227.508772,109.118123,204.493528
2.813432,68.329076,785.025942,30.722677,823.328755,-3.707594,828.912042,-72.464553,739.192596,-60.163428,725.945230,58.614693,754.739926
3.596034,221.166667,1123.407407,149.429530,1139.348993,170.724386,1041.840968,189.722320,1029.240298,204.529851,1038.044776,230.778351,1077.417526,231.154373,1096.218651
3.899652,1031.764605,808.537801,1075.932927,814.847561,1091.880952,759.642857,1078.453488,719.360465,1054.822581,706.532258,1019.953656,704.817393,1000.141010,726.688496
3.853555,322.568702,1102.461832,331.478049,1097.512195,363.117450,1155.795302,355.048387,1204.209677,296.454023,1253.038314,282.280959,1206.132221,284.066681,1161.846305
2.848058,687.453825,-111.936143,714.534483,-2.767241,727.782828,14.621212,736.500000,18.357143,806.779872,-38.536087,807.861798,-71.534850,760.561943,-135.670247,693.792825,-140.532076
3.838869,1240.070397,221.842960,1439.387097,201.911290,1209.644046,106.185019,1176.946490,125.300514
2.606776,249.162512,621.486098,253.400147,678.164471,259.791667,683.500000,329.069767,683.500000,359.145641,602.671091,298.814214,566.317539
2.416475,126.909946,584.382053,166.180942,590.859743,189.405172,584.525862,215.230038,518.279468,208.604035,498.615199,140.580904,500.215743,120.361876,530.360476
2.137822,-142.856370,17.207933,-148.850049,66.489289,-138.188822,106.889728,-107.935424,127.418819,-106.783634,127.723994,-56.123457,16.271605,-56.101737,15.696020,-89.222420,2.830961,-125.637187,6.911926
3.780847,1193.877020,422.339019,1079.321601,463.461477,1079.135912,463.375459,1078.304301,401.420406,1130.446729,362.752988
2.811672,568.805556,495.237654,532.892344,539.131579,566.205795,575.776374,589.815217,553.597826
3.366199,200.014624,997.095335,212.629137,988.211875,276.359939,962.542524,309.497512,973.990050,314.415538,976.009953,314.588353,987.242972,260.259398,1036.778195,204.529851,1038.044776,189.722320,1029.240298,195.471945,1003.127418
2.071351,112.113821,14.804878,19.501983,5.224343,11.385070,-1.204895,25.231954,-44.532243,100.408257,-65.325688,129.902985,-67.783582,135.215815,-63.988704,124.331386,5.159432
3.615398,609.997528,958.016069,590.128454,916.164190,505.816358,915.602109,470.557735,985.667321,475.529821,1027.478041,535.276573,1074.551239,588.887553,1076.454588,592.637816,1070.854194
2.832196,254.644422,745.266932,259.791667,683.500000,329.069767,683.500000,375.715810,727.583073,370.849810,734.412548,261.662534,761.709366
2.170589,-91.320000,300.040000,-11.168373,277.702661,-68.798246,242.484405
3.083924,439.500000,790.500000,449.578224,824.094080,469.674912,851.475817,478.591703,856.615357,535.040721,799.382324,527.237795,712.435433,520.660000,709.340000
3.410693,912.682266,653.775862,844.029032,637.756774,841.488764,624.039326,863.371795,576.089744,1003.369258,556.090106,1009.277362,570.908793,988.304979,640.816736,926.306324,655.918972
3.673537,809.643019,823.379304,807.117188,849.058594,805.882544,887.949856,815.251024,893.498179,830.006642,899.426776,890.843240,856.091117,836.362892,813.285130
2.197026,-119.491713,-63.861878,-93.039906,-42.978873,-88.942623,-56.148712,-111.176471,-81.558824,-121.537037,-73.270370
3.009302,752.130312,594.396601,696.571429,531.892857,670.291045,550.873134,659.784705,565.262252,723.997730,607.615524
2.184302,367.152283,-67.882807,319.290323,-63.720898,294.131086,-50.229713,314.583008,17.943359,382.248547,-38.169527
3.474818,149.429530,1139.348993,170.724386,1041.840968,55.771999,1009.828911,45.038314,1046.177072,142.376340,1147.332275
2.493139,619.447766,153.881312,635.492647,36.753676,597.204694,-12.617631,566.125364,30.548105,596.522892,133.139759
5.040788,1188.090924,1165.279752,1156.412801,1094.613173,1147.422144,1090.906498,1057.876108,1100.415811,1079.761538,1152.089744,1142.308300,1186.837945,1174.951763,1180.824675
3.499533,927.876623,760.136364,836.441206,713.867839,847.725753,787.217391,902.839573,815.876578,935.340722,764.908867,935.337304,764.488428
3.635565,1078.892294,287.859019,1096.400000,229.500000,1128.172148,208.597271,1130.908310,209.083700,1161.167358,229.904145,1156.062701,242.110932,1093.109756,298.069106,1089.641134,296.504825
3.996932,1284.696117,380.828155,1228.560660,352.422261,1196.422395,242.233925,1196.536670,235.263132,1240.070397,221.842960,1439.387097,201.911290,5510.474619,476.984772,3686.364909,471.457166
3.234262,546.842037,800.129243,535.040721,799.382324,478.591703,856.615357,505.816358,915.602109,590.128454,916.164190,646.903128,862.145568,618.345034,828.981329
3.114600,763.591743,475.958716,762.644155,477.039767,758.976487,504.406209,860.532590,559.301400,861.642913,550.101575,795.049959,465.984159
2.235124,-71.374031,226.076227,-108.694444,207.981481,-118.967742,242.225806,-116.413043,260.108696,-71.975000,230.483333
2.356775,-54.381838,-146.530635,-3.077044,-200.221698,-101.154122,-182.913978,-78.425163,-140.297180
2.931992,670.291045,550.873134,657.000000,511.000000,677.787671,469.424658,700.100000,526.600000,696.571429,531.892857
2.067634,20.734446,-68.144158,52.230097,-94.973786,100.408257,-65.325688,25.231954,-44.532243
2.306775,336.222282,196.318084,331.345730,145.462613,344.502116,112.101777,411.676569,168.528318,370.449833,186.933110
4.254770,760.385906,1089.808725,839.268544,1114.378727,840.636570,1137.048867,806.798969,1159.783505,769.618812,1165.980198
2.672120,619.447766,153.881312,635.492647,36.753676,714.534483,-2.767241,727.782828,14.621212,642.780517,166.031579,623.088756,160.320115
