1.500000,6.000000
5.668805,589.549894,-110.295117,752.378324,-628.385576,766.300662,-83.674084,714.831719,-25.342615,647.429530,-46.627517
3.595612,-320.551521,374.831634,-98.642132,471.452469,-141.925998,595.401723,-601.273399,429.526273
2.998585,-33.830453,1367.267806,357.067888,2495.430108,265.888407,1391.419094,235.111222,1221.494354,51.648715,1080.257344,-22.548830,1110.610885
5.375741,96.424991,729.787284,71.950512,830.182594,224.366729,840.816283,285.522768,742.344695,272.805818,724.362133,198.266780,697.031153
4.167159,187.860441,557.123708,193.346457,555.606299,321.333953,617.040297,272.805818,724.362133,198.266780,697.031153
1.690013,829.946943,131.844867,807.254160,154.824901,710.290616,-12.841226,714.831719,-25.342615,766.300662,-83.674084,855.094850,-32.192348,855.163982,-32.065886
2.861648,383.910139,252.683894,440.451107,286.787969,405.469652,417.508142,354.496882,398.883476,334.938055,295.221690
5.660908,164.213498,-47.737407,319.018341,-15.947126,345.716931,-97.203704,182.829328,-276.245449,129.507599,-157.253799
5.000414,878.007087,723.177165,820.506182,690.003566,773.991050,697.684964,731.919185,742.463206,738.318811,913.653193,798.983761,929.324972
4.372403,850.633125,300.756711,795.653998,232.282707,787.122066,195.514140,806.031219,161.255203,967.104964,188.100827,982.694566,277.337862,966.392145,290.923212,861.654528,300.245408
5.064391,405.469652,417.508142,418.161756,452.122971,348.423649,515.979550,296.308856,484.324638,286.969813,453.548247,354.496882,398.883476
3.948290,54.918782,1019.426396,48.557522,1052.823009,-113.023138,988.190745,-34.528084,906.504835,16.705641,876.593817,40.515625,953.171875
3.191836,146.152108,534.323152,96.390176,491.147359,75.727899,470.791189,87.539889,461.273614,240.424669,393.472538,286.969813,453.548247,296.308856,484.324638,193.346457,555.606299,187.860441,557.123708
3.275499,778.675687,425.825592,739.622905,423.907821,643.017986,496.361511,623.755043,550.184438,622.001855,572.975881,773.991050,697.684964,820.506182,690.003566,854.123959,510.435440
3.029619,958.966765,80.963811,982.533411,91.210179,989.210173,88.087177,1051.765585,38.126815,1064.524691,-42.255556,1055.462366,-58.567742,952.363023,-69.814943,855.094850,-32.192348,855.163982,-32.065886
2.647767,966.392145,290.923212,982.694566,277.337862,1102.657601,283.475505,1208.436884,381.441546,1115.543149,468.027682,1081.626943,468.238342,968.093671,337.885326
1.833020,343.753893,597.038194,321.333953,617.040297,272.805818,724.362133,285.522768,742.344695,337.959592,766.460026,435.594755,728.809866
4.184860,895.752934,729.207308,925.103774,927.325472,1028.445378,864.172269,1046.033127,814.666012,911.690067,727.552934
3.959079,-132.293272,156.342423,-156.401663,243.209168,7.256915,299.533224,105.825168,206.192076,104.645100,193.108722
2.692236,-141.574074,1189.425926,-141.844828,1189.155172,-165.566100,1145.494280,-128.813975,1021.587114,-40.907129,1102.644076
5.969012,903.008401,1026.915098,872.852069,1052.696418,785.992970,1086.474956,600.777660,1010.278784,603.425234,1002.031743,738.318811,913.653193,798.983761,929.324972
3.296951,1020.566082,1055.680602,1042.607692,949.146154,1078.727273,905.000000,1212.464286,905.000000,1095.718085,1086.605201,1036.518582,1066.274059
5.086421,364.423560,564.594665,343.753893,597.038194,435.594755,728.809866,454.316976,726.044083,459.031535,715.489101,392.479259,571.876296
4.059966,785.992970,1086.474956,486.316052,2150.328016,592.034518,1017.630160,600.777660,1010.278784
4.056711,440.451107,286.787969,539.509706,307.266430,539.879676,374.601006,477.862812,459.328270,418.161756,452.122971,405.469652,417.508142
5.999117,435.394915,145.631287,574.460727,103.034552,599.040070,113.465786,612.639488,158.419419,581.124556,279.322158,539.509706,307.266430,440.451107,286.787969,383.910139,252.683894,380.171029,235.929804
5.874713,1160.743902,102.231707,1051.765585,38.126815,1064.524691,-42.255556,1087.774079,-43.865129,1197.571812,15.050728,1191.730506,58.373745
5.798131,-82.313762,-157.460359,-77.321162,-138.354064,-238.731684,-61.787535,-743.500000,-189.500000,-95.265957,-189.500000
3.929607,829.946943,131.844867,855.163982,-32.065886,958.966765,80.963811
4.210914,-30.755615,-35.469728,-110.892270,52.977394,-238.731684,-61.787535,-77.321162,-138.354064,-28.920705,-78.039648
2.217942,43.096748,687.001355,-101.211392,747.129747,-155.610812,721.400292,-127.429648,674.096195,-56.966473,627.360416,17.549806,642.123075,23.089591,650.756506
5.546751,850.633125,300.756711,778.675687,425.825592,854.123959,510.435440,930.646267,484.223378,861.654528,300.245408
3.731762,246.075145,1162.687861,235.111222,1221.494354,265.888407,1391.419094,479.239709,1040.016949,277.403604,1114.377619
1.874409,1115.543149,468.027682,1208.436884,381.441546,1599.359116,395.320442,1122.000000,634.000000,1117.054338,636.248028,1114.433020,634.546960
2.846897,479.033755,462.216596,471.178179,566.957614,539.239569,613.830081,549.627451,611.882353,622.001855,572.975881,623.755043,550.184438
4.464407,-175.812601,830.211195,-247.429577,749.500000,-155.610812,721.400292,-101.211392,747.129747,17.509170,875.293990,16.705641,876.593817,-34.528084,906.504835
5.632939,930.646267,484.223378,938.478054,481.924919,974.696158,493.774052,1025.412754,647.735147,911.690067,727.552934,895.752934,729.207308,878.007087,723.177165,820.506182,690.003566,854.123959,510.435440
2.859915,-56.966473,627.360416,-127.429648,674.096195,-141.925998,595.401723,-98.642132,471.452469,-71.159658,474.783678
3.710755,549.627451,611.882353,610.500000,794.500000,731.919185,742.463206,773.991050,697.684964,622.001855,572.975881
3.100669,334.938055,295.221690,251.289726,332.778082,240.424669,393.472538,286.969813,453.548247,354.496882,398.883476
2.965586,454.316976,726.044083,523.643595,804.911062,576.802032,823.013665,610.500000,794.500000,549.627451,611.882353,539.239569,613.830081,459.031535,715.489101
4.147077,-141.574074,1189.425926,-40.907129,1102.644076,-22.548830,1110.610885,-33.830453,1367.267806
4.233481,165.085366,994.695122,178.272727,993.181818,246.075145,1162.687861,235.111222,1221.494354,51.648715,1080.257344,48.557522,1052.823009,54.918782,1019.426396
4.766846,-40.907129,1102.644076,-128.813975,1021.587114,-132.731047,1003.960289,-126.417594,997.394298,-113.023138,988.190745,48.557522,1052.823009,51.648715,1080.257344,-22.548830,1110.610885
1.616121,1087.774079,-43.865129,1197.571812,15.050728,1241.661221,-40.684939,1158.930943,-68.650104
5.306447,323.119094,6.273233,319.018341,-15.947126,345.716931,-97.203704,433.132046,-132.629829,462.907547,-20.971698,423.737377,31.757377,389.796131,38.412523
2.343725,967.104964,188.100827,982.533411,91.210179,989.210173,88.087177,1123.082945,203.869034,1102.657601,283.475505,982.694566,277.337862
2.864311,-156.401663,243.209168,-320.551521,374.831634,-98.642132,471.452469,-71.159658,474.783678,25.800220,449.565414,7.256915,299.533224
1.659475,-132.731047,1003.960289,-1613.227273,749.500000,-2373.213110,698.001986,-4416.169465,777.653604,-165.566100,1145.494280,-128.813975,1021.587114
4.359336,438.515059,873.237913,523.643595,804.911062,576.802032,823.013665,603.425234,1002.031743,600.777660,1010.278784,592.034518,1017.630160,509.469498,1010.626877,440.494700,970.240318
4.557630,739.622905,423.907821,643.017986,496.361511,539.879676,374.601006,539.509706,307.266430,581.124556,279.322158,663.011050,318.110497
3.386219,43.096748,687.001355,92.994121,725.681489,106.660714,635.872449,88.473913,609.891304,23.089591,650.756506
4.516618,663.011050,318.110497,581.124556,279.322158,612.639488,158.419419,787.122066,195.514140,795.653998,232.282707
2.978602,-117.101668,83.099583,-110.892270,52.977394,-238.731684,-61.787535,-743.500000,-189.500000,-2915.738095,-523.690476,-131.293176,109.137915
5.921649,129.507599,-157.253799,182.829328,-276.245449,182.629816,-278.892832,-82.313762,-157.460359,-77.321162,-138.354064,-28.920705,-78.039648
5.778249,2006.017711,792.262943,1132.069178,660.572068,1143.402253,723.953339,1695.934721,821.459068
5.956885,1020.566082,1055.680602,915.273463,1023.785392,903.008401,1026.915098,872.852069,1052.696418,887.651976,1313.174772,1036.518582,1066.274059
5.337839,1028.445378,864.172269,1042.607692,949.146154,1020.566082,1055.680602,915.273463,1023.785392,925.103774,927.325472
5.162837,754.130271,-831.611387,752.378324,-628.385576,766.300662,-83.674084,855.094850,-32.192348,952.363023,-69.814943,851.481453,-1406.495741
2.362171,246.075145,1162.687861,178.272727,993.181818,180.914957,952.961203,242.999274,910.515803,314.063083,929.845159,340.526828,976.238390,277.403604,1114.377619
5.965583,92.994121,725.681489,96.424991,729.787284,198.266780,697.031153,187.860441,557.123708,146.152108,534.323152,106.660714,635.872449
3.740050,861.654528,300.245408,966.392145,290.923212,968.093671,337.885326,938.478054,481.924919,930.646267,484.223378
3.936045,435.394915,145.631287,389.796131,38.412523,323.119094,6.273233,274.650535,90.083451,316.305062,179.160055,380.171029,235.929804
4.619389,392.479259,571.876296,471.178179,566.957614,539.239569,613.830081,459.031535,715.489101
2.826476,851.481453,-1406.495741,1326.456821,-4611.274596,1055.462366,-58.567742,952.363023,-69.814943
4.699086,-126.417594,997.394298,-175.812601,830.211195,-34.528084,906.504835,-113.023138,988.190745
2.437806,1078.727273,905.000000,1070.616019,815.776207,1129.587786,805.688931,1223.989849,891.240801,1212.464286,905.000000
5.277491,164.213498,-47.737407,106.131435,55.423273,-30.755615,-35.469728,-28.920705,-78.039648,129.507599,-157.253799
3.984087,806.031219,161.255203,807.254160,154.824901,829.946943,131.844867,958.966765,80.963811,982.533411,91.210179,967.104964,188.100827
4.322488,-247.429577,749.500000,-1613.227273,749.500000,-2373.213110,698.001986,-601.273399,429.526273,-141.925998,595.401723,-127.429648,674.096195,-155.610812,721.400292
2.012653,340.526828,976.238390,440.494700,970.240318,438.515059,873.237913,353.546160,832.932153,314.063083,929.845159
5.795921,1695.934721,821.459068,1223.989849,891.240801,1129.587786,805.688931,1143.402253,723.953339
3.986412,524.646484,-83.077558,589.549894,-110.295117,752.378324,-628.385576,754.130271,-831.611387,460.250993,-151.216973
2.534830,224.366729,840.816283,71.950512,830.182594,55.331561,854.187745,180.914957,952.961203,242.999274,910.515803
5.167934,1081.626943,468.238342,974.696158,493.774052,1025.412754,647.735147,1114.433020,634.546960,1115.543149,468.027682
2.074028,537.735054,-58.328261,647.429530,-46.627517,589.549894,-110.295117,524.646484,-83.077558
2.499938,418.161756,452.122971,348.423649,515.979550,364.423560,564.594665,392.479259,571.876296,471.178179,566.957614,479.033755,462.216596,477.862812,459.328270
4.803629,872.852069,1052.696418,887.651976,1313.174772,425.601717,3315.392560,393.584813,2708.235634,486.316052,2150.328016,785.992970,1086.474956
1.926667,610.500000,794.500000,731.919185,742.463206,738.318811,913.653193,603.425234,1002.031743,576.802032,823.013665
3.945526,2006.017711,792.262943,5355.916667,634.000000,1122.000000,634.000000,1117.054338,636.248028,1132.069178,660.572068
5.731197,539.879676,374.601006,643.017986,496.361511,623.755043,550.184438,479.033755,462.216596,477.862812,459.328270
2.377357,274.650535,90.083451,123.367930,115.453825,106.131435,55.423273,164.213498,-47.737407,319.018341,-15.947126,323.119094,6.273233
2.371051,-82.313762,-157.460359,182.629816,-278.892832,173.959429,-1822.221696,-95.265957,-189.500000
5.095033,-126.417594,997.394298,-132.731047,1003.960289,-1613.227273,749.500000,-247.429577,749.500000,-175.812601,830.211195
1.609383,435.394915,145.631287,574.460727,103.034552,536.355895,53.984716,423.737377,31.757377,389.796131,38.412523
2.479023,1169.954023,129.862069,1123.082945,203.869034,989.210173,88.087177,1051.765585,38.126815,1160.743902,102.231707
3.942990,165.542307,263.017470,87.539889,461.273614,240.424669,393.472538,251.289726,332.778082
4.212118,25.800220,449.565414,-71.159658,474.783678,-56.966473,627.360416,17.549806,642.123075,67.913377,470.192266
5.246526,165.085366,994.695122,178.272727,993.181818,180.914957,952.961203,55.331561,854.187745,17.509170,875.293990,16.705641,876.593817,40.515625,953.171875
5.886363,7.256915,299.533224,25.800220,449.565414,67.913377,470.192266,75.727899,470.791189,87.539889,461.273614,165.542307,263.017470,157.436442,249.478952,105.825168,206.192076
2.049002,462.907547,-20.971698,433.132046,-132.629829,460.250993,-151.216973,524.646484,-83.077558,537.735054,-58.328261,526.467775,-4.245322
3.131889,106.660714,635.872449,146.152108,534.323152,96.390176,491.147359,88.473913,609.891304
4.742065,938.478054,481.924919,974.696158,493.774052,1081.626943,468.238342,968.093671,337.885326
5.021396,1169.954023,129.862069,1123.082945,203.869034,1102.657601,283.475505,1208.436884,381.441546,1599.359116,395.320442,1924.249292,373.557464
4.267828,-117.101668,83.099583,112.142787,140.410697,104.645100,193.108722,-132.293272,156.342423,-131.293176,109.137915
1.512530,-30.755615,-35.469728,-110.892270,52.977394,-117.101668,83.099583,112.142787,140.410697,123.367930,115.453825,106.131435,55.423273
3.473799,850.633125,300.756711,795.653998,232.282707,663.011050,318.110497,739.622905,423.907821,778.675687,425.825592
4.829012,423.737377,31.757377,536.355895,53.984716,526.467775,-4.245322,462.907547,-20.971698
2.551147,314.063083,929.845159,242.999274,910.515803,224.366729,840.816283,285.522768,742.344695,337.959592,766.460026,353.546160,832.932153
2.757746,316.305062,179.160055,157.436442,249.478952,105.825168,206.192076,104.645100,193.108722,112.142787,140.410697,123.367930,115.453825,274.650535,90.083451
3.876271,806.031219,161.255203,807.254160,154.824901,710.290616,-12.841226,599.040070,113.465786,612.639488,158.419419,787.122066,195.514140
1.798660,165.085366,994.695122,40.515625,953.171875,54.918782,1019.426396
2.432915,435.594755,728.809866,337.959592,766.460026,353.546160,832.932153,438.515059,873.237913,523.643595,804.911062,454.316976,726.044083
2.518036,23.089591,650.756506,17.549806,642.123075,67.913377,470.192266,75.727899,470.791189,96.390176,491.147359,88.473913,609.891304
5.692793,43.096748,687.001355,-101.211392,747.129747,17.509170,875.293990,55.331561,854.187745,71.950512,830.182594,96.424991,729.787284,92.994121,725.681489
5.529502,277.403604,1114.377619,340.526828,976.238390,440.494700,970.240318,509.469498,1010.626877,479.239709,1040.016949
2.932318,7761.546702,522.685500,5355.916667,634.000000,1122.000000,634.000000,1599.359116,395.320442,1924.249292,373.557464
3.276531,1132.069178,660.572068,1117.054338,636.248028,1114.433020,634.546960,1025.412754,647.735147,911.690067,727.552934,1046.033127,814.666012,1070.616019,815.776207,1129.587786,805.688931,1143.402253,723.953339
3.655352,536.355895,53.984716,574.460727,103.034552,599.040070,113.465786,710.290616,-12.841226,714.831719,-25.342615,647.429530,-46.627517,537.735054,-58.328261,526.467775,-4.245322
4.486604,380.171029,235.929804,383.910139,252.683894,334.938055,295.221690,251.289726,332.778082,165.542307,263.017470,157.436442,249.478952,316.305062,179.160055
4.529913,479.239709,1040.016949,509.469498,1010.626877,592.034518,1017.630160,486.316052,2150.328016,393.584813,2708.235634,357.067888,2495.430108,265.888407,1391.419094
5.431364,1028.445378,864.172269,1042.607692,949.146154,1078.727273,905.000000,1070.616019,815.776207,1046.033127,814.666012
4.307104,895.752934,729.207308,878.007087,723.177165,798.983761,929.324972,903.008401,1026.915098,915.273463,1023.785392,925.103774,927.325472
2.136236,364.423560,564.594665,348.423649,515.979550,296.308856,484.324638,193.346457,555.606299,321.333953,617.040297,343.753893,597.038194
